txrx_rtl_files/rx_rtl_files/sim/iladata.vcd
$date
        2018-Dec-27 22:02:13
$end
$version
        Vivado v2018.3 (64-bit)
$end
$timescale
        1ps
$end
$scope module dut $end
$var reg 32 " detect_errors_i/count [31:0] $end
$var reg 32 B detect_errors_i/ok [31:0] $end
$var reg 8 b detect_errors_i/rx_data [7:0] $end
$var reg 3 j detect_errors_i/state [2:0] $end
$var reg 24 m hdmi_top_i/bram2rgb_i/in_from_ram [23:0] $end
$var reg 20 '" hdmi_top_i/bram2rgb_i/ram_addr [19:0] $end
$var reg 24 ;" hdmi_top_i/bram2rgb_i/rgb24bit [23:0] $end
$var reg 8 S" hdmi_top_i/data_in [7:0] $end
$var reg 12 [" i_rx_majority_wrapper/count_edge [11:0] $end
$var reg 8 g" i_rx_majority_wrapper/rxdata [7:0] $end
$var reg 16 o" i_rx_majority_wrapper/segment_num [15:0] $end
$var reg 1 !# hdmi_top_i/data_en $end
$var reg 1 "# hdmi_top_i/bram2rgb_i/den_2s $end
$var reg 1 ## hdmi_top_i/bram2rgb_i/hd_2s $end
$var reg 1 $# i_rx_majority_wrapper/rx_en $end
$var reg 1 %# detect_errors_i/rx_en $end
$var reg 1 &# i_rx_majority_wrapper/segment_num_en $end
$var reg 1 '# detect_errors_i/valid $end
$var reg 1 (# hdmi_top_i/bram2rgb_i/vd_2s $end
$var reg 1 )# _TRIGGER $end
$var reg 1 *# _WINDOW $end
$var reg 1 +# _GAP $end
$upscope $end
$enddefinitions $end
#0
$dumpvars
b0 "
b0 B
b11 b
b1 j
b0 m
b1110000100000000 '"
b111111110000000011111111 ;"
b11 S"
b101101100 ["
b0 g"
b100 o"
0!#
1"#
0##
1$#
0%#
1&#
0'#
0(#
0)#
1*#
0+#
$end
#1
b101101101 ["
#2
b101101110 ["
#3
b101101111 ["
#4
b101110000 ["
#5
b101110001 ["
#6
b101110010 ["
#7
b101110011 ["
#8
b101110100 ["
#9
b101110101 ["
#10
b101110110 ["
#11
b101110111 ["
#12
b101111000 ["
#13
b101111001 ["
#14
b101111010 ["
#15
b101111011 ["
#16
b101111100 ["
#17
b101111101 ["
#18
b101111110 ["
#19
b101111111 ["
#20
b110000000 ["
#21
b110000001 ["
#22
b110000010 ["
#23
b110000011 ["
#24
b110000100 ["
#25
b110000101 ["
#26
b110000110 ["
#27
b110000111 ["
#28
b110001000 ["
#29
b110001001 ["
#30
b110001010 ["
#31
b110001011 ["
#32
b110001100 ["
#33
b110001101 ["
#34
b110001110 ["
#35
b110001111 ["
#36
b110010000 ["
#37
b110010001 ["
#38
b110010010 ["
#39
b110010011 ["
#40
b110010100 ["
#41
b110010101 ["
#42
b110010110 ["
#43
b110010111 ["
#44
b110011000 ["
#45
b110011001 ["
#46
b110011010 ["
#47
b110011011 ["
#48
b110011100 ["
#49
b110011101 ["
#50
b110011110 ["
#51
b110011111 ["
#52
b110100000 ["
#53
b110100001 ["
#54
b110100010 ["
#55
b110100011 ["
#56
b110100100 ["
#57
b110100101 ["
#58
b110100110 ["
#59
b110100111 ["
#60
b110101000 ["
#61
b110101001 ["
#62
b110101010 ["
#63
b110101011 ["
#64
b110101100 ["
#65
b110101101 ["
#66
b110101110 ["
#67
b110101111 ["
#68
b110110000 ["
#69
b110110001 ["
#70
b110110010 ["
#71
b110110011 ["
#72
b110110100 ["
#73
b110110101 ["
#74
b110110110 ["
#75
b110110111 ["
#76
b110111000 ["
#77
b110111001 ["
#78
b110111010 ["
#79
b110111011 ["
#80
b110111100 ["
#81
b110111101 ["
#82
b110111110 ["
#83
b110111111 ["
#84
b111000000 ["
#85
b111000001 ["
#86
b111000010 ["
#87
b111000011 ["
#88
b111000100 ["
#89
b111000101 ["
#90
b111000110 ["
#91
b111000111 ["
#92
b111001000 ["
#93
b111001001 ["
#94
b111001010 ["
#95
b111001011 ["
#96
b111001100 ["
#97
b111001101 ["
#98
b111001110 ["
#99
b111001111 ["
#100
b111010000 ["
#101
b111010001 ["
#102
b111010010 ["
#103
b111010011 ["
#104
b111010100 ["
#105
b111010101 ["
#106
b111010110 ["
#107
b111010111 ["
#108
b111011000 ["
#109
b111011001 ["
#110
b111011010 ["
#111
b111011011 ["
#112
b111011100 ["
#113
b111011101 ["
#114
b111011110 ["
#115
b111011111 ["
#116
b111100000 ["
#117
b111100001 ["
#118
b111100010 ["
#119
b111100011 ["
#120
b111100100 ["
#121
b111100101 ["
#122
b111100110 ["
#123
b111100111 ["
#124
b111101000 ["
#125
b111101001 ["
#126
b111101010 ["
#127
b111101011 ["
#128
b111101100 ["
#129
b111101101 ["
#130
b111101110 ["
#131
b111101111 ["
#132
b111110000 ["
#133
b111110001 ["
#134
b111110010 ["
#135
b111110011 ["
#136
b111110100 ["
#137
b111110101 ["
#138
b111110110 ["
#139
b111110111 ["
#140
b111111000 ["
#141
b111111001 ["
#142
b111111010 ["
#143
b111111011 ["
#144
b111111100 ["
#145
b111111101 ["
#146
b111111110 ["
#147
b111111111 ["
#148
b1000000000 ["
#149
b1000000001 ["
#150
b1000000010 ["
#151
b1000000011 ["
#152
b1000000100 ["
#153
b1000000101 ["
#154
b1000000110 ["
#155
b1000000111 ["
#156
b1000001000 ["
#157
b1000001001 ["
#158
b1000001010 ["
#159
b1000001011 ["
#160
b1000001100 ["
#161
b1000001101 ["
#162
b1000001110 ["
#163
b1000001111 ["
#164
b1000010000 ["
#165
b1000010001 ["
#166
b1000010010 ["
#167
b1000010011 ["
#168
b1000010100 ["
#169
b1000010101 ["
#170
b1000010110 ["
#171
b1000010111 ["
#172
b1000011000 ["
#173
b1000011001 ["
#174
b1000011010 ["
#175
b1000011011 ["
#176
b1000011100 ["
#177
b1000011101 ["
#178
b1000011110 ["
#179
b1000011111 ["
#180
b1000100000 ["
#181
b1000100001 ["
#182
b1000100010 ["
#183
b1000100011 ["
#184
b1000100100 ["
#185
b1000100101 ["
#186
b1000100110 ["
#187
b1000100111 ["
#188
b1000101000 ["
#189
b1000101001 ["
#190
b1000101010 ["
#191
b1000101011 ["
#192
b1000101100 ["
#193
b1000101101 ["
#194
b1000101110 ["
#195
b1000101111 ["
#196
b1000110000 ["
#197
b1000110001 ["
#198
b1000110010 ["
#199
b1000110011 ["
#200
b1000110100 ["
#201
b1000110101 ["
#202
b1000110110 ["
#203
b1000110111 ["
#204
b1000111000 ["
#205
b1000111001 ["
#206
b1000111010 ["
#207
b1000111011 ["
#208
b1000111100 ["
#209
b1000111101 ["
#210
b1000111110 ["
#211
b1000111111 ["
#212
b1001000000 ["
#213
b1001000001 ["
#214
b1001000010 ["
#215
b1001000011 ["
#216
b1001000100 ["
#217
b1001000101 ["
#218
b1001000110 ["
#219
b1001000111 ["
#220
b1001001000 ["
#221
b1001001001 ["
#222
b1001001010 ["
#223
b1001001011 ["
#224
b1001001100 ["
#225
b1001001101 ["
#226
b1001001110 ["
#227
b1001001111 ["
#228
b1001010000 ["
#229
b1001010001 ["
#230
b1001010010 ["
#231
b1001010011 ["
#232
b1001010100 ["
#233
b1001010101 ["
#234
b1001010110 ["
#235
b1001010111 ["
#236
b1001011000 ["
#237
b1001011001 ["
#238
b1001011010 ["
#239
b1001011011 ["
#240
b1001011100 ["
#241
b1001011101 ["
#242
b1001011110 ["
#243
b1001011111 ["
#244
b1001100000 ["
#245
b1001100001 ["
#246
b1001100010 ["
#247
b1001100011 ["
#248
b1001100100 ["
#249
b1001100101 ["
#250
b1001100110 ["
#251
b1001100111 ["
#252
b1001101000 ["
#253
b1001101001 ["
#254
b1001101010 ["
#255
b1001101011 ["
#256
b1001101100 ["
#257
b1001101101 ["
#258
b1001101110 ["
#259
b1001101111 ["
#260
b1001110000 ["
#261
b1001110001 ["
#262
b1001110010 ["
#263
b1001110011 ["
#264
b1001110100 ["
#265
b1001110101 ["
#266
b1001110110 ["
#267
b1001110111 ["
#268
b1001111000 ["
#269
b1001111001 ["
#270
b1001111010 ["
#271
b1001111011 ["
#272
b1001111100 ["
#273
b1001111101 ["
#274
b1001111110 ["
#275
b1001111111 ["
#276
b1010000000 ["
#277
b1010000001 ["
#278
b1010000010 ["
#279
b1010000011 ["
#280
b1010000100 ["
#281
b1010000101 ["
#282
b1010000110 ["
#283
b1010000111 ["
#284
b1010001000 ["
#285
b1010001001 ["
#286
b1010001010 ["
#287
b1010001011 ["
#288
b1010001100 ["
#289
b1010001101 ["
#290
b1010001110 ["
#291
b1010001111 ["
#292
b1010010000 ["
#293
b1010010001 ["
#294
b1010010010 ["
#295
b1010010011 ["
#296
b1010010100 ["
#297
b1010010101 ["
#298
b1010010110 ["
#299
b1010010111 ["
#300
b1010011000 ["
#301
b1010011001 ["
#302
b1010011010 ["
#303
b1010011011 ["
#304
b1010011100 ["
#305
b1010011101 ["
#306
b1010011110 ["
#307
b1010011111 ["
#308
b1010100000 ["
#309
b1010100001 ["
#310
b1010100010 ["
#311
b1010100011 ["
#312
b1010100100 ["
#313
b1010100101 ["
#314
b1010100110 ["
#315
b1010100111 ["
#316
b1010101000 ["
#317
b1010101001 ["
#318
b1010101010 ["
#319
b1010101011 ["
#320
b1010101100 ["
#321
b1010101101 ["
#322
b1010101110 ["
#323
b1010101111 ["
#324
b1010110000 ["
#325
b1010110001 ["
#326
b1010110010 ["
#327
b1010110011 ["
#328
b1010110100 ["
#329
b1010110101 ["
#330
b1010110110 ["
#331
b1010110111 ["
#332
b1010111000 ["
#333
b1010111001 ["
#334
b1010111010 ["
#335
b1010111011 ["
#336
b1010111100 ["
#337
b1010111101 ["
#338
b1010111110 ["
#339
b1010111111 ["
#340
b1011000000 ["
#341
b1011000001 ["
#342
b1011000010 ["
#343
b1011000011 ["
#344
b1011000100 ["
#345
b1011000101 ["
#346
b1011000110 ["
#347
b1011000111 ["
#348
b1011001000 ["
#349
b1011001001 ["
#350
b1011001010 ["
#351
b1011001011 ["
#352
b1011001100 ["
#353
b1011001101 ["
#354
b1011001110 ["
#355
b1011001111 ["
#356
b1011010000 ["
#357
b1011010001 ["
#358
b1011010010 ["
#359
b1011010011 ["
#360
b1011010100 ["
#361
b1011010101 ["
#362
b1011010110 ["
#363
b1011010111 ["
#364
b1011011000 ["
#365
b1011011001 ["
#366
b1011011010 ["
#367
b1011011011 ["
#368
b1011011100 ["
#369
b1011011101 ["
#370
b1011011110 ["
#371
b1011011111 ["
#372
b1011100000 ["
#373
b1011100001 ["
#374
b1011100010 ["
#375
b1011100011 ["
#376
b1011100100 ["
#377
b1011100101 ["
#378
b1011100110 ["
#379
b1011100111 ["
#380
b1011101000 ["
#381
b1011101001 ["
#382
b1011101010 ["
#383
b1011101011 ["
#384
b1011101100 ["
#385
b1011101101 ["
#386
b1011101110 ["
#387
b1011101111 ["
#388
b1011110000 ["
#389
b1011110001 ["
#390
b1011110010 ["
#391
b1011110011 ["
#392
b1011110100 ["
#393
b1011110101 ["
#394
b1011110110 ["
#395
b1011110111 ["
#396
b1011111000 ["
#397
b1011111001 ["
#398
b1011111010 ["
#399
b1011111011 ["
#400
b1011111100 ["
#401
b1011111101 ["
#402
b1011111110 ["
#403
b1011111111 ["
#404
b1100000000 ["
#405
b1100000001 ["
#406
b1100000010 ["
#407
b1100000011 ["
#408
b1100000100 ["
#409
b1100000101 ["
#410
b1100000110 ["
#411
b1100000111 ["
#412
b1100001000 ["
#413
b1100001001 ["
#414
b1100001010 ["
#415
b1100001011 ["
#416
b1100001100 ["
#417
b1100001101 ["
#418
b1100001110 ["
#419
b1100001111 ["
#420
b1100010000 ["
#421
b1100010001 ["
#422
b1100010010 ["
#423
b1100010011 ["
#424
b1100010100 ["
#425
b1100010101 ["
#426
b1100010110 ["
#427
b1100010111 ["
#428
b1100011000 ["
#429
b1100011001 ["
#430
b1100011010 ["
#431
b1100011011 ["
#432
b1100011100 ["
#433
b1100011101 ["
#434
b1100011110 ["
#435
b1100011111 ["
#436
b1100100000 ["
#437
b1100100001 ["
#438
b1100100010 ["
#439
b1100100011 ["
#440
b1100100100 ["
#441
b1100100101 ["
#442
b1100100110 ["
#443
b1100100111 ["
#444
b1100101000 ["
#445
b1100101001 ["
#446
b1100101010 ["
#447
b1100101011 ["
#448
b1100101100 ["
#449
b1100101101 ["
#450
b1100101110 ["
#451
b1100101111 ["
#452
b1100110000 ["
#453
b1100110001 ["
#454
b1100110010 ["
#455
b1100110011 ["
#456
b1100110100 ["
#457
b1100110101 ["
#458
b1100110110 ["
#459
b1100110111 ["
#460
b1100111000 ["
#461
b1100111001 ["
#462
b1100111010 ["
#463
b1100111011 ["
#464
b1100111100 ["
#465
b1100111101 ["
#466
b1100111110 ["
#467
b1100111111 ["
#468
b1101000000 ["
#469
b1101000001 ["
#470
b1101000010 ["
#471
b1101000011 ["
#472
b1101000100 ["
#473
b1101000101 ["
#474
b1101000110 ["
#475
b1101000111 ["
#476
b1101001000 ["
#477
b1101001001 ["
#478
b1101001010 ["
#479
b1101001011 ["
#480
b1101001100 ["
#481
b1101001101 ["
#482
b1101001110 ["
#483
b1101001111 ["
#484
b1101010000 ["
#485
b1101010001 ["
#486
b1101010010 ["
#487
b1101010011 ["
#488
b1101010100 ["
#489
b1101010101 ["
#490
b1101010110 ["
#491
b1101010111 ["
#492
b1101011000 ["
#493
b1101011001 ["
#494
b1101011010 ["
#495
b1101011011 ["
#496
b1101011100 ["
#497
b1101011101 ["
#498
b1101011110 ["
#499
b1101011111 ["
#500
b1101100000 ["
#501
b1101100001 ["
#502
b1101100010 ["
#503
b1101100011 ["
#504
b1101100100 ["
#505
b1101100101 ["
#506
b1101100110 ["
#507
b1101100111 ["
#508
b1101101000 ["
#509
b1101101001 ["
#510
b1101101010 ["
#511
b1101101011 ["
#512
b1101101100 ["
#513
b1101101101 ["
#514
b1101101110 ["
#515
b1101101111 ["
#516
b1101110000 ["
#517
b1101110001 ["
#518
b1101110010 ["
#519
b1101110011 ["
#520
b1101110100 ["
#521
b1101110101 ["
0"#
#522
b1101110110 ["
#523
b1101110111 ["
#524
b1101111000 ["
#525
b1101111001 ["
#526
b1101111010 ["
#527
b1101111011 ["
#528
b1101111100 ["
#529
b1101111101 ["
#530
b1101111110 ["
#531
b1101111111 ["
#532
b1110000000 ["
#533
b1110000001 ["
#534
b1110000010 ["
#535
b1110000011 ["
#536
b1110000100 ["
#537
b1110000101 ["
#538
b1110000110 ["
#539
b1110000111 ["
#540
b1110001000 ["
#541
b1110001001 ["
#542
b1110001010 ["
#543
b1110001011 ["
#544
b1110001100 ["
#545
b1110001101 ["
#546
b1110001110 ["
#547
b1110001111 ["
#548
b1110010000 ["
#549
b1110010001 ["
#550
b1110010010 ["
#551
b1110010011 ["
#552
b1110010100 ["
#553
b1110010101 ["
#554
b1110010110 ["
#555
b1110010111 ["
#556
b1110011000 ["
#557
b1110011001 ["
#558
b1110011010 ["
#559
b1110011011 ["
#560
b1110011100 ["
#561
b1110011101 ["
#562
b1110011110 ["
#563
b1110011111 ["
#564
b1110100000 ["
#565
b1110100001 ["
#566
b1110100010 ["
#567
b1110100011 ["
#568
b1110100100 ["
#569
b1110100101 ["
#570
b1110100110 ["
#571
b1110100111 ["
#572
b1110101000 ["
#573
b1110101001 ["
#574
b1110101010 ["
#575
b1110101011 ["
#576
b1110101100 ["
#577
b1110101101 ["
#578
b1110101110 ["
#579
b1110101111 ["
#580
b1110110000 ["
#581
b1110110001 ["
#582
b1110110010 ["
#583
b1110110011 ["
#584
b1110110100 ["
#585
b1110110101 ["
#586
b1110110110 ["
#587
b1110110111 ["
#588
b1110111000 ["
#589
b1110111001 ["
#590
b1110111010 ["
#591
b1110111011 ["
#592
b1110111100 ["
#593
b1110111101 ["
#594
b1110111110 ["
#595
b1110111111 ["
#596
b1111000000 ["
#597
b1111000001 ["
#598
b1111000010 ["
#599
b1111000011 ["
1##
#600
b1111000100 ["
#601
b1111000101 ["
#602
b1111000110 ["
#603
b1111000111 ["
#604
b1111001000 ["
#605
b1111001001 ["
#606
b1111001010 ["
#607
b1111001011 ["
#608
b1111001100 ["
#609
b1111001101 ["
#610
b1111001110 ["
#611
b1111001111 ["
#612
b1111010000 ["
#613
b1111010001 ["
#614
b1111010010 ["
#615
b1111010011 ["
#616
b1111010100 ["
#617
b1111010101 ["
#618
b1111010110 ["
#619
b1111010111 ["
#620
b1111011000 ["
#621
b1111011001 ["
#622
b1111011010 ["
#623
b1111011011 ["
#624
b1111011100 ["
#625
b1111011101 ["
#626
b1111011110 ["
#627
b1111011111 ["
#628
b1111100000 ["
#629
b1111100001 ["
#630
b1111100010 ["
#631
b1111100011 ["
#632
b1111100100 ["
#633
b1111100101 ["
#634
b1111100110 ["
#635
b1111100111 ["
#636
b1111101000 ["
#637
b1111101001 ["
#638
b1111101010 ["
#639
b1111101011 ["
#640
b1111101100 ["
#641
b1111101101 ["
#642
b1111101110 ["
#643
b1111101111 ["
#644
b1111110000 ["
#645
b1111110001 ["
#646
b1111110010 ["
#647
b1111110011 ["
#648
b1111110100 ["
#649
b1111110101 ["
#650
b1111110110 ["
#651
b1111110111 ["
#652
b1111111000 ["
#653
b1111111001 ["
#654
b1111111010 ["
#655
b1111111011 ["
#656
b1111111100 ["
#657
b1111111101 ["
#658
b1111111110 ["
#659
b1111111111 ["
#660
b10000000000 ["
#661
b10000000001 ["
#662
b10000000010 ["
#663
b10000000011 ["
#664
b10000000100 ["
#665
b10000000101 ["
#666
b10000000110 ["
#667
b10000000111 ["
#668
b10000001000 ["
#669
b10000001001 ["
#670
b10000001010 ["
#671
b10000001011 ["
#672
b10000001100 ["
#673
b10000001101 ["
#674
b10000001110 ["
#675
b10000001111 ["
#676
b10000010000 ["
#677
b10000010001 ["
#678
b10000010010 ["
#679
b10000010011 ["
#680
b10000010100 ["
#681
b10000010101 ["
#682
b10000010110 ["
#683
b10000010111 ["
#684
b10000011000 ["
#685
b10000011001 ["
#686
b10000011010 ["
#687
b10000011011 ["
#688
b10000011100 ["
#689
b10000011101 ["
#690
b10000011110 ["
#691
b10000011111 ["
#692
b10000100000 ["
#693
b10000100001 ["
#694
b10000100010 ["
#695
b10000100011 ["
#696
b10000100100 ["
#697
b10000100101 ["
#698
b10000100110 ["
#699
b10000100111 ["
#700
b10000101000 ["
#701
b10000101001 ["
#702
b10000101010 ["
#703
b10000101011 ["
#704
b10000101100 ["
#705
b10000101101 ["
#706
b10000101110 ["
#707
b10000101111 ["
#708
b10000110000 ["
#709
b10000110001 ["
#710
b10000110010 ["
#711
b10000110011 ["
#712
b10000110100 ["
#713
b10000110101 ["
#714
b10000110110 ["
#715
b10000110111 ["
#716
b10000111000 ["
#717
b10000111001 ["
#718
b10000111010 ["
#719
b10000111011 ["
#720
b10000111100 ["
#721
b10000111101 ["
#722
b10000111110 ["
#723
b10000111111 ["
#724
b10001000000 ["
#725
b10001000001 ["
#726
b10001000010 ["
#727
b10001000011 ["
#728
b10001000100 ["
#729
b10001000101 ["
#730
b10001000110 ["
#731
b10001000111 ["
#732
b10001001000 ["
#733
b10001001001 ["
#734
b10001001010 ["
#735
b10001001011 ["
#736
b10001001100 ["
#737
b10001001101 ["
#738
b10001001110 ["
#739
b10001001111 ["
#740
b10001010000 ["
#741
b10001010001 ["
#742
b10001010010 ["
#743
b10001010011 ["
#744
b10001010100 ["
#745
b10001010101 ["
#746
b10001010110 ["
#747
b10001010111 ["
#748
b10001011000 ["
#749
b10001011001 ["
#750
b10001011010 ["
#751
b10001011011 ["
#752
b10001011100 ["
#753
b10001011101 ["
#754
b10001011110 ["
#755
b10001011111 ["
#756
b10001100000 ["
#757
b10001100001 ["
#758
b10001100010 ["
#759
b10001100011 ["
#760
b10001100100 ["
#761
b10001100101 ["
#762
b10001100110 ["
#763
b10001100111 ["
#764
b10001101000 ["
#765
b10001101001 ["
#766
b10001101010 ["
#767
b10001101011 ["
#768
b10001101100 ["
#769
b10001101101 ["
#770
b10001101110 ["
#771
b10001101111 ["
#772
b10001110000 ["
#773
b10001110001 ["
#774
b10001110010 ["
#775
b10001110011 ["
#776
b10001110100 ["
#777
b10001110101 ["
#778
b10001110110 ["
#779
b10001110111 ["
#780
b10001111000 ["
#781
b10001111001 ["
#782
b10001111010 ["
#783
b10001111011 ["
#784
b10001111100 ["
#785
b10001111101 ["
#786
b10001111110 ["
#787
b10001111111 ["
#788
b10010000000 ["
#789
b10010000001 ["
#790
b10010000010 ["
#791
b10010000011 ["
#792
b10010000100 ["
#793
b10010000101 ["
#794
b10010000110 ["
#795
b10010000111 ["
#796
b10010001000 ["
#797
b10010001001 ["
#798
b10010001010 ["
#799
b10010001011 ["
#800
b10010001100 ["
#801
b10010001101 ["
#802
b10010001110 ["
#803
b10010001111 ["
#804
b10010010000 ["
#805
b10010010001 ["
#806
b10010010010 ["
#807
b10010010011 ["
#808
b10010010100 ["
#809
b10010010101 ["
#810
b10010010110 ["
#811
b10010010111 ["
#812
b10010011000 ["
#813
b10010011001 ["
#814
b10010011010 ["
#815
b10010011011 ["
#816
b10010011100 ["
#817
b10010011101 ["
#818
b10010011110 ["
#819
b10010011111 ["
#820
b10010100000 ["
#821
b10010100001 ["
#822
b10010100010 ["
#823
b10010100011 ["
#824
b10010100100 ["
#825
b10010100101 ["
#826
b10010100110 ["
#827
b10010100111 ["
#828
b10010101000 ["
#829
b10010101001 ["
#830
b10010101010 ["
#831
b10010101011 ["
#832
b10010101100 ["
#833
b10010101101 ["
#834
b10010101110 ["
#835
b10010101111 ["
#836
b10010110000 ["
#837
b10010110001 ["
#838
b10010110010 ["
#839
b10010110011 ["
#840
b10010110100 ["
#841
b10010110101 ["
#842
b10010110110 ["
#843
b10010110111 ["
#844
b10010111000 ["
#845
b10010111001 ["
#846
b10010111010 ["
#847
b10010111011 ["
#848
b10010111100 ["
#849
b10010111101 ["
#850
b10010111110 ["
#851
b10010111111 ["
#852
b10011000000 ["
#853
b10011000001 ["
#854
b10011000010 ["
#855
b10011000011 ["
#856
b10011000100 ["
#857
b10011000101 ["
#858
b10011000110 ["
#859
b10011000111 ["
#860
b10011001000 ["
#861
b10011001001 ["
#862
b10011001010 ["
#863
b10011001011 ["
#864
b10011001100 ["
#865
b10011001101 ["
#866
b10011001110 ["
#867
b10011001111 ["
#868
b10011010000 ["
#869
b10011010001 ["
#870
b10011010010 ["
#871
b10011010011 ["
#872
b10011010100 ["
#873
b10011010101 ["
#874
b10011010110 ["
#875
b10011010111 ["
#876
b10011011000 ["
#877
b10011011001 ["
#878
b10011011010 ["
#879
b10011011011 ["
#880
b10011011100 ["
#881
b10011011101 ["
#882
b10011011110 ["
#883
b10011011111 ["
#884
b10011100000 ["
#885
b10011100001 ["
#886
b10011100010 ["
#887
b10011100011 ["
#888
b10011100100 ["
#889
b10011100101 ["
#890
b10011100110 ["
#891
b10011100111 ["
#892
b10011101000 ["
#893
b10011101001 ["
#894
b10011101010 ["
#895
b10011101011 ["
#896
b10011101100 ["
#897
b10011101101 ["
#898
b10011101110 ["
#899
b10011101111 ["
#900
b10011110000 ["
#901
b10011110001 ["
#902
b10011110010 ["
#903
b10011110011 ["
#904
b10011110100 ["
#905
b10011110101 ["
#906
b10011110110 ["
#907
b10011110111 ["
#908
b10011111000 ["
#909
b10011111001 ["
#910
b10011111010 ["
#911
b10011111011 ["
#912
b10011111100 ["
#913
b10011111101 ["
#914
b10011111110 ["
#915
b10011111111 ["
#916
b10100000000 ["
#917
b10100000001 ["
#918
b10100000010 ["
#919
b10100000011 ["
#920
b10100000100 ["
#921
b10100000101 ["
#922
b10100000110 ["
#923
b10100000111 ["
#924
b10100001000 ["
#925
b10100001001 ["
#926
b10100001010 ["
#927
b10100001011 ["
#928
b10100001100 ["
#929
b10100001101 ["
#930
b10100001110 ["
#931
b10100001111 ["
#932
b10100010000 ["
#933
b10100010001 ["
#934
b10100010010 ["
#935
b10100010011 ["
#936
b10100010100 ["
#937
b10100010101 ["
#938
b10100010110 ["
#939
b10100010111 ["
#940
b10100011000 ["
#941
b10100011001 ["
#942
b10100011010 ["
#943
b10100011011 ["
#944
b10100011100 ["
#945
b10100011101 ["
#946
b10100011110 ["
#947
b10100011111 ["
#948
b10100100000 ["
#949
b10100100001 ["
#950
b10100100010 ["
#951
b10100100011 ["
#952
b10100100100 ["
#953
b10100100101 ["
#954
b10100100110 ["
#955
b10100100111 ["
#956
b10100101000 ["
#957
b10100101001 ["
#958
b10100101010 ["
#959
b10100101011 ["
#960
b10100101100 ["
#961
b10100101101 ["
#962
b10100101110 ["
#963
b10100101111 ["
#964
b10100110000 ["
#965
b10100110001 ["
#966
b10100110010 ["
#967
b10100110011 ["
#968
b10100110100 ["
#969
b10100110101 ["
#970
b10100110110 ["
#971
b10100110111 ["
#972
b10100111000 ["
#973
b10100111001 ["
#974
b10100111010 ["
#975
b10100111011 ["
#976
b10100111100 ["
#977
b10100111101 ["
#978
b10100111110 ["
#979
b10100111111 ["
#980
b10101000000 ["
#981
b10101000001 ["
#982
b10101000010 ["
#983
b10101000011 ["
#984
b10101000100 ["
#985
b10101000101 ["
#986
b10101000110 ["
#987
b10101000111 ["
#988
b10101001000 ["
#989
b10101001001 ["
#990
b10101001010 ["
#991
b10101001011 ["
#992
b10101001100 ["
#993
b10101001101 ["
#994
b10101001110 ["
#995
b10101001111 ["
#996
b10101010000 ["
#997
b10101010001 ["
#998
b10101010010 ["
#999
b10101010011 ["
#1000
b10101010100 ["
#1001
b10101010101 ["
#1002
b10101010110 ["
#1003
b10101010111 ["
#1004
b10101011000 ["
#1005
b10101011001 ["
#1006
b10101011010 ["
#1007
b10101011011 ["
#1008
b10101011100 ["
#1009
b10101011101 ["
#1010
b10101011110 ["
#1011
b10101011111 ["
#1012
b10101100000 ["
#1013
b10101100001 ["
#1014
b10101100010 ["
#1015
b10101100011 ["
#1016
b10101100100 ["
#1017
b10101100101 ["
#1018
b10101100110 ["
#1019
b10101100111 ["
#1020
b10101101000 ["
#1021
b10101101001 ["
#1022
b10101101010 ["
#1023
b10101101011 ["
#1024
b10101101100 ["
#1025
b10101101101 ["
#1026
b10101101110 ["
#1027
b10101101111 ["
#1028
b10101110000 ["
#1029
b10101110001 ["
#1030
b10101110010 ["
#1031
b10101110011 ["
#1032
b10101110100 ["
#1033
b10101110101 ["
#1034
b10101110110 ["
#1035
b10101110111 ["
#1036
b10101111000 ["
#1037
b10101111001 ["
#1038
b10101111010 ["
#1039
b10101111011 ["
#1040
b10101111100 ["
#1041
b10101111101 ["
#1042
b10101111110 ["
#1043
b10101111111 ["
#1044
b10110000000 ["
#1045
b10110000001 ["
#1046
b10110000010 ["
#1047
b10110000011 ["
#1048
b10110000100 ["
#1049
b10110000101 ["
#1050
b10110000110 ["
#1051
b10110000111 ["
#1052
b10110001000 ["
#1053
b10110001001 ["
#1054
b10110001010 ["
#1055
b10110001011 ["
#1056
b10110001100 ["
#1057
b10110001101 ["
#1058
b10110001110 ["
#1059
b10110001111 ["
#1060
b10110010000 ["
#1061
b10110010001 ["
#1062
b10110010010 ["
#1063
b10110010011 ["
#1064
b10110010100 ["
#1065
b10110010101 ["
#1066
b10110010110 ["
#1067
b10110010111 ["
#1068
b10110011000 ["
#1069
b10110011001 ["
#1070
b10110011010 ["
#1071
b10110011011 ["
#1072
b10110011100 ["
#1073
b10110011101 ["
0##
#1074
b10110011110 ["
#1075
b10110011111 ["
#1076
b10110100000 ["
#1077
b10110100001 ["
#1078
b10110100010 ["
#1079
b10110100011 ["
#1080
b10110100100 ["
#1081
b10110100101 ["
#1082
b10110100110 ["
#1083
b10110100111 ["
#1084
b10110101000 ["
#1085
b10110101001 ["
#1086
b10110101010 ["
#1087
b10110101011 ["
#1088
b10110101100 ["
#1089
b10110101101 ["
#1090
b10110101110 ["
#1091
b10110101111 ["
#1092
b10110110000 ["
#1093
b10110110001 ["
#1094
b10110110010 ["
#1095
b10110110011 ["
#1096
b10110110100 ["
#1097
b10110110101 ["
#1098
b10110110110 ["
#1099
b10110110111 ["
#1100
b10110111000 ["
#1101
b10110111001 ["
#1102
b10110111010 ["
#1103
b10110111011 ["
#1104
b10110111100 ["
#1105
b10110111101 ["
#1106
b10110111110 ["
#1107
b10110111111 ["
#1108
b10111000000 ["
#1109
b10111000001 ["
#1110
b10111000010 ["
#1111
b10111000011 ["
#1112
b10111000100 ["
#1113
b10111000101 ["
#1114
b10111000110 ["
#1115
b10111000111 ["
#1116
b10111001000 ["
#1117
b10111001001 ["
#1118
b10111001010 ["
b1101111 g"
0$#
#1119
b0 ["
b1100010 g"
b0 o"
0&#
#1120
b1011000 g"
#1121
b11011100 g"
#1122
b11011101 g"
#1149
b1010101 g"
#1156
b11010101 g"
#1157
b11111111 g"
1$#
#1158
b1 ["
#1159
b10 ["
#1160
b11 ["
#1161
b100 ["
#1162
b101 ["
#1163
b110 ["
b11011110 g"
#1164
b111 ["
b10101101 g"
#1165
b1000 ["
b10111110 g"
#1166
b1001 ["
b11101111 g"
#1167
b1010 ["
b1 g"
#1168
b1011 ["
b100011 g"
#1169
b1100 ["
b1000 g"
#1170
b1101 ["
b0 g"
#1171
b1110 ["
b1000101 g"
#1172
b1111 ["
b0 g"
#1173
b10000 ["
b101 g"
#1174
b10001 ["
b10111100 g"
#1175
b10010 ["
b0 g"
#1176
b10011 ["
#1177
b10100 ["
#1178
b10101 ["
#1179
b10110 ["
b10000 g"
#1180
b10111 ["
b10001 g"
#1181
b11000 ["
b100001 g"
#1182
b11001 ["
b10011111 g"
#1183
b11010 ["
b11000000 g"
#1184
b11011 ["
b10101000 g"
#1185
b11100 ["
b1 g"
#1186
b11101 ["
b1000000 g"
#1187
b11110 ["
b11000000 g"
#1188
b11111 ["
b10101000 g"
#1189
b100000 ["
b1 g"
#1190
b100001 ["
b10 g"
#1191
b100010 ["
b0 g"
#1192
b100011 ["
#1193
b100100 ["
b1 g"
1&#
