txrx_rtl_files/rx_rtl_files/sim/tb_cnv8to24.vcd
$date
	Wed Jan  2 04:27:26 2019
$end
$version
	Icarus Verilog
$end
$timescale
	1ps
$end
$scope module tb_cnv8to24 $end
$var wire 1 ! wea_r $end
$var wire 1 " wea_g $end
$var wire 1 # wea_b $end
$var wire 8 $ data_rgb [7:0] $end
$var wire 2 % count [1:0] $end
$var wire 24 & addr2vram [23:0] $end
$var reg 1 ' dclk $end
$var reg 8 ( rx_data [7:0] $end
$var reg 1 ) rx_en $end
$scope module uut $end
$var wire 8 * data8b [7:0] $end
$var wire 1 ' dclk $end
$var wire 1 ) en $end
$var wire 1 ! wea_r $end
$var wire 1 " wea_g $end
$var wire 1 # wea_b $end
$var wire 1 + detect_on $end
$var reg 24 , addr2vram [23:0] $end
$var reg 2 - count [1:0] $end
$var reg 2 . count_before [1:0] $end
$var reg 8 / data8b_reg [7:0] $end
$var reg 8 0 data_rgb [7:0] $end
$var reg 32 1 detect [31:0] $end
$var reg 1 2 en_reg $end
$var reg 24 3 startaddr [23:0] $end
$var reg 4 4 state [3:0] $end
$upscope $end
$scope task onepacket $end
$var reg 24 5 addr [23:0] $end
$var integer 32 6 i [31:0] $end
$upscope $end
$upscope $end
$enddefinitions $end
#0
$dumpvars
bx 6
bx 5
bx 4
bx 3
x2
bx 1
bx 0
bx /
bx .
b0 -
b0 ,
x+
b0 *
0)
b0 (
0'
b0 &
b0 %
bx $
0#
0"
0!
$end
#3000
b0 4
02
b0 /
1'
#11000
0'
#19000
bx00000000 1
b0 $
b0 0
1'
#27000
0'
#35000
bx0000000000000000 1
1'
#43000
0'
#51000
0+
bx000000000000000000000000 1
1'
#59000
0'
#67000
b0 1
1'
#75000
0'
#83000
1'
#91000
0'
#99000
1'
#107000
0'
#115000
1'
#123000
0'
#131000
1'
#139000
0'
#147000
1'
#155000
0'
#163000
1'
#171000
0'
#179000
1'
#187000
0'
#195000
1'
#203000
0'
#208000
b101 (
b101 *
b0 6
1)
b0 5
#211000
12
b101 /
1'
#219000
0'
#224000
b10101000 (
b10101000 *
b1 6
#227000
b0 3
b101 1
b101 $
b101 0
b10101000 /
1'
#235000
0'
#240000
b0 (
b0 *
b10 6
#243000
b10110101000 1
b10101000 $
b10101000 0
b0 /
1'
#251000
0'
#256000
b11 6
#259000
b1011010100000000000 1
b0 $
b0 0
1'
#267000
0'
#272000
b100 6
#275000
1+
b101101010000000000000000000 1
1'
#283000
0'
#288000
b101 6
#291000
b1 4
0+
b10101000000000000000000000000000 1
1'
#299000
0'
#304000
b110 6
#307000
b10 4
b0 1
1'
#315000
0'
#320000
b1010101 (
b1010101 *
b111 6
#323000
b0 .
b11 4
b1010101 /
1'
#331000
0'
#336000
b1111010 (
b1111010 *
b1000 6
#339000
b100 4
1!
b1 %
b1 -
b1010101 1
b1010101 $
b1010101 0
b1111010 /
1'
#347000
0'
#352000
b10011111 (
b10011111 *
b1001 6
#355000
0!
1"
b10 %
b10 -
b1 .
b101010101111010 1
b1111010 $
b1111010 0
b10011111 /
1'
#363000
0'
#368000
b11000100 (
b11000100 *
b1010 6
#371000
0"
1#
b11 %
b11 -
b10 .
b10101010111101010011111 1
b10011111 $
b10011111 0
b11000100 /
1'
#379000
0'
#384000
b11101001 (
b11101001 *
b1011 6
#387000
1!
0#
b1 %
b1 -
b1 &
b1 ,
b11 .
b1010101011110101001111111000100 1
b11000100 $
b11000100 0
b11101001 /
1'
#395000
0'
#400000
b1111 (
b1111 *
b1100 6
#403000
0!
1"
b10 %
b10 -
b1 .
b1111010100111111100010011101001 1
b11101001 $
b11101001 0
b1111 /
1'
#411000
0'
#416000
b110100 (
b110100 *
b1101 6
#419000
0"
1#
b11 %
b11 -
b10 .
b10011111110001001110100100001111 1
b1111 $
b1111 0
b110100 /
1'
#427000
0'
#432000
b1011001 (
b1011001 *
b1110 6
#435000
1!
0#
b1 %
b1 -
b10 &
b10 ,
b11 .
b11000100111010010000111100110100 1
b110100 $
b110100 0
b1011001 /
1'
#443000
0'
#448000
b1111110 (
b1111110 *
b1111 6
#451000
0!
1"
b10 %
b10 -
b1 .
b11101001000011110011010001011001 1
b1011001 $
b1011001 0
b1111110 /
1'
#459000
0'
#464000
b10100011 (
b10100011 *
b10000 6
#467000
0"
1#
b11 %
b11 -
b10 .
b1111001101000101100101111110 1
b1111110 $
b1111110 0
b10100011 /
1'
#475000
0'
#480000
b11001000 (
b11001000 *
b10001 6
#483000
1!
0#
b1 %
b1 -
b11 &
b11 ,
b11 .
b110100010110010111111010100011 1
b10100011 $
b10100011 0
b11001000 /
1'
#491000
0'
#496000
b11101101 (
b11101101 *
b10010 6
#499000
0!
1"
b10 %
b10 -
b1 .
b1011001011111101010001111001000 1
b11001000 $
b11001000 0
b11101101 /
1'
#507000
0'
#512000
b10011 (
b10011 *
b10011 6
#515000
0"
1#
b11 %
b11 -
b10 .
b1111110101000111100100011101101 1
b11101101 $
b11101101 0
b10011 /
1'
#523000
0'
#528000
b111000 (
b111000 *
b10100 6
#531000
1!
0#
b1 %
b1 -
b100 &
b100 ,
b11 .
b10100011110010001110110100010011 1
b10011 $
b10011 0
b111000 /
1'
#539000
0'
#544000
b1011101 (
b1011101 *
b10101 6
#547000
0!
1"
b10 %
b10 -
b1 .
b11001000111011010001001100111000 1
b111000 $
b111000 0
b1011101 /
1'
#555000
0'
#560000
b10000010 (
b10000010 *
b10110 6
#563000
0"
1#
b11 %
b11 -
b10 .
b11101101000100110011100001011101 1
b1011101 $
b1011101 0
b10000010 /
1'
#571000
0'
#576000
b10100111 (
b10100111 *
b10111 6
#579000
1!
0#
b1 %
b1 -
b101 &
b101 ,
b11 .
b10011001110000101110110000010 1
b10000010 $
b10000010 0
b10100111 /
1'
#587000
0'
#592000
b11001100 (
b11001100 *
b11000 6
#595000
0!
1"
b10 %
b10 -
b1 .
b111000010111011000001010100111 1
b10100111 $
b10100111 0
b11001100 /
1'
#603000
0'
#608000
b11110001 (
b11110001 *
b11001 6
#611000
0"
1#
b11 %
b11 -
b10 .
b1011101100000101010011111001100 1
b11001100 $
b11001100 0
b11110001 /
1'
#619000
0'
#624000
b10111 (
b10111 *
b11010 6
#627000
1!
0#
b1 %
b1 -
b110 &
b110 ,
b11 .
b10000010101001111100110011110001 1
b11110001 $
b11110001 0
b10111 /
1'
#635000
0'
#640000
b111100 (
b111100 *
b11011 6
#643000
0!
1"
b10 %
b10 -
b1 .
b10100111110011001111000100010111 1
b10111 $
b10111 0
b111100 /
1'
#651000
0'
#656000
b1100001 (
b1100001 *
b11100 6
#659000
0"
1#
b11 %
b11 -
b10 .
b11001100111100010001011100111100 1
b111100 $
b111100 0
b1100001 /
1'
#667000
0'
#672000
b10000110 (
b10000110 *
b11101 6
#675000
1!
0#
b1 %
b1 -
b111 &
b111 ,
b11 .
b11110001000101110011110001100001 1
b1100001 $
b1100001 0
b10000110 /
1'
#683000
0'
#688000
b10101011 (
b10101011 *
b11110 6
#691000
0!
1"
b10 %
b10 -
b1 .
b10111001111000110000110000110 1
b10000110 $
b10000110 0
b10101011 /
1'
#699000
0'
#704000
b11010000 (
b11010000 *
b11111 6
#707000
0"
1#
b11 %
b11 -
b10 .
b111100011000011000011010101011 1
b10101011 $
b10101011 0
b11010000 /
1'
#715000
0'
#720000
b11110101 (
b11110101 *
b100000 6
#723000
1!
0#
b1 %
b1 -
b1000 &
b1000 ,
b11 .
b1100001100001101010101111010000 1
b11010000 $
b11010000 0
b11110101 /
1'
#731000
0'
#736000
bx (
bx *
0)
b100001 6
#739000
0!
1"
b10 %
b10 -
b1 .
b10000110101010111101000011110101 1
02
b11110101 $
b11110101 0
bx /
1'
#747000
0'
#755000
0"
b0 %
b0 -
b0 4
b101010111101000011110101xxxxxxxx 1
bx $
bx 0
1'
#763000
0'
#771000
b1101000011110101xxxxxxxxxxxxxxxx 1
1'
#779000
0'
#787000
b11110101xxxxxxxxxxxxxxxxxxxxxxxx 1
1'
#795000
0'
#803000
x+
bx 1
1'
#811000
0'
#819000
1'
#827000
0'
#835000
1'
#843000
0'
#851000
1'
#859000
0'
#867000
1'
#875000
0'
#883000
1'
#891000
0'
#896000
b101 (
b101 *
b0 6
1)
b110010 5
#899000
12
b101 /
1'
#907000
0'
#912000
b10101000 (
b10101000 *
b1 6
#915000
0+
bx00000101 1
b101 $
b101 0
b10101000 /
1'
#923000
0'
#928000
b0 (
b0 *
b10 6
#931000
bx0000010110101000 1
b10101000 $
b10101000 0
b0 /
1'
#939000
0'
#944000
b11 6
#947000
bx000001011010100000000000 1
b0 $
b0 0
1'
#955000
0'
#960000
b100 6
#963000
1+
b101101010000000000000000000 1
1'
#971000
0'
#976000
b101 6
#979000
b1 4
0+
b10101000000000000000000000000000 1
1'
#987000
0'
#992000
b110010 (
b110010 *
b110 6
#995000
b10 4
b0 1
b110010 /
1'
#1003000
0'
#1008000
b1010101 (
b1010101 *
b111 6
#1011000
b0 .
b11 4
b110010 &
b110010 ,
b110010 3
b110010 1
b110010 $
b110010 0
b1010101 /
1'
#1019000
0'
#1024000
b1111010 (
b1111010 *
b1000 6
#1027000
b100 4
1!
b1 %
b1 -
b11001001010101 1
b1010101 $
b1010101 0
b1111010 /
1'
#1035000
0'
#1040000
b10011111 (
b10011111 *
b1001 6
#1043000
0!
1"
b10 %
b10 -
b1 .
b1100100101010101111010 1
b1111010 $
b1111010 0
b10011111 /
1'
#1051000
0'
#1056000
b11000100 (
b11000100 *
b1010 6
#1059000
0"
1#
b11 %
b11 -
b10 .
b110010010101010111101010011111 1
b10011111 $
b10011111 0
b11000100 /
1'
#1067000
0'
#1072000
b11101001 (
b11101001 *
b1011 6
#1075000
1!
0#
b1 %
b1 -
b110011 &
b110011 ,
b11 .
b1010101011110101001111111000100 1
b11000100 $
b11000100 0
b11101001 /
1'
#1083000
0'
#1088000
b1111 (
b1111 *
b1100 6
#1091000
0!
1"
b10 %
b10 -
b1 .
b1111010100111111100010011101001 1
b11101001 $
b11101001 0
b1111 /
1'
#1099000
0'
#1104000
b110100 (
b110100 *
b1101 6
#1107000
0"
1#
b11 %
b11 -
b10 .
b10011111110001001110100100001111 1
b1111 $
b1111 0
b110100 /
1'
#1115000
0'
#1120000
b1011001 (
b1011001 *
b1110 6
#1123000
1!
0#
b1 %
b1 -
b110100 &
b110100 ,
b11 .
b11000100111010010000111100110100 1
b110100 $
b110100 0
b1011001 /
1'
#1131000
0'
#1136000
b1111110 (
b1111110 *
b1111 6
#1139000
0!
1"
b10 %
b10 -
b1 .
b11101001000011110011010001011001 1
b1011001 $
b1011001 0
b1111110 /
1'
#1147000
0'
#1152000
b10100011 (
b10100011 *
b10000 6
#1155000
0"
1#
b11 %
b11 -
b10 .
b1111001101000101100101111110 1
b1111110 $
b1111110 0
b10100011 /
1'
#1163000
0'
#1168000
b11001000 (
b11001000 *
b10001 6
#1171000
1!
0#
b1 %
b1 -
b110101 &
b110101 ,
b11 .
b110100010110010111111010100011 1
b10100011 $
b10100011 0
b11001000 /
1'
#1179000
0'
#1184000
b11101101 (
b11101101 *
b10010 6
#1187000
0!
1"
b10 %
b10 -
b1 .
b1011001011111101010001111001000 1
b11001000 $
b11001000 0
b11101101 /
1'
#1195000
0'
#1200000
b10011 (
b10011 *
b10011 6
#1203000
0"
1#
b11 %
b11 -
b10 .
b1111110101000111100100011101101 1
b11101101 $
b11101101 0
b10011 /
1'
#1211000
0'
#1216000
b111000 (
b111000 *
b10100 6
#1219000
1!
0#
b1 %
b1 -
b110110 &
b110110 ,
b11 .
b10100011110010001110110100010011 1
b10011 $
b10011 0
b111000 /
1'
#1227000
0'
#1232000
b1011101 (
b1011101 *
b10101 6
#1235000
0!
1"
b10 %
b10 -
b1 .
b11001000111011010001001100111000 1
b111000 $
b111000 0
b1011101 /
1'
#1243000
0'
#1248000
b10000010 (
b10000010 *
b10110 6
#1251000
0"
1#
b11 %
b11 -
b10 .
b11101101000100110011100001011101 1
b1011101 $
b1011101 0
b10000010 /
1'
#1259000
0'
#1264000
b10100111 (
b10100111 *
b10111 6
#1267000
1!
0#
b1 %
b1 -
b110111 &
b110111 ,
b11 .
b10011001110000101110110000010 1
b10000010 $
b10000010 0
b10100111 /
1'
#1275000
0'
#1280000
b11001100 (
b11001100 *
b11000 6
#1283000
0!
1"
b10 %
b10 -
b1 .
b111000010111011000001010100111 1
b10100111 $
b10100111 0
b11001100 /
1'
#1291000
0'
#1296000
b11110001 (
b11110001 *
b11001 6
#1299000
0"
1#
b11 %
b11 -
b10 .
b1011101100000101010011111001100 1
b11001100 $
b11001100 0
b11110001 /
1'
#1307000
0'
#1312000
b10111 (
b10111 *
b11010 6
#1315000
1!
0#
b1 %
b1 -
b111000 &
b111000 ,
b11 .
b10000010101001111100110011110001 1
b11110001 $
b11110001 0
b10111 /
1'
#1323000
0'
#1328000
b111100 (
b111100 *
b11011 6
#1331000
0!
1"
b10 %
b10 -
b1 .
b10100111110011001111000100010111 1
b10111 $
b10111 0
b111100 /
1'
#1339000
0'
#1344000
b1100001 (
b1100001 *
b11100 6
#1347000
0"
1#
b11 %
b11 -
b10 .
b11001100111100010001011100111100 1
b111100 $
b111100 0
b1100001 /
1'
#1355000
0'
#1360000
b10000110 (
b10000110 *
b11101 6
#1363000
1!
0#
b1 %
b1 -
b111001 &
b111001 ,
b11 .
b11110001000101110011110001100001 1
b1100001 $
b1100001 0
b10000110 /
1'
#1371000
0'
#1376000
b10101011 (
b10101011 *
b11110 6
#1379000
0!
1"
b10 %
b10 -
b1 .
b10111001111000110000110000110 1
b10000110 $
b10000110 0
b10101011 /
1'
#1387000
0'
#1392000
b11010000 (
b11010000 *
b11111 6
#1395000
0"
1#
b11 %
b11 -
b10 .
b111100011000011000011010101011 1
b10101011 $
b10101011 0
b11010000 /
1'
#1403000
0'
#1408000
b11110101 (
b11110101 *
b100000 6
#1411000
1!
0#
b1 %
b1 -
b111010 &
b111010 ,
b11 .
b1100001100001101010101111010000 1
b11010000 $
b11010000 0
b11110101 /
1'
#1419000
0'
#1424000
bx (
bx *
0)
b100001 6
#1427000
0!
1"
b10 %
b10 -
b1 .
b10000110101010111101000011110101 1
02
b11110101 $
b11110101 0
bx /
1'
#1435000
0'
#1443000
0"
b0 %
b0 -
b0 4
b101010111101000011110101xxxxxxxx 1
bx $
bx 0
1'
#1451000
0'
#1459000
b1101000011110101xxxxxxxxxxxxxxxx 1
1'
#1467000
0'
#1475000
b11110101xxxxxxxxxxxxxxxxxxxxxxxx 1
1'
#1483000
0'
#1491000
x+
bx 1
1'
#1499000
0'
#1507000
1'
#1515000
0'
#1520000
b101 (
b101 *
b0 6
1)
b1100100 5
#1523000
12
b101 /
1'
#1531000
0'
#1536000
b10101000 (
b10101000 *
b1 6
#1539000
b0 3
0+
bx00000101 1
b101 $
b101 0
b10101000 /
1'
#1547000
0'
#1552000
b0 (
b0 *
b10 6
#1555000
bx0000010110101000 1
b10101000 $
b10101000 0
b0 /
1'
#1563000
0'
#1568000
b11 6
#1571000
bx000001011010100000000000 1
b0 $
b0 0
1'
#1579000
0'
#1584000
b100 6
#1587000
1+
b101101010000000000000000000 1
1'
#1595000
0'
#1600000
b101 6
#1603000
b1 4
0+
b10101000000000000000000000000000 1
1'
#1611000
0'
#1616000
b1100100 (
b1100100 *
b110 6
#1619000
b10 4
b0 1
b1100100 /
1'
#1627000
0'
#1632000
b1010101 (
b1010101 *
b111 6
#1635000
b0 .
b11 4
b1100100 &
b1100100 ,
b1100100 3
b1100100 1
b1100100 $
b1100100 0
b1010101 /
1'
#1643000
0'
#1648000
b1111010 (
b1111010 *
b1000 6
#1651000
b100 4
1!
b1 %
b1 -
b110010001010101 1
b1010101 $
b1010101 0
b1111010 /
1'
#1659000
0'
#1664000
b10011111 (
b10011111 *
b1001 6
#1667000
0!
1"
b10 %
b10 -
b1 .
b11001000101010101111010 1
b1111010 $
b1111010 0
b10011111 /
1'
#1675000
0'
#1680000
b11000100 (
b11000100 *
b1010 6
#1683000
0"
1#
b11 %
b11 -
b10 .
b1100100010101010111101010011111 1
b10011111 $
b10011111 0
b11000100 /
1'
#1691000
0'
#1696000
b11101001 (
b11101001 *
b1011 6
#1699000
1!
0#
b1 %
b1 -
b1100101 &
b1100101 ,
b11 .
b1010101011110101001111111000100 1
b11000100 $
b11000100 0
b11101001 /
1'
#1707000
0'
#1712000
b1111 (
b1111 *
b1100 6
#1715000
0!
1"
b10 %
b10 -
b1 .
b1111010100111111100010011101001 1
b11101001 $
b11101001 0
b1111 /
1'
#1723000
0'
#1728000
b110100 (
b110100 *
b1101 6
#1731000
0"
1#
b11 %
b11 -
b10 .
b10011111110001001110100100001111 1
b1111 $
b1111 0
b110100 /
1'
#1739000
0'
#1744000
b1011001 (
b1011001 *
b1110 6
#1747000
1!
0#
b1 %
b1 -
b1100110 &
b1100110 ,
b11 .
b11000100111010010000111100110100 1
b110100 $
b110100 0
b1011001 /
1'
#1755000
0'
#1760000
b1111110 (
b1111110 *
b1111 6
#1763000
0!
1"
b10 %
b10 -
b1 .
b11101001000011110011010001011001 1
b1011001 $
b1011001 0
b1111110 /
1'
#1771000
0'
#1776000
b10100011 (
b10100011 *
b10000 6
#1779000
0"
1#
b11 %
b11 -
b10 .
b1111001101000101100101111110 1
b1111110 $
b1111110 0
b10100011 /
1'
#1787000
0'
#1792000
b11001000 (
b11001000 *
b10001 6
#1795000
1!
0#
b1 %
b1 -
b1100111 &
b1100111 ,
b11 .
b110100010110010111111010100011 1
b10100011 $
b10100011 0
b11001000 /
1'
#1803000
0'
#1808000
b11101101 (
b11101101 *
b10010 6
#1811000
0!
1"
b10 %
b10 -
b1 .
b1011001011111101010001111001000 1
b11001000 $
b11001000 0
b11101101 /
1'
#1819000
0'
#1824000
b10011 (
b10011 *
b10011 6
#1827000
0"
1#
b11 %
b11 -
b10 .
b1111110101000111100100011101101 1
b11101101 $
b11101101 0
b10011 /
1'
#1835000
0'
#1840000
b111000 (
b111000 *
b10100 6
#1843000
1!
0#
b1 %
b1 -
b1101000 &
b1101000 ,
b11 .
b10100011110010001110110100010011 1
b10011 $
b10011 0
b111000 /
1'
#1851000
0'
#1856000
b1011101 (
b1011101 *
b10101 6
#1859000
0!
1"
b10 %
b10 -
b1 .
b11001000111011010001001100111000 1
b111000 $
b111000 0
b1011101 /
1'
#1867000
0'
#1872000
b10000010 (
b10000010 *
b10110 6
#1875000
0"
1#
b11 %
b11 -
b10 .
b11101101000100110011100001011101 1
b1011101 $
b1011101 0
b10000010 /
1'
#1883000
0'
#1888000
b10100111 (
b10100111 *
b10111 6
#1891000
1!
0#
b1 %
b1 -
b1101001 &
b1101001 ,
b11 .
b10011001110000101110110000010 1
b10000010 $
b10000010 0
b10100111 /
1'
#1899000
0'
#1904000
b11001100 (
b11001100 *
b11000 6
#1907000
0!
1"
b10 %
b10 -
b1 .
b111000010111011000001010100111 1
b10100111 $
b10100111 0
b11001100 /
1'
#1915000
0'
#1920000
b11110001 (
b11110001 *
b11001 6
#1923000
0"
1#
b11 %
b11 -
b10 .
b1011101100000101010011111001100 1
b11001100 $
b11001100 0
b11110001 /
1'
#1931000
0'
#1936000
b10111 (
b10111 *
b11010 6
#1939000
1!
0#
b1 %
b1 -
b1101010 &
b1101010 ,
b11 .
b10000010101001111100110011110001 1
b11110001 $
b11110001 0
b10111 /
1'
#1947000
0'
#1952000
b111100 (
b111100 *
b11011 6
#1955000
0!
1"
b10 %
b10 -
b1 .
b10100111110011001111000100010111 1
b10111 $
b10111 0
b111100 /
1'
#1963000
0'
#1968000
b1100001 (
b1100001 *
b11100 6
#1971000
0"
1#
b11 %
b11 -
b10 .
b11001100111100010001011100111100 1
b111100 $
b111100 0
b1100001 /
1'
#1979000
0'
#1984000
b10000110 (
b10000110 *
b11101 6
#1987000
1!
0#
b1 %
b1 -
b1101011 &
b1101011 ,
b11 .
b11110001000101110011110001100001 1
b1100001 $
b1100001 0
b10000110 /
1'
#1995000
0'
#2000000
b10101011 (
b10101011 *
b11110 6
#2003000
0!
1"
b10 %
b10 -
b1 .
b10111001111000110000110000110 1
b10000110 $
b10000110 0
b10101011 /
1'
#2011000
0'
#2016000
b11010000 (
b11010000 *
b11111 6
#2019000
0"
1#
b11 %
b11 -
b10 .
b111100011000011000011010101011 1
b10101011 $
b10101011 0
b11010000 /
1'
#2027000
0'
#2032000
b11110101 (
b11110101 *
b100000 6
#2035000
1!
0#
b1 %
b1 -
b1101100 &
b1101100 ,
b11 .
b1100001100001101010101111010000 1
b11010000 $
b11010000 0
b11110101 /
1'
#2043000
0'
#2048000
bx (
bx *
0)
b100001 6
#2051000
0!
1"
b10 %
b10 -
b1 .
b10000110101010111101000011110101 1
02
b11110101 $
b11110101 0
bx /
1'
#2059000
0'
#2067000
0"
b0 %
b0 -
b0 4
b101010111101000011110101xxxxxxxx 1
bx $
bx 0
1'
#2075000
0'
#2083000
b1101000011110101xxxxxxxxxxxxxxxx 1
1'
#2091000
0'
#2099000
b11110101xxxxxxxxxxxxxxxxxxxxxxxx 1
1'
#2107000
0'
#2115000
x+
bx 1
1'
