txrx_rtl_files/rx_rtl_files/sim/tb_ext_crc.vcd
$date
	Thu Dec 27 22:47:32 2018
$end
$version
	Icarus Verilog
$end
$timescale
	1ps
$end
$scope module tb_ext_crc $end
$var wire 8 ! rawdata [7:0] $end
$var wire 1 " raw_en $end
$var reg 1 # rx_clk $end
$var reg 8 $ rx_data [7:0] $end
$var reg 1 % rx_enable $end
$scope module uut $end
$var wire 1 & en_exp $end
$var wire 1 " raw_en $end
$var wire 8 ' rawdata [7:0] $end
$var wire 1 # rx_clk $end
$var wire 8 ( rx_data [7:0] $end
$var wire 1 % rx_enable $end
$var wire 1 ) sfd_wait $end
$var reg 8 * data_shift1 [7:0] $end
$var reg 8 + data_shift2 [7:0] $end
$var reg 8 , data_shift3 [7:0] $end
$var reg 8 - data_shift4 [7:0] $end
$var reg 1 . en_rise $end
$var reg 4 / en_shift [3:0] $end
$upscope $end
$scope task onepacket $end
$var reg 8 0 aux [7:0] $end
$var reg 8 1 id [7:0] $end
$var reg 16 2 segment_number [15:0] $end
$var integer 32 3 i [31:0] $end
$upscope $end
$upscope $end
$enddefinitions $end
#0
$dumpvars
bx 3
bx 2
bx 1
bx 0
b0 /
0.
bx -
bx ,
bx +
bx *
0)
b0 (
bx '
0&
0%
b0 $
0#
0"
bx !
$end
#2000
b0 *
1#
#10000
0#
#18000
b0 +
1#
#26000
0#
#34000
b0 ,
1#
#42000
0#
#50000
b0 !
b0 '
b0 -
1#
#58000
0#
#66000
1#
#74000
0#
#82000
1#
#90000
0#
#98000
1#
#106000
0#
#114000
1#
#122000
0#
#130000
1#
#138000
0#
#146000
1#
#154000
0#
#160000
1&
b1010101 $
b1010101 (
b0 3
1%
b11 0
b1 1
b10 2
#162000
b1010101 *
b1 /
1#
#170000
0#
#176000
b1 3
#178000
b1010101 +
b11 /
1#
#186000
0#
#192000
b10 3
#194000
b1010101 ,
b111 /
1#
#202000
0#
#208000
b11 3
#210000
1"
b1010101 !
b1010101 '
b1010101 -
b1111 /
1#
#218000
0#
#224000
b100 3
#226000
1#
#234000
0#
#240000
b0 $
b0 (
b101 3
#242000
b0 *
1#
#250000
0#
#256000
b10 $
b10 (
b110 3
#258000
b0 +
b10 *
1#
#266000
0#
#272000
b1 $
b1 (
b111 3
#274000
b0 ,
b10 +
b1 *
1#
#282000
0#
#288000
b1010101 $
b1010101 (
b1000 3
#290000
b0 !
b0 '
b0 -
b10 ,
b1 +
b1010101 *
1#
#298000
0#
#304000
b1001 3
#306000
b10 !
b10 '
b10 -
b1 ,
b1010101 +
1#
#314000
0#
#320000
b11 $
b11 (
b1010 3
#322000
b1 !
b1 '
b1 -
b1010101 ,
b11 *
1#
#330000
0#
#336000
b1010101 $
b1010101 (
b1011 3
#338000
b1010101 !
b1010101 '
b1010101 -
b11 +
b1010101 *
1#
#346000
0#
#352000
b1100 3
#354000
b11 ,
b1010101 +
1#
#362000
0#
#368000
b1101 3
#370000
b11 !
b11 '
b11 -
b1010101 ,
1#
#378000
0#
#384000
b1110 3
#386000
b1010101 !
b1010101 '
b1010101 -
1#
#394000
0#
#400000
b1111 3
#402000
1#
#410000
0#
#416000
b10000 3
#418000
1#
#426000
0#
#432000
b10001 3
#434000
1#
#442000
0#
#448000
b10010 3
#450000
1#
#458000
0#
#464000
b10011 3
#466000
1#
#474000
0#
#480000
b10100 3
#482000
1#
#490000
0#
#496000
b10101 3
#498000
1#
#506000
0#
#512000
b10110 3
#514000
1#
#522000
0#
#528000
b10111 3
#530000
1#
#538000
0#
#544000
b11000 3
#546000
1#
#554000
0#
#560000
b11001 3
#562000
1#
#570000
0#
#576000
b11010 3
#578000
1#
#586000
0#
#592000
b11011 3
#594000
1#
#602000
0#
#608000
b11100 3
#610000
1#
#618000
0#
#624000
b11101 3
#626000
1#
#634000
0#
#640000
b11110 3
#642000
1#
#650000
0#
#656000
b11111 3
#658000
1#
#666000
0#
#672000
b100000 3
#674000
1#
#682000
0#
#688000
b100001 3
#690000
1#
#698000
0#
#704000
b100010 3
#706000
1#
#714000
0#
#720000
b100011 3
#722000
1#
#730000
0#
#736000
b100100 3
#738000
1#
#746000
0#
#752000
b100101 3
#754000
1#
#762000
0#
#768000
b100110 3
#770000
1#
#778000
0#
#784000
b100111 3
#786000
1#
#794000
0#
#800000
b101000 3
#802000
1#
#810000
0#
#816000
b101001 3
#818000
1#
#826000
0#
#832000
b101010 3
#834000
1#
#842000
0#
#848000
b101011 3
#850000
1#
#858000
0#
#864000
b101100 3
#866000
1#
#874000
0#
#880000
b11 $
b11 (
b101101 3
#882000
b11 *
1#
#890000
0#
#896000
b10 $
b10 (
b101110 3
#898000
b11 +
b10 *
1#
#906000
0#
#912000
b1 $
b1 (
b101111 3
#914000
b11 ,
b10 +
b1 *
1#
#922000
0#
#928000
b0 $
b0 (
b110000 3
#930000
b11 !
b11 '
b11 -
b10 ,
b1 +
b0 *
1#
#938000
0#
#944000
b1111 $
b1111 (
b110001 3
#946000
b10 !
b10 '
b10 -
b1 ,
b0 +
b1111 *
1#
#954000
0#
#960000
0"
0&
bx $
bx (
0%
b110010 3
#962000
b1 !
b1 '
b1 -
b0 ,
b1111 +
bx *
b1110 /
1#
#970000
0#
#978000
b0 !
b0 '
b0 -
b1111 ,
bx +
b1100 /
1#
#986000
0#
#994000
b1111 !
b1111 '
b1111 -
bx ,
b1000 /
1#
#1002000
0#
#1010000
bx !
bx '
bx -
b0 /
1#
#1018000
0#
#1026000
1#
#1034000
0#
#1042000
1#
#1050000
0#
#1058000
1#
#1066000
0#
#1072000
1&
b1010101 $
b1010101 (
b0 3
1%
b110 0
b101 1
b100 2
#1074000
b1010101 *
b1 /
1#
#1082000
0#
#1088000
b1 3
#1090000
b1010101 +
b11 /
1#
#1098000
0#
#1104000
b10 3
#1106000
b1010101 ,
b111 /
1#
#1114000
0#
#1120000
b11 3
#1122000
1"
b1010101 !
b1010101 '
b1010101 -
b1111 /
1#
#1130000
0#
#1136000
b100 3
#1138000
1#
#1146000
0#
#1152000
b0 $
b0 (
b101 3
#1154000
b0 *
1#
#1162000
0#
#1168000
b100 $
b100 (
b110 3
#1170000
b0 +
b100 *
1#
#1178000
0#
#1184000
b101 $
b101 (
b111 3
#1186000
b0 ,
b100 +
b101 *
1#
#1194000
0#
#1200000
b1010101 $
b1010101 (
b1000 3
#1202000
b0 !
b0 '
b0 -
b100 ,
b101 +
b1010101 *
1#
#1210000
0#
#1216000
b1001 3
#1218000
b100 !
b100 '
b100 -
b101 ,
b1010101 +
1#
#1226000
0#
#1232000
b110 $
b110 (
b1010 3
#1234000
b101 !
b101 '
b101 -
b1010101 ,
b110 *
1#
#1242000
0#
#1248000
b1010101 $
b1010101 (
b1011 3
#1250000
b1010101 !
b1010101 '
b1010101 -
b110 +
b1010101 *
1#
#1258000
0#
#1264000
b1100 3
#1266000
b110 ,
b1010101 +
1#
#1274000
0#
#1280000
b1101 3
#1282000
b110 !
b110 '
b110 -
b1010101 ,
1#
#1290000
0#
#1296000
b1110 3
#1298000
b1010101 !
b1010101 '
b1010101 -
1#
#1306000
0#
#1312000
b1111 3
#1314000
1#
#1322000
0#
#1328000
b10000 3
#1330000
1#
#1338000
0#
#1344000
b10001 3
#1346000
1#
#1354000
0#
#1360000
b10010 3
#1362000
1#
#1370000
0#
#1376000
b10011 3
#1378000
1#
#1386000
0#
#1392000
b10100 3
#1394000
1#
#1402000
0#
#1408000
b10101 3
#1410000
1#
#1418000
0#
#1424000
b10110 3
#1426000
1#
#1434000
0#
#1440000
b10111 3
#1442000
1#
#1450000
0#
#1456000
b11000 3
#1458000
1#
#1466000
0#
#1472000
b11001 3
#1474000
1#
#1482000
0#
#1488000
b11010 3
#1490000
1#
#1498000
0#
#1504000
b11011 3
#1506000
1#
#1514000
0#
#1520000
b11100 3
#1522000
1#
#1530000
0#
#1536000
b11101 3
#1538000
1#
#1546000
0#
#1552000
b11110 3
#1554000
1#
#1562000
0#
#1568000
b11111 3
#1570000
1#
#1578000
0#
#1584000
b100000 3
#1586000
1#
#1594000
0#
#1600000
b100001 3
#1602000
1#
#1610000
0#
#1616000
b100010 3
#1618000
1#
#1626000
0#
#1632000
b100011 3
#1634000
1#
#1642000
0#
#1648000
b100100 3
#1650000
1#
#1658000
0#
#1664000
b100101 3
#1666000
1#
#1674000
0#
#1680000
b100110 3
#1682000
1#
#1690000
0#
#1696000
b100111 3
#1698000
1#
#1706000
0#
#1712000
b101000 3
#1714000
1#
#1722000
0#
#1728000
b101001 3
#1730000
1#
#1738000
0#
#1744000
b101010 3
#1746000
1#
#1754000
0#
#1760000
b101011 3
#1762000
1#
#1770000
0#
#1776000
b101100 3
#1778000
1#
#1786000
0#
#1792000
b11 $
b11 (
b101101 3
#1794000
b11 *
1#
#1802000
0#
#1808000
b10 $
b10 (
b101110 3
#1810000
b11 +
b10 *
1#
#1818000
0#
#1824000
b1 $
b1 (
b101111 3
#1826000
b11 ,
b10 +
b1 *
1#
#1834000
0#
#1840000
b0 $
b0 (
b110000 3
#1842000
b11 !
b11 '
b11 -
b10 ,
b1 +
b0 *
1#
#1850000
0#
#1856000
b1111 $
b1111 (
b110001 3
#1858000
b10 !
b10 '
b10 -
b1 ,
b0 +
b1111 *
1#
#1866000
0#
#1872000
0"
0&
bx $
bx (
0%
b110010 3
#1874000
b1 !
b1 '
b1 -
b0 ,
b1111 +
bx *
b1110 /
1#
#1882000
0#
#1890000
b0 !
b0 '
b0 -
b1111 ,
bx +
b1100 /
1#
#1898000
0#
#1906000
b1111 !
b1111 '
b1111 -
bx ,
b1000 /
1#
#1914000
0#
#1922000
bx !
bx '
bx -
b0 /
1#
