txrx_rtl_files/rx_rtl_files/sim/wf_five2one.vcd
$date
	Fri Jan 11 18:03:32 2019
$end
$version
	Icarus Verilog
$end
$timescale
	1ps
$end
$scope module tb_five2one $end
$var wire 8 ! out1 [7:0] $end
$var wire 8 " out2 [7:0] $end
$var wire 1 # lost $end
$var wire 1 $ en_out $end
$var wire 8 % data_out [7:0] $end
$var reg 1 & clk $end
$var reg 1 ' rst $end
$var reg 1 ( rx_en $end
$var reg 8 ) rxdata [7:0] $end
$var reg 4 * switches [3:0] $end
$var integer 32 + i [31:0] $end
$var integer 32 , j [31:0] $end
$var integer 32 - k [31:0] $end
$scope module uut $end
$var wire 1 & clk $end
$var wire 8 . data_out [7:0] $end
$var wire 1 # lost $end
$var wire 1 ' rst $end
$var wire 1 ( rx_en_w $end
$var wire 8 / rxdata_w [7:0] $end
$var wire 8 0 q_b5 [7:0] $end
$var wire 8 1 q_b4 [7:0] $end
$var wire 8 2 q_b3 [7:0] $end
$var wire 8 3 q_b2 [7:0] $end
$var wire 8 4 q_b1 [7:0] $end
$var wire 8 5 out5 [7:0] $end
$var wire 8 6 out4 [7:0] $end
$var wire 8 7 out3 [7:0] $end
$var wire 8 8 out2 [7:0] $end
$var wire 8 9 out1 [7:0] $end
$var wire 1 : en_after_id5 $end
$var wire 1 ; en_after_id4 $end
$var wire 1 < en_after_id3 $end
$var wire 1 = en_after_id2 $end
$var wire 1 > en_after_id1 $end
$var wire 8 ? data_correct [7:0] $end
$var wire 10 @ compares [9:0] $end
$var wire 1 A comp_valid45 $end
$var wire 1 B comp_valid35 $end
$var wire 1 C comp_valid34 $end
$var wire 1 D comp_valid25 $end
$var wire 1 E comp_valid24 $end
$var wire 1 F comp_valid23 $end
$var wire 1 G comp_valid15 $end
$var wire 1 H comp_valid14 $end
$var wire 1 I comp_valid13 $end
$var wire 1 J comp_valid12 $end
$var wire 1 K comp_result45 $end
$var wire 1 L comp_result35 $end
$var wire 1 M comp_result34 $end
$var wire 1 N comp_result25 $end
$var wire 1 O comp_result24 $end
$var wire 1 P comp_result23 $end
$var wire 1 Q comp_result15 $end
$var wire 1 R comp_result14 $end
$var wire 1 S comp_result13 $end
$var wire 1 T comp_result12 $end
$var reg 12 U addr [11:0] $end
$var reg 12 V addr_after_id [11:0] $end
$var reg 12 W addr_b [11:0] $end
$var reg 8 X data_correct_shift1 [7:0] $end
$var reg 1 Y datalost $end
$var reg 1 Z en_after_id $end
$var reg 1 [ en_after_id1_pre $end
$var reg 1 \ en_after_id2_pre $end
$var reg 1 ] en_after_id3_pre $end
$var reg 1 ^ en_after_id4_pre $end
$var reg 1 _ en_after_id5_pre $end
$var reg 1 $ en_out $end
$var reg 12 ` lastaddr1 [11:0] $end
$var reg 12 a lastaddr2 [11:0] $end
$var reg 12 b lastaddr3 [11:0] $end
$var reg 12 c lastaddr4 [11:0] $end
$var reg 12 d lastaddr5 [11:0] $end
$var reg 12 e lastaddress [11:0] $end
$var reg 1 f rx_en $end
$var reg 4 g rx_id [3:0] $end
$var reg 3 h rx_id_inter [2:0] $end
$var reg 4 i rx_id_prev [3:0] $end
$var reg 8 j rxdata [7:0] $end
$var reg 8 k shift1_rxdata [7:0] $end
$var reg 1 l start $end
$var reg 1 m start_inter $end
$var reg 1 n started $end
$var reg 4 o state [3:0] $end
$var reg 3 p which_one [2:0] $end
$scope module comp1 $end
$var wire 1 & clk $end
$var wire 1 Z en $end
$var wire 1 q shift4_result $end
$var wire 8 r rxdata [7:0] $end
$var wire 8 s bramout [7:0] $end
$var reg 1 t firstprocessed $end
$var reg 1 T result $end
$var reg 5 u shift_result [4:0] $end
$var reg 1 J valid $end
$upscope $end
$scope module comp10 $end
$var wire 1 & clk $end
$var wire 1 Z en $end
$var wire 1 v shift4_result $end
$var wire 8 w rxdata [7:0] $end
$var wire 8 x bramout [7:0] $end
$var reg 1 y firstprocessed $end
$var reg 1 K result $end
$var reg 5 z shift_result [4:0] $end
$var reg 1 A valid $end
$upscope $end
$scope module comp2 $end
$var wire 1 & clk $end
$var wire 1 Z en $end
$var wire 1 { shift4_result $end
$var wire 8 | rxdata [7:0] $end
$var wire 8 } bramout [7:0] $end
$var reg 1 ~ firstprocessed $end
$var reg 1 S result $end
$var reg 5 !" shift_result [4:0] $end
$var reg 1 I valid $end
$upscope $end
$scope module comp3 $end
$var wire 1 & clk $end
$var wire 1 Z en $end
$var wire 1 "" shift4_result $end
$var wire 8 #" rxdata [7:0] $end
$var wire 8 $" bramout [7:0] $end
$var reg 1 %" firstprocessed $end
$var reg 1 R result $end
$var reg 5 &" shift_result [4:0] $end
$var reg 1 H valid $end
$upscope $end
$scope module comp4 $end
$var wire 1 & clk $end
$var wire 1 Z en $end
$var wire 1 '" shift4_result $end
$var wire 8 (" rxdata [7:0] $end
$var wire 8 )" bramout [7:0] $end
$var reg 1 *" firstprocessed $end
$var reg 1 Q result $end
$var reg 5 +" shift_result [4:0] $end
$var reg 1 G valid $end
$upscope $end
$scope module comp5 $end
$var wire 1 & clk $end
$var wire 1 Z en $end
$var wire 1 ," shift4_result $end
$var wire 8 -" rxdata [7:0] $end
$var wire 8 ." bramout [7:0] $end
$var reg 1 /" firstprocessed $end
$var reg 1 P result $end
$var reg 5 0" shift_result [4:0] $end
$var reg 1 F valid $end
$upscope $end
$scope module comp6 $end
$var wire 1 & clk $end
$var wire 1 Z en $end
$var wire 1 1" shift4_result $end
$var wire 8 2" rxdata [7:0] $end
$var wire 8 3" bramout [7:0] $end
$var reg 1 4" firstprocessed $end
$var reg 1 O result $end
$var reg 5 5" shift_result [4:0] $end
$var reg 1 E valid $end
$upscope $end
$scope module comp7 $end
$var wire 1 & clk $end
$var wire 1 Z en $end
$var wire 1 6" shift4_result $end
$var wire 8 7" rxdata [7:0] $end
$var wire 8 8" bramout [7:0] $end
$var reg 1 9" firstprocessed $end
$var reg 1 N result $end
$var reg 5 :" shift_result [4:0] $end
$var reg 1 D valid $end
$upscope $end
$scope module comp8 $end
$var wire 1 & clk $end
$var wire 1 Z en $end
$var wire 1 ;" shift4_result $end
$var wire 8 <" rxdata [7:0] $end
$var wire 8 =" bramout [7:0] $end
$var reg 1 >" firstprocessed $end
$var reg 1 M result $end
$var reg 5 ?" shift_result [4:0] $end
$var reg 1 C valid $end
$upscope $end
$scope module comp9 $end
$var wire 1 & clk $end
$var wire 1 Z en $end
$var wire 1 @" shift4_result $end
$var wire 8 A" rxdata [7:0] $end
$var wire 8 B" bramout [7:0] $end
$var reg 1 C" firstprocessed $end
$var reg 1 L result $end
$var reg 5 D" shift_result [4:0] $end
$var reg 1 B valid $end
$upscope $end
$scope module dpram1 $end
$var wire 12 E" addra [11:0] $end
$var wire 12 F" addrb [11:0] $end
$var wire 1 & clka $end
$var wire 1 & clkb $end
$var wire 8 G" dina [7:0] $end
$var wire 8 H" dinb [7:0] $end
$var wire 1 > wea $end
$var wire 1 I" web $end
$var reg 8 J" douta [7:0] $end
$var reg 8 K" doutb [7:0] $end
$var integer 32 L" i [31:0] $end
$upscope $end
$scope module dpram2 $end
$var wire 12 M" addra [11:0] $end
$var wire 12 N" addrb [11:0] $end
$var wire 1 & clka $end
$var wire 1 & clkb $end
$var wire 8 O" dina [7:0] $end
$var wire 8 P" dinb [7:0] $end
$var wire 1 = wea $end
$var wire 1 Q" web $end
$var reg 8 R" douta [7:0] $end
$var reg 8 S" doutb [7:0] $end
$var integer 32 T" i [31:0] $end
$upscope $end
$scope module dpram3 $end
$var wire 12 U" addra [11:0] $end
$var wire 12 V" addrb [11:0] $end
$var wire 1 & clka $end
$var wire 1 & clkb $end
$var wire 8 W" dina [7:0] $end
$var wire 8 X" dinb [7:0] $end
$var wire 1 < wea $end
$var wire 1 Y" web $end
$var reg 8 Z" douta [7:0] $end
$var reg 8 [" doutb [7:0] $end
$var integer 32 \" i [31:0] $end
$upscope $end
$scope module dpram4 $end
$var wire 12 ]" addra [11:0] $end
$var wire 12 ^" addrb [11:0] $end
$var wire 1 & clka $end
$var wire 1 & clkb $end
$var wire 8 _" dina [7:0] $end
$var wire 8 `" dinb [7:0] $end
$var wire 1 ; wea $end
$var wire 1 a" web $end
$var reg 8 b" douta [7:0] $end
$var reg 8 c" doutb [7:0] $end
$var integer 32 d" i [31:0] $end
$upscope $end
$scope module dpram5 $end
$var wire 12 e" addra [11:0] $end
$var wire 12 f" addrb [11:0] $end
$var wire 1 & clka $end
$var wire 1 & clkb $end
$var wire 8 g" dina [7:0] $end
$var wire 8 h" dinb [7:0] $end
$var wire 1 : wea $end
$var wire 1 i" web $end
$var reg 8 j" douta [7:0] $end
$var reg 8 k" doutb [7:0] $end
$var integer 32 l" i [31:0] $end
$upscope $end
$upscope $end
$scope task onepacket $end
$var reg 8 m" id [7:0] $end
$var reg 32 n" seed [31:0] $end
$upscope $end
$upscope $end
$enddefinitions $end
#0
$dumpvars
bx n"
bx m"
b1000000000000 l"
bx k"
bx j"
0i"
b0 h"
b0 g"
b0 f"
b0 e"
b1000000000000 d"
bx c"
bx b"
0a"
b0 `"
b0 _"
b0 ^"
b0 ]"
b1000000000000 \"
bx ["
bx Z"
0Y"
b0 X"
b0 W"
b0 V"
b0 U"
b1000000000000 T"
bx S"
bx R"
0Q"
b0 P"
b0 O"
b0 N"
b0 M"
b1000000000000 L"
bx K"
bx J"
0I"
b0 H"
b0 G"
b0 F"
b0 E"
b0 D"
0C"
bx B"
bx A"
0@"
b0 ?"
0>"
bx ="
bx <"
0;"
b0 :"
09"
bx 8"
bx 7"
06"
b0 5"
04"
bx 3"
bx 2"
01"
b0 0"
0/"
bx ."
bx -"
0,"
b0 +"
0*"
bx )"
bx ("
0'"
b0 &"
0%"
bx $"
bx #"
0""
b0 !"
0~
bx }
bx |
0{
b0 z
0y
bx x
bx w
0v
b0 u
0t
bx s
bx r
0q
b0 p
b0 o
0n
0m
0l
b0 k
bx j
b11 i
b101 h
b0 g
xf
b0 e
b0 d
b0 c
b0 b
b0 a
b0 `
0_
0^
0]
0\
0[
0Z
0Y
b0 X
b0 W
b0 V
b0 U
0T
0S
0R
0Q
0P
0O
0N
0M
0L
0K
xJ
xI
xH
xG
xF
xE
xD
xC
xB
xA
b0 @
b11000 ?
0>
0=
0<
0;
0:
bx 9
bx 8
bx 7
bx 6
bx 5
bx 4
bx 3
bx 2
bx 1
bx 0
b0 /
b0 .
bx -
bx ,
bx +
b1 *
b0 )
0(
0'
0&
b0 %
x$
0#
bz "
bz !
$end
#3000
b1010 9
b1010 r
b1010 |
b1010 #"
b1010 ("
b1010 J"
b1010 4
b1010 K"
b1010 8
b1010 s
b1010 -"
b1010 2"
b1010 7"
b1010 R"
b1010 3
b1010 S"
b1010 7
b1010 }
b1010 ."
b1010 <"
b1010 A"
b1010 Z"
b1010 2
b1010 ["
b1010 6
b1010 w
b1010 $"
b1010 3"
b1010 ="
b1010 b"
b1010 1
b1010 c"
b1010 5
b1010 x
b1010 )"
b1010 8"
b1010 B"
b1010 j"
b1010 0
b1010 k"
1J
1I
1H
1G
1F
1E
1D
1C
1B
1A
bx k
bx G"
bx O"
bx W"
bx _"
bx g"
b0 j
0f
b1000 o
0$
b11000 %
b11000 .
b11000 X
1&
#11000
0&
#16000
1'
#19000
b0 o
b0 k
b0 G"
b0 O"
b0 W"
b0 _"
b0 g"
1&
#27000
0&
#32000
0'
#35000
b1000 o
1&
#43000
0&
#51000
b0 o
1&
#59000
0&
#67000
b1000 o
1&
#75000
0&
#83000
b0 o
1&
#91000
0&
#99000
b1000 o
1&
#107000
0&
#115000
b0 o
1&
#123000
0&
#131000
b1000 o
1&
#139000
0&
#147000
b0 o
1&
#155000
0&
#163000
b1000 o
1&
#171000
0&
#179000
b0 o
1&
#187000
0&
#195000
b1000 o
1&
#203000
0&
#211000
b0 o
1&
#219000
0&
#227000
b1000 o
1&
#235000
0&
#243000
b0 o
1&
#251000
0&
#259000
b1000 o
1&
#267000
0&
#275000
b0 o
1&
#283000
0&
#291000
b1000 o
1&
#299000
0&
#307000
b0 o
1&
#315000
0&
#323000
b1000 o
1&
#331000
0&
#339000
b0 o
1&
#347000
0&
#355000
b1000 o
1&
#363000
0&
#368000
b1 n"
b1 m"
b1 ,
b1 -
#371000
b0 o
1&
#379000
0&
#384000
b1 )
b1 /
b0 +
1(
#387000
b1 j
1f
b1000 o
1&
#395000
0&
#400000
b11110 )
b11110 /
b1 +
#403000
b0 o
b101 i
b1 g
b1 U
b1 k
b1 G"
b1 O"
b1 W"
b1 _"
b1 g"
b11110 j
1&
#411000
0&
#416000
b10 +
#419000
1>
b11110 k
b11110 G"
b11110 O"
b11110 W"
b11110 _"
b11110 g"
1Z
b10 U
b1 h
b1000 o
1&
#427000
0&
#432000
b11 +
#435000
1[
b1 V
b1 E"
b1 M"
b1 U"
b1 ]"
b1 e"
b11 U
1K
1y
0A
1L
1C"
0B
1M
1>"
0C
1N
19"
0D
1O
14"
0E
1P
1/"
0F
1Q
1*"
0G
1R
1%"
0H
1S
1~
0I
b1111111111 @
1T
1t
0J
1&
#443000
0&
#448000
b100 +
#451000
b11110 4
b11110 K"
b1 u
b1 !"
b1 &"
b1 +"
b1 0"
b1 5"
b1 :"
b1 ?"
b1 D"
b1 z
b10 V
b10 E"
b10 M"
b10 U"
b10 ]"
b10 e"
b100 U
b1 `
1&
#459000
0&
#464000
b101 +
#467000
b10 `
b11 V
b11 E"
b11 M"
b11 U"
b11 ]"
b11 e"
b101 U
b11 z
b11 D"
b11 ?"
b11 :"
b11 5"
b11 0"
b11 +"
b11 &"
b11 !"
b11 u
1&
#475000
0&
#480000
b110 +
#483000
b111 u
b111 !"
b111 &"
b111 +"
b111 0"
b111 5"
b111 :"
b111 ?"
b111 D"
b111 z
b100 V
b100 E"
b100 M"
b100 U"
b100 ]"
b100 e"
b110 U
b11 `
1&
#491000
0&
#496000
b111 +
#499000
1v
1@"
1;"
16"
11"
1,"
1'"
1""
1{
1q
b100 `
b101 V
b101 E"
b101 M"
b101 U"
b101 ]"
b101 e"
b111 U
b1111 z
b1111 D"
b1111 ?"
b1111 :"
b1111 5"
b1111 0"
b1111 +"
b1111 &"
b1111 !"
b1111 u
1&
#507000
0&
#512000
b1000 +
#515000
b11111 u
b11111 !"
b11111 &"
b11111 +"
b11111 0"
b11111 5"
b11111 :"
b11111 ?"
b11111 D"
b11111 z
b110 V
b110 E"
b110 M"
b110 U"
b110 ]"
b110 e"
b1000 U
b101 `
1&
#523000
0&
#528000
b1001 +
#531000
b110 `
b111 V
b111 E"
b111 M"
b111 U"
b111 ]"
b111 e"
b1001 U
1&
#539000
0&
#544000
b1010 +
#547000
b1000 V
b1000 E"
b1000 M"
b1000 U"
b1000 ]"
b1000 e"
b1010 U
b111 `
1&
#555000
0&
#560000
b1011 +
#563000
b1000 `
b1001 V
b1001 E"
b1001 M"
b1001 U"
b1001 ]"
b1001 e"
b1011 U
1&
#571000
0&
#576000
b1100 +
#579000
b1010 V
b1010 E"
b1010 M"
b1010 U"
b1010 ]"
b1010 e"
b1100 U
b1001 `
1&
#587000
0&
#592000
b1101 +
#595000
b1010 `
b1011 V
b1011 E"
b1011 M"
b1011 U"
b1011 ]"
b1011 e"
b1101 U
1&
#603000
0&
#608000
b1110 +
#611000
b1100 V
b1100 E"
b1100 M"
b1100 U"
b1100 ]"
b1100 e"
b1110 U
b1011 `
1&
#619000
0&
#624000
b1111 +
#627000
b1100 `
b1101 V
b1101 E"
b1101 M"
b1101 U"
b1101 ]"
b1101 e"
b1111 U
1&
#635000
0&
#640000
b10000 +
#643000
b1110 V
b1110 E"
b1110 M"
b1110 U"
b1110 ]"
b1110 e"
b10000 U
b1101 `
1&
#651000
0&
#656000
b10001 +
#659000
b1110 `
b1111 V
b1111 E"
b1111 M"
b1111 U"
b1111 ]"
b1111 e"
b10001 U
1&
#667000
0&
#672000
b10010 +
#675000
b10000 V
b10000 E"
b10000 M"
b10000 U"
b10000 ]"
b10000 e"
b10010 U
b1111 `
1&
#683000
0&
#688000
b10011 +
#691000
b10000 `
b10001 V
b10001 E"
b10001 M"
b10001 U"
b10001 ]"
b10001 e"
b10011 U
1&
#699000
0&
#704000
b10100 +
#707000
b10010 V
b10010 E"
b10010 M"
b10010 U"
b10010 ]"
b10010 e"
b10100 U
b10001 `
1&
#715000
0&
#720000
b10101 +
#723000
b10010 `
b10011 V
b10011 E"
b10011 M"
b10011 U"
b10011 ]"
b10011 e"
b10101 U
1&
#731000
0&
#736000
b10110 +
#739000
b10100 V
b10100 E"
b10100 M"
b10100 U"
b10100 ]"
b10100 e"
b10110 U
b10011 `
1&
#747000
0&
#752000
b10111 +
#755000
b10100 `
b10101 V
b10101 E"
b10101 M"
b10101 U"
b10101 ]"
b10101 e"
b10111 U
1&
#763000
0&
#768000
b11000 +
#771000
b10110 V
b10110 E"
b10110 M"
b10110 U"
b10110 ]"
b10110 e"
b11000 U
b10101 `
1&
#779000
0&
#784000
b11001 +
#787000
b10110 `
b10111 V
b10111 E"
b10111 M"
b10111 U"
b10111 ]"
b10111 e"
b11001 U
1&
#795000
0&
#800000
b11010 +
#803000
b11000 V
b11000 E"
b11000 M"
b11000 U"
b11000 ]"
b11000 e"
b11010 U
b10111 `
1&
#811000
0&
#816000
b11011 +
#819000
b11000 `
b11001 V
b11001 E"
b11001 M"
b11001 U"
b11001 ]"
b11001 e"
b11011 U
1&
#827000
0&
#832000
b11100 +
#835000
b11010 V
b11010 E"
b11010 M"
b11010 U"
b11010 ]"
b11010 e"
b11100 U
b11001 `
1&
#843000
0&
#848000
b11101 +
#851000
b11010 `
b11011 V
b11011 E"
b11011 M"
b11011 U"
b11011 ]"
b11011 e"
b11101 U
1&
#859000
0&
#864000
b11110 +
#867000
b11100 V
b11100 E"
b11100 M"
b11100 U"
b11100 ]"
b11100 e"
b11110 U
b11011 `
1&
#875000
0&
#880000
b11111 +
#883000
b11100 `
b11101 V
b11101 E"
b11101 M"
b11101 U"
b11101 ]"
b11101 e"
b11111 U
1&
#891000
0&
#896000
b100000 +
#899000
b11110 V
b11110 E"
b11110 M"
b11110 U"
b11110 ]"
b11110 e"
b100000 U
b11101 `
1&
#907000
0&
#912000
b100001 +
#915000
b11110 `
b11111 V
b11111 E"
b11111 M"
b11111 U"
b11111 ]"
b11111 e"
b100001 U
1&
#923000
0&
#928000
b100010 +
#931000
b100000 V
b100000 E"
b100000 M"
b100000 U"
b100000 ]"
b100000 e"
b100010 U
b11111 `
1&
#939000
0&
#944000
0(
b100011 +
#947000
b100000 `
b100001 V
b100001 E"
b100001 M"
b100001 U"
b100001 ]"
b100001 e"
b100011 U
0f
1&
#955000
0&
#963000
0>
b100010 V
b100010 E"
b100010 M"
b100010 U"
b100010 ]"
b100010 e"
0Z
b0 g
b0 U
b100001 `
1&
#971000
0&
#979000
b0 o
0[
1A
0y
1B
0C"
1C
0>"
1D
09"
1E
04"
1F
0/"
1G
0*"
1H
0%"
1I
0~
1J
0t
1&
#987000
0&
#995000
b1 o
1&
#1003000
0&
#1011000
1&
#1019000
0&
#1027000
1&
#1035000
0&
#1043000
1&
#1051000
0&
#1059000
1&
#1067000
0&
#1075000
1&
#1083000
0&
#1091000
1&
#1099000
0&
#1107000
1&
#1115000
0&
#1123000
1&
#1131000
0&
#1139000
1&
#1147000
0&
#1155000
1&
#1163000
0&
#1171000
1&
#1179000
0&
#1187000
1&
#1195000
0&
#1203000
1&
#1211000
0&
#1219000
1&
#1227000
0&
#1235000
1&
#1243000
0&
#1251000
1&
#1259000
0&
#1267000
1&
#1275000
0&
#1280000
b10 m"
b10 ,
#1283000
1&
#1291000
0&
#1296000
b10 )
b10 /
b0 +
1(
#1299000
b10 j
1f
1&
#1307000
0&
#1312000
b11110 )
b11110 /
b1 +
#1315000
b10 k
b10 G"
b10 O"
b10 W"
b10 _"
b10 g"
b11110 j
b1 i
b0 V
b0 E"
b0 M"
b0 U"
b0 ]"
b0 e"
b10 g
b1 U
1&
#1323000
0&
#1328000
b10 +
#1331000
1=
b10 h
1Z
b10 U
b11110 k
b11110 G"
b11110 O"
b11110 W"
b11110 _"
b11110 g"
b11110 9
b11110 r
b11110 |
b11110 #"
b11110 ("
b11110 J"
1&
#1339000
0&
#1344000
b11 +
#1347000
0T
1t
0J
0S
1~
0I
0R
1%"
0H
b111111 @
0Q
1*"
0G
1/"
0F
14"
0E
19"
0D
1>"
0C
1C"
0B
1y
0A
b1 V
b1 E"
b1 M"
b1 U"
b1 ]"
b1 e"
b11 U
1\
1&
#1355000
0&
#1360000
b100 +
#1363000
b1 a
b10 V
b10 E"
b10 M"
b10 U"
b10 ]"
b10 e"
b100 U
b11110 +"
b11110 &"
b11110 !"
b11110 u
b11110 3
b11110 S"
1&
#1371000
0&
#1376000
b101 +
#1379000
b11100 u
b11100 !"
b11100 &"
b11100 +"
b11 V
b11 E"
b11 M"
b11 U"
b11 ]"
b11 e"
b101 U
b10 a
1&
#1387000
0&
#1392000
b110 +
#1395000
b11 a
b100 V
b100 E"
b100 M"
b100 U"
b100 ]"
b100 e"
b110 U
b11000 +"
b11000 &"
b11000 !"
b11000 u
1&
#1403000
0&
#1408000
b111 +
#1411000
0q
0{
0""
0'"
b10000 u
b10000 !"
b10000 &"
b10000 +"
b101 V
b101 E"
b101 M"
b101 U"
b101 ]"
b101 e"
b111 U
b100 a
1&
#1419000
0&
#1424000
b1000 +
#1427000
b101 a
b110 V
b110 E"
b110 M"
b110 U"
b110 ]"
b110 e"
b1000 U
b0 +"
b0 &"
b0 !"
b0 u
1&
#1435000
0&
#1440000
b1001 +
#1443000
b111 V
b111 E"
b111 M"
b111 U"
b111 ]"
b111 e"
b1001 U
b110 a
1&
#1451000
0&
#1456000
b1010 +
#1459000
b111 a
b1000 V
b1000 E"
b1000 M"
b1000 U"
b1000 ]"
b1000 e"
b1010 U
1&
#1467000
0&
#1472000
b1011 +
#1475000
b1001 V
b1001 E"
b1001 M"
b1001 U"
b1001 ]"
b1001 e"
b1011 U
b1000 a
1&
#1483000
0&
#1488000
b1100 +
#1491000
b1001 a
b1010 V
b1010 E"
b1010 M"
b1010 U"
b1010 ]"
b1010 e"
b1100 U
1&
#1499000
0&
#1504000
b1101 +
#1507000
b1011 V
b1011 E"
b1011 M"
b1011 U"
b1011 ]"
b1011 e"
b1101 U
b1010 a
1&
#1515000
0&
#1520000
b1110 +
#1523000
b1011 a
b1100 V
b1100 E"
b1100 M"
b1100 U"
b1100 ]"
b1100 e"
b1110 U
1&
#1531000
0&
#1536000
b1111 +
#1539000
b1101 V
b1101 E"
b1101 M"
b1101 U"
b1101 ]"
b1101 e"
b1111 U
b1100 a
1&
#1547000
0&
#1552000
b10000 +
#1555000
b1101 a
b1110 V
b1110 E"
b1110 M"
b1110 U"
b1110 ]"
b1110 e"
b10000 U
1&
#1563000
0&
#1568000
b10001 +
#1571000
b1111 V
b1111 E"
b1111 M"
b1111 U"
b1111 ]"
b1111 e"
b10001 U
b1110 a
1&
#1579000
0&
#1584000
b10010 +
#1587000
b1111 a
b10000 V
b10000 E"
b10000 M"
b10000 U"
b10000 ]"
b10000 e"
b10010 U
1&
#1595000
0&
#1600000
b10011 +
#1603000
b10001 V
b10001 E"
b10001 M"
b10001 U"
b10001 ]"
b10001 e"
b10011 U
b10000 a
1&
#1611000
0&
#1616000
b10100 +
#1619000
b10001 a
b10010 V
b10010 E"
b10010 M"
b10010 U"
b10010 ]"
b10010 e"
b10100 U
1&
#1627000
0&
#1632000
b10101 +
#1635000
b10011 V
b10011 E"
b10011 M"
b10011 U"
b10011 ]"
b10011 e"
b10101 U
b10010 a
1&
#1643000
0&
#1648000
b10110 +
#1651000
b10011 a
b10100 V
b10100 E"
b10100 M"
b10100 U"
b10100 ]"
b10100 e"
b10110 U
1&
#1659000
0&
#1664000
b10111 +
#1667000
b10101 V
b10101 E"
b10101 M"
b10101 U"
b10101 ]"
b10101 e"
b10111 U
b10100 a
1&
#1675000
0&
#1680000
b11000 +
#1683000
b10101 a
b10110 V
b10110 E"
b10110 M"
b10110 U"
b10110 ]"
b10110 e"
b11000 U
1&
#1691000
0&
#1696000
b11001 +
#1699000
b10111 V
b10111 E"
b10111 M"
b10111 U"
b10111 ]"
b10111 e"
b11001 U
b10110 a
1&
#1707000
0&
#1712000
b11010 +
#1715000
b10111 a
b11000 V
b11000 E"
b11000 M"
b11000 U"
b11000 ]"
b11000 e"
b11010 U
1&
#1723000
0&
#1728000
b11011 +
#1731000
b11001 V
b11001 E"
b11001 M"
b11001 U"
b11001 ]"
b11001 e"
b11011 U
b11000 a
1&
#1739000
0&
#1744000
b11100 +
#1747000
b11001 a
b11010 V
b11010 E"
b11010 M"
b11010 U"
b11010 ]"
b11010 e"
b11100 U
1&
#1755000
0&
#1760000
b11101 +
#1763000
b11011 V
b11011 E"
b11011 M"
b11011 U"
b11011 ]"
b11011 e"
b11101 U
b11010 a
1&
#1771000
0&
#1776000
b11110 +
#1779000
b11011 a
b11100 V
b11100 E"
b11100 M"
b11100 U"
b11100 ]"
b11100 e"
b11110 U
1&
#1787000
0&
#1792000
b11111 +
#1795000
b11101 V
b11101 E"
b11101 M"
b11101 U"
b11101 ]"
b11101 e"
b11111 U
b11100 a
1&
#1803000
0&
#1808000
b100000 +
#1811000
b11101 a
b11110 V
b11110 E"
b11110 M"
b11110 U"
b11110 ]"
b11110 e"
b100000 U
1&
#1819000
0&
#1824000
b100001 +
#1827000
b11111 V
b11111 E"
b11111 M"
b11111 U"
b11111 ]"
b11111 e"
b100001 U
b11110 a
1&
#1835000
0&
#1840000
b100010 +
#1843000
b11111 a
b100000 V
b100000 E"
b100000 M"
b100000 U"
b100000 ]"
b100000 e"
b100010 U
1&
#1851000
0&
#1856000
0(
b100011 +
#1859000
0f
b100001 V
b100001 E"
b100001 M"
b100001 U"
b100001 ]"
b100001 e"
b100011 U
b100000 a
1&
#1867000
0&
#1875000
0=
b100001 a
b100010 V
b100010 E"
b100010 M"
b100010 U"
b100010 ]"
b100010 e"
0Z
b0 g
b0 U
1&
#1883000
0&
#1891000
b1010 9
b1010 r
b1010 |
b1010 #"
b1010 ("
b1010 J"
1J
0t
1I
0~
1H
0%"
1G
0*"
1F
0/"
1E
04"
1D
09"
1C
0>"
1B
0C"
1A
0y
0\
b100 o
1&
#1899000
0&
#1907000
1&
#1915000
0&
#1923000
1&
#1931000
0&
#1939000
1&
#1947000
0&
#1955000
1&
#1963000
0&
#1971000
1&
#1979000
0&
#1987000
1&
#1995000
0&
#2003000
1&
#2011000
0&
#2019000
1&
#2027000
0&
#2035000
1&
#2043000
0&
#2051000
1&
#2059000
0&
#2067000
1&
#2075000
0&
#2083000
1&
#2091000
0&
#2099000
1&
#2107000
0&
#2115000
1&
#2123000
0&
#2131000
1&
#2139000
0&
#2147000
1&
#2155000
0&
#2163000
1&
#2171000
0&
#2179000
1&
#2187000
0&
#2192000
b11 m"
b11 ,
#2195000
1&
#2203000
0&
#2208000
b11 )
b11 /
b0 +
1(
#2211000
b11 j
1f
1&
#2219000
0&
#2224000
b11110 )
b11110 /
b1 +
#2227000
b10 i
b0 V
b0 E"
b0 M"
b0 U"
b0 ]"
b0 e"
b11 g
b1 U
b11 k
b11 G"
b11 O"
b11 W"
b11 _"
b11 g"
b11110 j
1&
#2235000
0&
#2240000
b10 +
#2243000
1<
b11110 9
b11110 r
b11110 |
b11110 #"
b11110 ("
b11110 J"
b11110 8
b11110 s
b11110 -"
b11110 2"
b11110 7"
b11110 R"
b11110 k
b11110 G"
b11110 O"
b11110 W"
b11110 _"
b11110 g"
1Z
b10 U
b11 h
1&
#2251000
0&
#2256000
b11 +
#2259000
1]
b1 V
b1 E"
b1 M"
b1 U"
b1 ]"
b1 e"
b11 U
1y
0A
1C"
0B
1>"
0C
0N
19"
0D
0O
14"
0E
0P
1/"
0F
1*"
0G
1%"
0H
1~
0I
b1000000111 @
1T
1t
0J
1&
#2267000
0&
#2272000
b100 +
#2275000
b11110 2
b11110 ["
b1 u
b11110 0"
b11110 5"
b11110 :"
b10 V
b10 E"
b10 M"
b10 U"
b10 ]"
b10 e"
b100 U
b1 b
1&
#2283000
0&
#2288000
b101 +
#2291000
b10 b
b11 V
b11 E"
b11 M"
b11 U"
b11 ]"
b11 e"
b101 U
b11100 :"
b11100 5"
b11100 0"
b11 u
1&
#2299000
0&
#2304000
b110 +
#2307000
b111 u
b11000 0"
b11000 5"
b11000 :"
b100 V
b100 E"
b100 M"
b100 U"
b100 ]"
b100 e"
b110 U
b11 b
1&
#2315000
0&
#2320000
b111 +
#2323000
06"
01"
0,"
1q
b100 b
b101 V
b101 E"
b101 M"
b101 U"
b101 ]"
b101 e"
b111 U
b10000 :"
b10000 5"
b10000 0"
b1111 u
1&
#2331000
0&
#2336000
b1000 +
#2339000
b11111 u
b0 0"
b0 5"
b0 :"
b110 V
b110 E"
b110 M"
b110 U"
b110 ]"
b110 e"
b1000 U
b101 b
1&
#2347000
0&
#2352000
b1001 +
#2355000
b110 b
b111 V
b111 E"
b111 M"
b111 U"
b111 ]"
b111 e"
b1001 U
1&
#2363000
0&
#2368000
b1010 +
#2371000
b1000 V
b1000 E"
b1000 M"
b1000 U"
b1000 ]"
b1000 e"
b1010 U
b111 b
1&
#2379000
0&
#2384000
b1011 +
#2387000
b1000 b
b1001 V
b1001 E"
b1001 M"
b1001 U"
b1001 ]"
b1001 e"
b1011 U
1&
#2395000
0&
#2400000
b1100 +
#2403000
b1010 V
b1010 E"
b1010 M"
b1010 U"
b1010 ]"
b1010 e"
b1100 U
b1001 b
1&
#2411000
0&
#2416000
b1101 +
#2419000
b1010 b
b1011 V
b1011 E"
b1011 M"
b1011 U"
b1011 ]"
b1011 e"
b1101 U
1&
#2427000
0&
#2432000
b1110 +
