txrx_rtl_files/rx_rtl_files/sim/wf_n2one.vcd
$date
	Sun Jan 27 15:57:27 2019
$end
$version
	Icarus Verilog
$end
$timescale
	1ps
$end
$scope module tb_n2one $end
$var wire 1 ! en_out $end
$var wire 8 " data_out [7:0] $end
$var reg 1 # clk $end
$var reg 1 $ rst $end
$var reg 8 % rxd [7:0] $end
$var reg 1 & rxen $end
$var integer 32 ' i [31:0] $end
$var integer 32 ( j [31:0] $end
$var integer 32 ) k [31:0] $end
$var integer 32 * l [31:0] $end
$scope module uut $end
$var wire 1 # clk $end
$var wire 24 + douta3 [23:0] $end
$var wire 24 , doutb3 [23:0] $end
$var wire 8 - redundancy [7:0] $end
$var wire 1 $ rst $end
$var wire 8 . rxd [7:0] $end
$var wire 1 & rxen $end
$var wire 3 / wea5 [2:0] $end
$var wire 3 0 wea3 [2:0] $end
$var wire 3 1 wea [2:0] $end
$var wire 1 2 en_out_5 $end
$var wire 1 3 en_out_3 $end
$var wire 1 4 en_out_1 $end
$var wire 1 5 en_out $end
$var wire 24 6 doutb [23:0] $end
$var wire 24 7 douta [23:0] $end
$var wire 24 8 dina5 [23:0] $end
$var wire 24 9 dina3 [23:0] $end
$var wire 24 : dina [23:0] $end
$var wire 8 ; data_out_5 [7:0] $end
$var wire 8 < data_out_3 [7:0] $end
$var wire 8 = data_out_1 [7:0] $end
$var wire 8 > data_out [7:0] $end
$var wire 36 ? addrb5 [35:0] $end
$var wire 36 @ addrb3 [35:0] $end
$var wire 36 A addrb [35:0] $end
$var wire 36 B addra5 [35:0] $end
$var wire 36 C addra3 [35:0] $end
$var wire 36 D addra [35:0] $end
$var reg 8 E data_out_reg [7:0] $end
$var reg 1 ! en_out_reg $end
$var reg 8 F rxd_reg [7:0] $end
$var reg 1 G rxen_reg $end
$scope module dpram1 $end
$var wire 12 H addra [11:0] $end
$var wire 12 I addrb [11:0] $end
$var wire 1 # clka $end
$var wire 1 # clkb $end
$var wire 8 J dina [7:0] $end
$var wire 8 K dinb [7:0] $end
$var wire 1 L wea $end
$var wire 1 M web $end
$var reg 8 N douta [7:0] $end
$var reg 8 O doutb [7:0] $end
$var integer 32 P i [31:0] $end
$upscope $end
$scope module dpram2 $end
$var wire 12 Q addra [11:0] $end
$var wire 12 R addrb [11:0] $end
$var wire 1 # clka $end
$var wire 1 # clkb $end
$var wire 8 S dina [7:0] $end
$var wire 8 T dinb [7:0] $end
$var wire 1 U wea $end
$var wire 1 V web $end
$var reg 8 W douta [7:0] $end
$var reg 8 X doutb [7:0] $end
$var integer 32 Y i [31:0] $end
$upscope $end
$scope module dpram3 $end
$var wire 12 Z addra [11:0] $end
$var wire 12 [ addrb [11:0] $end
$var wire 1 # clka $end
$var wire 1 # clkb $end
$var wire 8 \ dina [7:0] $end
$var wire 8 ] dinb [7:0] $end
$var wire 1 ^ wea $end
$var wire 1 _ web $end
$var reg 8 ` douta [7:0] $end
$var reg 8 a doutb [7:0] $end
$var integer 32 b i [31:0] $end
$upscope $end
$scope module five2one_v2 $end
$var wire 1 # clk $end
$var wire 24 c douta [23:0] $end
$var wire 24 d doutb [23:0] $end
$var wire 1 $ rst $end
$var wire 8 e rxd [7:0] $end
$var wire 1 G rxen $end
$var wire 1 f state_on $end
$var wire 3 g wea [2:0] $end
$var wire 3 h valids [2:0] $end
$var wire 1 i toena_negedge $end
$var wire 3 j results [2:0] $end
$var wire 1 2 en_out $end
$var wire 8 k douta_2 [7:0] $end
$var wire 8 l douta_1 [7:0] $end
$var wire 8 m douta_0 [7:0] $end
$var wire 24 n dina [23:0] $end
$var wire 8 o data_out [7:0] $end
$var wire 1 p comp_valid2 $end
$var wire 1 q comp_valid1 $end
$var wire 1 r comp_valid0 $end
$var wire 1 s comp_result2 $end
$var wire 1 t comp_result1 $end
$var wire 1 u comp_result0 $end
$var wire 1 v allvalid_posedge $end
$var wire 1 w allvalid $end
$var wire 36 x addrb [35:0] $end
$var wire 36 y addra [35:0] $end
$var reg 12 z addrcount [11:0] $end
$var reg 1 { allvalid_posedge_1s $end
$var reg 2 | allvalid_reg [1:0] $end
$var reg 12 } count_addrb [11:0] $end
$var reg 12 ~ countedge [11:0] $end
$var reg 1 2 en_out_reg $end
$var reg 12 !" packet_length [11:0] $end
$var reg 12 "" results_all [11:0] $end
$var reg 5 #" rx_id [4:0] $end
$var reg 5 $" rx_id_inter [4:0] $end
$var reg 5 %" rx_id_prev [4:0] $end
$var reg 8 &" rxd_s1 [7:0] $end
$var reg 8 '" rxd_s2 [7:0] $end
$var reg 8 (" rxd_s3 [7:0] $end
$var reg 8 )" rxd_s4 [7:0] $end
$var reg 1 *" rxen_s1 $end
$var reg 1 +" rxen_s2 $end
$var reg 1 ," start $end
$var reg 1 -" start_inter $end
$var reg 1 ." start_inter_1s $end
$var reg 4 /" state [3:0] $end
$var reg 12 0" toaddra [11:0] $end
$var reg 12 1" toaddra_s1 [11:0] $end
$var reg 12 2" toaddra_s2 [11:0] $end
$var reg 1 3" toena $end
$var reg 1 4" toena_s1 $end
$var reg 1 5" toena_s2 $end
$var reg 1 6" toena_s3 $end
$var reg 3 7" whichone [2:0] $end
$scope function check $end
$var reg 1 8" check $end
$var reg 12 9" results_all [11:0] $end
$upscope $end
$scope module comp0 $end
$var wire 8 :" bramout [7:0] $end
$var wire 1 # clk $end
$var wire 1 4" en $end
$var wire 8 ;" rxdata [7:0] $end
$var reg 1 <" firstprocessed $end
$var reg 1 u result $end
$var reg 1 r valid $end
$upscope $end
$scope module comp1 $end
$var wire 8 =" bramout [7:0] $end
$var wire 1 # clk $end
$var wire 1 5" en $end
$var wire 8 >" rxdata [7:0] $end
$var reg 1 ?" firstprocessed $end
$var reg 1 t result $end
$var reg 1 q valid $end
$upscope $end
$scope module comp2 $end
$var wire 8 @" bramout [7:0] $end
$var wire 1 # clk $end
$var wire 1 6" en $end
$var wire 8 A" rxdata [7:0] $end
$var reg 1 B" firstprocessed $end
$var reg 1 s result $end
$var reg 1 p valid $end
$upscope $end
$upscope $end
$scope module one2one_inst $end
$var wire 1 # clk $end
$var wire 1 # clk125MHz $end
$var wire 1 4 en_out $end
$var wire 1 $ rst $end
$var wire 1 G rx_en_w $end
$var wire 8 C" rxdata_w [7:0] $end
$var wire 8 D" data_out [7:0] $end
$var reg 12 E" addr [11:0] $end
$var reg 1 4 en_after_id $end
$var reg 1 F" rx_en $end
$var reg 4 G" rx_id [3:0] $end
$var reg 8 H" rxdata [7:0] $end
$var reg 8 I" shift1_rxdata [7:0] $end
$upscope $end
$scope module three2one_v2 $end
$var wire 1 # clk $end
$var wire 8 J" data_out [7:0] $end
$var wire 24 K" douta [23:0] $end
$var wire 24 L" doutb [23:0] $end
$var wire 1 M" lost $end
$var wire 1 $ rst $end
$var wire 1 N" rx_en_w $end
$var wire 8 O" rxd [7:0] $end
$var wire 8 P" rxdata_w [7:0] $end
$var wire 1 G rxen $end
$var wire 3 Q" wea [2:0] $end
$var wire 8 R" q_b3 [7:0] $end
$var wire 8 S" q_b2 [7:0] $end
$var wire 8 T" q_b1 [7:0] $end
$var wire 8 U" out3 [7:0] $end
$var wire 8 V" out2 [7:0] $end
$var wire 8 W" out1 [7:0] $end
$var wire 1 X" en_after_id3 $end
$var wire 1 Y" en_after_id2 $end
$var wire 1 Z" en_after_id1 $end
$var wire 24 [" dina [23:0] $end
$var wire 8 \" data_correct [7:0] $end
$var wire 3 ]" compares [2:0] $end
$var wire 1 ^" comp_valid3 $end
$var wire 1 _" comp_valid2 $end
$var wire 1 `" comp_valid1 $end
$var wire 1 a" comp_result3 $end
$var wire 1 b" comp_result2 $end
$var wire 1 c" comp_result1 $end
$var wire 36 d" addrb [35:0] $end
$var wire 36 e" addra [35:0] $end
$var reg 12 f" addr [11:0] $end
$var reg 12 g" addr_after_id [11:0] $end
$var reg 12 h" addr_b [11:0] $end
$var reg 8 i" data_correct_shift1 [7:0] $end
$var reg 1 j" datalost $end
$var reg 1 k" en_after_id $end
$var reg 1 l" en_after_id1_pre $end
$var reg 1 m" en_after_id2_pre $end
$var reg 1 n" en_after_id3_pre $end
$var reg 1 3 en_out $end
$var reg 12 o" lastaddr1 [11:0] $end
$var reg 12 p" lastaddr2 [11:0] $end
$var reg 12 q" lastaddr3 [11:0] $end
$var reg 12 r" lastaddress [11:0] $end
$var reg 1 s" rx_en $end
$var reg 4 t" rx_id [3:0] $end
$var reg 4 u" rx_id_inter [3:0] $end
$var reg 4 v" rx_id_prev [3:0] $end
$var reg 8 w" rxdata [7:0] $end
$var reg 8 x" shift1_rxdata [7:0] $end
$var reg 1 y" start $end
$var reg 1 z" start_inter $end
$var reg 1 {" started $end
$var reg 4 |" state [3:0] $end
$var reg 3 }" which_one [2:0] $end
$scope module comp1 $end
$var wire 8 ~" bramout [7:0] $end
$var wire 1 # clk $end
$var wire 1 k" en $end
$var wire 8 !# rxdata [7:0] $end
$var reg 1 "# firstprocessed $end
$var reg 1 c" result $end
$var reg 1 `" valid $end
$upscope $end
$scope module comp2 $end
$var wire 8 ## bramout [7:0] $end
$var wire 1 # clk $end
$var wire 1 k" en $end
$var wire 8 $# rxdata [7:0] $end
$var reg 1 %# firstprocessed $end
$var reg 1 b" result $end
$var reg 1 _" valid $end
$upscope $end
$scope module comp3 $end
$var wire 8 &# bramout [7:0] $end
$var wire 1 # clk $end
$var wire 1 k" en $end
$var wire 8 '# rxdata [7:0] $end
$var reg 1 (# firstprocessed $end
$var reg 1 a" result $end
$var reg 1 ^" valid $end
$upscope $end
$upscope $end
$upscope $end
$scope task onepacket $end
$var reg 8 )# id [7:0] $end
$var reg 32 *# seed [31:0] $end
$upscope $end
$upscope $end
$enddefinitions $end
#0
$dumpvars
bx *#
bx )#
0(#
bx '#
bx &#
0%#
bx $#
bx ##
0"#
bx !#
bx ~"
b0 }"
b0 |"
0{"
0z"
0y"
b0 x"
bx w"
b11 v"
b11 u"
b0 t"
xs"
b0 r"
b0 q"
b0 p"
b0 o"
0n"
0m"
0l"
0k"
0j"
b0 i"
b0 h"
b0 g"
b0 f"
b0 e"
b0 d"
0c"
0b"
0a"
x`"
x_"
x^"
b0 ]"
b0 \"
b0 ["
0Z"
0Y"
0X"
bx W"
bx V"
bx U"
bx T"
bx S"
bx R"
b0 Q"
bx P"
bx O"
xN"
0M"
bx L"
bx K"
b0 J"
bx I"
b0 H"
b0 G"
0F"
b0 E"
bx D"
bx C"
0B"
bx A"
bx @"
0?"
bx >"
bx ="
0<"
bx ;"
bx :"
bx 9"
x8"
b0 7"
x6"
x5"
x4"
x3"
bx 2"
bx 1"
bx 0"
b0 /"
x."
x-"
0,"
x+"
x*"
bx )"
bx ("
bx '"
bx &"
bx %"
bx $"
bx #"
bx ""
bx !"
bx ~
bx }
bx |
x{
bx z
bx y
bx x
0w
xv
0u
0t
0s
xr
xq
xp
bx o
bx n
bx m
bx l
bx k
b0 j
xi
bx h
bx g
xf
bx e
bx d
bx c
b10111011100 b
bx a
bx `
0_
x^
b0 ]
bx \
bx [
bx Z
b10111011100 Y
bx X
bx W
0V
xU
b0 T
bx S
bx R
bx Q
b10111011100 P
bx O
bx N
0M
xL
b0 K
bx J
bx I
bx H
xG
bx F
bx E
bx D
b0 C
bx B
bx A
b0 @
bx ?
bx >
bx =
b0 <
bx ;
bx :
b0 9
bx 8
bx 7
bx 6
x5
04
x3
x2
bx 1
b0 0
bx /
b0 .
b101 -
bx ,
bx +
bx *
bx )
bx (
bx '
0&
b0 %
0$
0#
bx "
x!
$end
#8000
1w
1r
1q
b111 h
1p
b0 #"
b0 ~
0v
bx0 |
1`"
1_"
1^"
bx 9
bx ["
bx x"
b1000 |"
03
b0 =
b0 D"
b0 I"
bx H"
xF"
0N"
0G
b0 P"
b0 F
b0 e
b0 C"
b0 O"
1#
#16000
0#
1$
#24000
0f
bx =
bx D"
bx I"
b0 H"
0F"
b0 |"
b0 w"
0s"
0{
1v
b1 |
05
0L
b0 [
b0 R
b0 I
b0 H
bx0 1
b0 A
bx000000000000 D
02
b0 ?
b0 x
b0 }
0-"
bx000000000000 B
bx000000000000 y
b0 0"
bx0 /
bx0 g
03"
b0 z
1#
#32000
0#
0$
#40000
0U
b0 Q
b0 J
1f
bx00 1
bx000000000000000000000000 D
bx00000000 :
0i
bx00 /
bx00 g
04"
bx000000000000000000000000 B
bx000000000000000000000000 y
b0 1"
0*"
bx00000000 8
bx00000000 n
b0 &"
bx000 ""
1{
0v
b11 |
0."
b0 9
b0 ["
b0 x"
b1000 |"
b0 =
b0 D"
b0 I"
0!
1#
#48000
0#
b0 *#
b1 )#
b1 (
b0 )
b1 *
#56000
0^
b0 Z
b0 1
b0 D
b0 |"
0{
b0 /
b0 g
05"
b0 B
b0 y
b0 2"
0+"
b0 '"
b0 ;"
1#
#64000
0#
b1 %
b1 .
b0 '
1&
#72000
06"
b0 ("
b0 >"
b1000 |"
1N"
1G
b1 P"
b1 F
b1 e
b1 C"
b1 O"
1#
#80000
0#
b11100010 %
b11100010 .
b1 '
#88000
b1 J
bx00000001 :
0f
b11100010 P"
b11100010 F
b11100010 e
b11100010 C"
b11100010 O"
b1 H"
1F"
b0 |"
b1 w"
1s"
b1 ~
b1 #"
1*"
b0 )"
b0 A"
bx00000001 8
bx00000001 n
b1 &"
1#
#96000
0#
b11100011 %
b11100011 .
b10 '
#104000
1L
b11100010 J
b1 1
bx11100010 :
b10 ~
b1 /
b1 g
13"
b1 $"
1+"
b1 '"
b1 ;"
bx11100010 8
bx11100010 n
b11100010 &"
b10000000100000001 9
b10000000100000001 ["
b1 x"
b11100010 w"
b1 t"
b1 f"
b1000 |"
b1 G"
b1 E"
b1 =
b1 D"
b1 I"
b11100010 H"
b11100011 P"
b11100011 F
b11100011 e
b11100011 C"
b11100011 O"
1#
#112000
0#
b11100100 %
b11100100 .
b11 '
#120000
1U
b1 H
b11100011 J
b11 1
b1 D
bx11100011 :
b1 0
b1 Q"
1Z"
b11100100 P"
b11100100 F
b11100100 e
b11100100 C"
b11100100 O"
14
b10 E"
b11100010 =
b11100010 D"
b11100010 I"
b11100011 H"
b0 |"
b1 u"
1k"
b10 f"
b111000101110001011100010 9
b111000101110001011100010 ["
b11100010 x"
b11100011 w"
b11 ~
b1 B
b1 y
b1 0"
b11 /
b11 g
14"
b1 ("
b1 >"
b11100010 '"
b11100010 ;"
bx11100011 8
bx11100011 n
b11100011 &"
1#
#128000
0#
b11100101 %
b11100101 .
b100 '
#136000
b11100010 >
1^
b1 Q
b10 H
b11100100 J
b11100010 ;
b11100010 o
b111 1
b1000000000010 D
bx11100100 :
b11100010 T"
bx11100010 ,
bx11100010 L"
bx11100010 6
bx11100010 d
b11100010 O
b1 j
1u
1<"
0w
b11 h
0r
b100 ~
b10 0"
b111 /
b111 g
15"
b1000000000010 B
b1000000000010 y
b1 1"
b1 )"
b1 A"
b11100010 ("
b11100010 >"
b11100011 '"
b11100011 ;"
bx11100100 8
bx11100100 n
b11100100 &"
1c"
1"#
0`"
1b"
1%#
0_"
b111 ]"
1a"
1(#
0^"
b111000111110001111100011 9
b111000111110001111100011 ["
b11100011 x"
b11100100 w"
b1000000000001000000000001 C
b1000000000001000000000001 e"
b1 g"
b11 f"
1l"
b11 E"
b11100011 =
b11100011 D"
b11100011 I"
b11100100 H"
b11100101 P"
b11100101 F
b11100101 e
b11100101 C"
b11100101 O"
1#
#144000
0#
b11100110 %
b11100110 .
b101 '
#152000
b1 Z
b10 Q
b11 H
b11100101 J
b1000000000010000000000011 D
bx11100101 :
b11100010 "
b11100010 E
b11100110 P"
b11100110 F
b11100110 e
b11100110 C"
b11100110 O"
b100 E"
b11100100 =
b11100100 D"
b11100100 I"
b11100101 H"
b1 o"
b10000000000010000000000010 C
b10000000000010000000000010 e"
b10 g"
b100 f"
b111001001110010011100100 9
b111001001110010011100100 ["
b11100100 x"
b11100101 w"
b10 |
b101 ~
b11 0"
16"
b1 2"
b1000000000010000000000011 B
b1000000000010000000000011 y
b10 1"
b11100010 )"
b11100010 A"
b11100011 ("
b11100011 >"
b11100100 '"
b11100100 ;"
bx11100101 8
bx11100101 n
b11100101 &"
1t
1?"
b1 h
0q
b10 j
0u
1#
#160000
0#
b11100111 %
b11100111 .
b110 '
#168000
b10 Z
b11 Q
b100 H
b11100110 J
b10000000000011000000000100 D
bx11100110 :
0t
b100 j
1s
1B"
b0 h
0p
b110 ~
b100 0"
b10 2"
b10000000000011000000000100 B
b10000000000011000000000100 y
b11 1"
b11100011 )"
b11100011 A"
b11100100 ("
b11100100 >"
b11100101 '"
b11100101 ;"
bx11100110 8
bx11100110 n
b11100110 &"
b0 |
b111001011110010111100101 9
b111001011110010111100101 ["
b11100101 x"
b11100110 w"
b11000000000011000000000011 C
b11000000000011000000000011 e"
b11 g"
b101 f"
b10 o"
b101 E"
b11100101 =
b11100101 D"
b11100101 I"
b11100110 H"
b11100111 P"
b11100111 F
b11100111 e
b11100111 C"
b11100111 O"
1#
#176000
0#
b11101000 %
b11101000 .
b111 '
#184000
b11 Z
b100 Q
b101 H
b11100111 J
b11000000000100000000000101 D
bx11100111 :
b11101000 P"
b11101000 F
b11101000 e
b11101000 C"
b11101000 O"
b110 E"
b11100110 =
b11100110 D"
b11100110 I"
b11100111 H"
b11 o"
b100000000000100000000000100 C
b100000000000100000000000100 e"
b100 g"
b110 f"
b111001101110011011100110 9
b111001101110011011100110 ["
b11100110 x"
b11100111 w"
b111 ~
b101 0"
b11 2"
b11000000000100000000000101 B
b11000000000100000000000101 y
b100 1"
b11100100 )"
b11100100 A"
b11100101 ("
b11100101 >"
b11100110 '"
b11100110 ;"
bx11100111 8
bx11100111 n
b11100111 &"
b0 j
0s
1#
#192000
0#
b11101001 %
b11101001 .
b1000 '
#200000
b100 Z
b101 Q
b110 H
b11101000 J
b100000000000101000000000110 D
bx11101000 :
b1000 ~
b110 0"
b100 2"
b100000000000101000000000110 B
b100000000000101000000000110 y
b101 1"
b11100101 )"
b11100101 A"
b11100110 ("
b11100110 >"
b11100111 '"
b11100111 ;"
bx11101000 8
bx11101000 n
b11101000 &"
b111001111110011111100111 9
b111001111110011111100111 ["
b11100111 x"
b11101000 w"
b101000000000101000000000101 C
b101000000000101000000000101 e"
b101 g"
b111 f"
b100 o"
b111 E"
b11100111 =
b11100111 D"
b11100111 I"
b11101000 H"
b11101001 P"
b11101001 F
b11101001 e
b11101001 C"
b11101001 O"
1#
#208000
0#
b11101111 %
b11101111 .
b1001 '
#216000
b101 Z
b110 Q
b111 H
b11101001 J
b101000000000110000000000111 D
bx11101001 :
b11101111 P"
b11101111 F
b11101111 e
b11101111 C"
b11101111 O"
b1000 E"
b11101000 =
b11101000 D"
b11101000 I"
b11101001 H"
b101 o"
b110000000000110000000000110 C
b110000000000110000000000110 e"
b110 g"
b1000 f"
b111010001110100011101000 9
b111010001110100011101000 ["
b11101000 x"
b11101001 w"
b1001 ~
b111 0"
b101 2"
b101000000000110000000000111 B
b101000000000110000000000111 y
b110 1"
b11100110 )"
b11100110 A"
b11100111 ("
b11100111 >"
b11101000 '"
b11101000 ;"
bx11101001 8
bx11101001 n
b11101001 &"
1#
#224000
0#
0&
b1010 '
#232000
b110 Z
b111 Q
b1000 H
b11101111 J
b110000000000111000000001000 D
bx11101111 :
b1010 ~
b1000 0"
b110 2"
b110000000000111000000001000 B
b110000000000111000000001000 y
b111 1"
b11100111 )"
b11100111 A"
b11101000 ("
b11101000 >"
b11101001 '"
b11101001 ;"
bx11101111 8
bx11101111 n
b11101111 &"
b111010011110100111101001 9
b111010011110100111101001 ["
b11101001 x"
b11101111 w"
b111000000000111000000000111 C
b111000000000111000000000111 e"
b111 g"
b1001 f"
b110 o"
b1001 E"
b11101001 =
b11101001 D"
b11101001 I"
b11101111 H"
0N"
0G
1#
#240000
0#
#248000
0L
b111 Z
b1000 Q
b1001 H
b110 1
b111000000001000000000001001 D
b1010 E"
b11101111 =
b11101111 D"
b11101111 I"
0F"
b111 o"
b1000000000001000000000001000 C
b1000000000001000000000001000 e"
b1000 g"
b1010 f"
b111011111110111111101111 9
b111011111110111111101111 ["
b11101111 x"
0s"
b0 #"
b0 ~
b1001 0"
1i
b110 /
b110 g
03"
b111 2"
b111000000001000000000001001 B
b111000000001000000000001001 y
b1000 1"
0*"
b11101000 )"
b11101000 A"
b11101001 ("
b11101001 >"
b11101111 '"
b11101111 ;"
1#
#256000
0#
#264000
0U
b1000 Z
b1001 Q
b100 1
b1000000000001001000000001001 D
b0 0
b0 Q"
0Z"
0i
b100 /
b100 g
04"
b1000 2"
b1000000000001001000000001001 B
b1000000000001001000000001001 y
b1001 1"
0+"
b11101001 )"
b11101001 A"
b11101111 ("
b11101111 >"
b1001000000001001000000001001 C
b1001000000001001000000001001 e"
b1001 g"
0k"
b0 t"
b0 f"
b1000 o"
04
b0 G"
b0 E"
b1001 !"
1#
#272000
0#
#280000
0^
b1001 Z
b0 1
b1001000000001001000000001001 D
b1 |"
0l"
1^"
0(#
1_"
0%#
1`"
0"#
b0 /
b0 g
05"
b1001000000001001000000001001 B
b1001000000001001000000001001 y
b1001 2"
b11101111 )"
b11101111 A"
b100 h
1r
0<"
1#
#288000
0#
#296000
b110 h
1q
0?"
06"
1#
#304000
0#
#312000
1w
b111 h
1p
0B"
1#
#320000
0#
#328000
1v
b1 |
1#
#336000
0#
#344000
1f
bx000000 ""
1{
0v
b11 |
1#
#352000
0#
#360000
0{
1#
#368000
0#
#376000
1#
#384000
0#
#392000
1#
#400000
0#
#408000
1#
#416000
0#
b10 )#
b10 (
#424000
1#
#432000
0#
b10 %
b10 .
b0 '
1&
#440000
1N"
1G
b10 P"
b10 F
b10 e
b10 C"
b10 O"
1#
#448000
0#
b11100010 %
b11100010 .
b1 '
#456000
b0 H
b10 J
b1001000000001001000000000000 D
bx00000010 :
0f
b1 ~
b1 %"
b1001000000001001000000000000 B
b1001000000001001000000000000 y
b0 0"
b10 #"
1*"
bx00000010 8
bx00000010 n
b10 &"
b10 w"
1s"
b10 H"
1F"
b11100010 P"
b11100010 F
b11100010 e
b11100010 C"
b11100010 O"
1#
#464000
0#
b11100011 %
b11100011 .
b10 '
#472000
1L
b0 Q
b11100010 S
b11100010 J
b1 1
b1001000000000000000000000000 D
bx1110001011100010 :
b11100010 m
b11100010 :"
b11100010 W"
b11100010 !#
b11100010 $#
b11100011 P"
b11100011 F
b11100011 e
b11100011 C"
b11100011 O"
b10 G"
b1 E"
b10 =
b10 D"
b10 I"
b11100010 H"
b1 v"
b0 C
b0 e"
b0 g"
b10 t"
b1 f"
b100000001000000010 9
b100000001000000010 ["
b10 x"
b11100010 w"
b10 ~
b1 /
b1 g
13"
b10 $"
b1001000000000000000000000000 B
b1001000000000000000000000000 y
b0 1"
1+"
b10 '"
b10 ;"
bx1110001011100010 8
bx1110001011100010 n
b11100010 &"
bx11100010 +
bx11100010 K"
bx11100010 7
bx11100010 c
b11100010 N
1#
#480000
0#
b11100100 %
b11100100 .
b11 '
#488000
1U
b0 Z
b1 H
b11100011 J
b11 1
b1 D
bx1110001011100011 :
b10 0
b10 Q"
1Y"
b11 ~
b1 0"
b11 /
b11 g
14"
b1 B
b1 y
b0 2"
b10 ("
b10 >"
b11100010 '"
b11100010 ;"
bx1110001011100011 8
bx1110001011100011 n
b11100011 &"
b111000101110001011100010 9
b111000101110001011100010 ["
b11100010 x"
b11100011 w"
1k"
b10 f"
b10 u"
b10 E"
b11100010 =
b11100010 D"
b11100010 I"
b11100011 H"
b11100100 P"
b11100100 F
b11100100 e
b11100100 C"
b11100100 O"
1#
#496000
0#
b11100101 %
b11100101 .
b100 '
#504000
1^
b1 Q
b10 H
b11100011 S
b11100100 J
b111 1
b1000000000010 D
bx1110001111100100 :
b11100011 m
b11100011 :"
b11100011 W"
b11100011 !#
b11100011 $#
b11100101 P"
b11100101 F
b11100101 e
b11100101 C"
b11100101 O"
b11 E"
b11100011 =
b11100011 D"
b11100011 I"
b11100100 H"
1m"
b1000000000001000000000001 C
b1000000000001000000000001 e"
b1 g"
b11 f"
b111000111110001111100011 9
b111000111110001111100011 ["
b11100011 x"
b11100100 w"
1(#
0^"
1%#
0_"
1"#
0`"
b100 ~
b10 0"
b111 /
b111 g
15"
b1000000000010 B
b1000000000010 y
b1 1"
b10 )"
b10 A"
b11100010 ("
b11100010 >"
b11100011 '"
b11100011 ;"
bx1110001111100100 8
bx1110001111100100 n
b11100100 &"
b1 j
1u
1<"
0w
b11 h
0r
bx11100011 +
bx11100011 K"
bx11100011 7
bx11100011 c
b11100011 N
1#
#512000
0#
b11100110 %
b11100110 .
b101 '
#520000
b11100100 S
b1 Z
b10 Q
b11 H
b11100101 J
b1000000000010000000000011 D
bx1110010011100101 :
b11100100 m
b11100100 :"
b11100100 W"
b11100100 !#
b11100100 $#
b11100010 S"
bx11100100 +
bx11100100 K"
bx11100100 7
bx11100100 c
b11100100 N
bx1110001011100010 ,
bx1110001011100010 L"
bx1110001011100010 6
bx1110001011100010 d
b11100010 X
b11 j
1t
1?"
b1 h
0q
b101 ~
b11 0"
16"
b1 2"
b1000000000010000000000011 B
b1000000000010000000000011 y
b10 1"
b11100010 )"
b11100010 A"
b11100011 ("
b11100011 >"
b11100100 '"
b11100100 ;"
bx1110010011100101 8
bx1110010011100101 n
b11100101 &"
b10 |
0c"
b10 ]"
0b"
b111001001110010011100100 9
b111001001110010011100100 ["
b11100100 x"
b11100101 w"
b10000000000010000000000010 C
b10000000000010000000000010 e"
b10 g"
b100 f"
b1 p"
b100 E"
b11100100 =
b11100100 D"
b11100100 I"
b11100101 H"
b11100110 P"
b11100110 F
b11100110 e
b11100110 C"
b11100110 O"
1#
#528000
0#
b11100111 %
b11100111 .
b110 '
#536000
b10 Z
b11 Q
b100 H
b11100101 S
b11100110 J
b10000000000011000000000100 D
bx1110010111100110 :
b11100101 m
b11100101 :"
b11100101 W"
b11100101 !#
b11100101 $#
b11100111 P"
b11100111 F
b11100111 e
b11100111 C"
b11100111 O"
b101 E"
b11100101 =
b11100101 D"
b11100101 I"
b11100110 H"
b10 p"
b11000000000011000000000011 C
b11000000000011000000000011 e"
b11 g"
b101 f"
b111001011110010111100101 9
b111001011110010111100101 ["
b11100101 x"
b11100110 w"
b0 |
b110 ~
b100 0"
b10 2"
b10000000000011000000000100 B
b10000000000011000000000100 y
b11 1"
b11100011 )"
b11100011 A"
b11100100 ("
b11100100 >"
b11100101 '"
b11100101 ;"
bx1110010111100110 8
bx1110010111100110 n
b11100110 &"
1s
1B"
b0 h
0p
b101 j
0t
bx11100101 +
bx11100101 K"
bx11100101 7
bx11100101 c
b11100101 N
1#
#544000
0#
b11101000 %
b11101000 .
b111 '
#552000
b11100110 S
b11 Z
b100 Q
b101 H
b11100111 J
b11000000000100000000000101 D
bx1110011011100111 :
b11100110 m
b11100110 :"
b11100110 W"
b11100110 !#
b11100110 $#
bx11100110 +
bx11100110 K"
bx11100110 7
bx11100110 c
b11100110 N
b1 j
0s
b111 ~
b101 0"
b11 2"
b11000000000100000000000101 B
b11000000000100000000000101 y
b100 1"
b11100100 )"
b11100100 A"
b11100101 ("
b11100101 >"
b11100110 '"
b11100110 ;"
bx1110011011100111 8
bx1110011011100111 n
b11100111 &"
b111001101110011011100110 9
b111001101110011011100110 ["
b11100110 x"
b11100111 w"
b100000000000100000000000100 C
b100000000000100000000000100 e"
b100 g"
b110 f"
b11 p"
b110 E"
b11100110 =
b11100110 D"
b11100110 I"
b11100111 H"
b11101000 P"
b11101000 F
b11101000 e
b11101000 C"
b11101000 O"
1#
#560000
0#
b11101001 %
b11101001 .
b1000 '
#568000
b100 Z
b101 Q
b110 H
b11100111 S
b11101000 J
b100000000000101000000000110 D
bx1110011111101000 :
b11100111 m
b11100111 :"
b11100111 W"
b11100111 !#
b11100111 $#
b11101001 P"
b11101001 F
b11101001 e
b11101001 C"
b11101001 O"
b111 E"
b11100111 =
b11100111 D"
b11100111 I"
b11101000 H"
b100 p"
b101000000000101000000000101 C
b101000000000101000000000101 e"
b101 g"
b111 f"
b111001111110011111100111 9
b111001111110011111100111 ["
b11100111 x"
b11101000 w"
b1000 ~
b110 0"
b100 2"
b100000000000101000000000110 B
b100000000000101000000000110 y
b101 1"
b11100101 )"
b11100101 A"
b11100110 ("
b11100110 >"
b11100111 '"
b11100111 ;"
bx1110011111101000 8
bx1110011111101000 n
b11101000 &"
bx11100111 +
bx11100111 K"
bx11100111 7
bx11100111 c
b11100111 N
1#
#576000
0#
b11101111 %
b11101111 .
b1001 '
#584000
b11101000 S
b101 Z
b110 Q
b111 H
b11101001 J
b101000000000110000000000111 D
bx1110100011101001 :
b11101000 m
b11101000 :"
b11101000 W"
b11101000 !#
b11101000 $#
bx11101000 +
bx11101000 K"
bx11101000 7
bx11101000 c
b11101000 N
b1001 ~
b111 0"
b101 2"
b101000000000110000000000111 B
b101000000000110000000000111 y
b110 1"
b11100110 )"
b11100110 A"
b11100111 ("
b11100111 >"
b11101000 '"
b11101000 ;"
bx1110100011101001 8
bx1110100011101001 n
b11101001 &"
b111010001110100011101000 9
b111010001110100011101000 ["
b11101000 x"
b11101001 w"
b110000000000110000000000110 C
b110000000000110000000000110 e"
b110 g"
b1000 f"
b101 p"
b1000 E"
b11101000 =
b11101000 D"
b11101000 I"
b11101001 H"
b11101111 P"
b11101111 F
b11101111 e
b11101111 C"
b11101111 O"
1#
#592000
0#
0&
b1010 '
