txrx_rtl_files/rx_rtl_files/sim/wf_tb_rx_majority.vcd
$date
	Sun Jan 27 15:56:19 2019
$end
$version
	Icarus Verilog
$end
$timescale
	1ps
$end
$scope module tb_rx_majority $end
$var wire 1 ! en_out $end
$var wire 8 " data_out [7:0] $end
$var reg 1 # clk $end
$var reg 1 $ rst $end
$var reg 8 % rxd [7:0] $end
$var reg 1 & rxen $end
$var integer 32 ' i [31:0] $end
$var integer 32 ( j [31:0] $end
$var integer 32 ) k [31:0] $end
$var integer 32 * l [31:0] $end
$scope module rx_majority $end
$var wire 1 # clk125MHz $end
$var wire 8 + data_out [7:0] $end
$var wire 1 ! en_out $end
$var wire 1 , loss_detected $end
$var wire 1 - loss_detected_1 $end
$var wire 8 . redundancy [7:0] $end
$var wire 1 $ reset $end
$var wire 8 / rx_data [7:0] $end
$var wire 8 0 rx_data_al [7:0] $end
$var wire 1 & rx_enable $end
$var wire 1 1 rx_enable_al $end
$var wire 1 2 loss_detected_c $end
$var wire 1 3 loss_detected_5 $end
$var wire 1 4 loss_detected_3 $end
$var wire 1 5 en_out_c $end
$var wire 1 6 en_out_5 $end
$var wire 1 7 en_out_3 $end
$var wire 1 8 en_out_1 $end
$var wire 8 9 data_out_c [7:0] $end
$var wire 8 : data_out_5 [7:0] $end
$var wire 8 ; data_out_3 [7:0] $end
$var wire 8 < data_out_1 [7:0] $end
$var reg 8 = data_out_ff [7:0] $end
$var reg 1 > en_out_ff $end
$var reg 1 ? loss_detected_ff $end
$var reg 8 @ rx_data_ff1 [7:0] $end
$var reg 8 A rx_data_ff2 [7:0] $end
$var reg 1 B rx_enable_ff1 $end
$var reg 1 C rx_enable_ff2 $end
$scope module five2one_inst $end
$var wire 1 # clk $end
$var wire 8 D data_out [7:0] $end
$var wire 1 3 lost $end
$var wire 1 $ rst $end
$var wire 1 1 rx_en_w $end
$var wire 8 E rxdata_w [7:0] $end
$var wire 8 F q_b5 [7:0] $end
$var wire 8 G q_b4 [7:0] $end
$var wire 8 H q_b3 [7:0] $end
$var wire 8 I q_b2 [7:0] $end
$var wire 8 J q_b1 [7:0] $end
$var wire 8 K out5 [7:0] $end
$var wire 8 L out4 [7:0] $end
$var wire 8 M out3 [7:0] $end
$var wire 8 N out2 [7:0] $end
$var wire 8 O out1 [7:0] $end
$var wire 1 P en_after_id5 $end
$var wire 1 Q en_after_id4 $end
$var wire 1 R en_after_id3 $end
$var wire 1 S en_after_id2 $end
$var wire 1 T en_after_id1 $end
$var wire 8 U data_correct [7:0] $end
$var wire 10 V compares [9:0] $end
$var wire 1 W comp_valid45 $end
$var wire 1 X comp_valid35 $end
$var wire 1 Y comp_valid34 $end
$var wire 1 Z comp_valid25 $end
$var wire 1 [ comp_valid24 $end
$var wire 1 \ comp_valid23 $end
$var wire 1 ] comp_valid15 $end
$var wire 1 ^ comp_valid14 $end
$var wire 1 _ comp_valid13 $end
$var wire 1 ` comp_valid12 $end
$var wire 1 a comp_result45 $end
$var wire 1 b comp_result35 $end
$var wire 1 c comp_result34 $end
$var wire 1 d comp_result25 $end
$var wire 1 e comp_result24 $end
$var wire 1 f comp_result23 $end
$var wire 1 g comp_result15 $end
$var wire 1 h comp_result14 $end
$var wire 1 i comp_result13 $end
$var wire 1 j comp_result12 $end
$var reg 12 k addr [11:0] $end
$var reg 12 l addr_after_id [11:0] $end
$var reg 12 m addr_b [11:0] $end
$var reg 8 n data_correct_shift1 [7:0] $end
$var reg 1 3 datalost $end
$var reg 1 o en_after_id $end
$var reg 1 p en_after_id1_pre $end
$var reg 1 q en_after_id2_pre $end
$var reg 1 r en_after_id3_pre $end
$var reg 1 s en_after_id4_pre $end
$var reg 1 t en_after_id5_pre $end
$var reg 1 6 en_out $end
$var reg 12 u lastaddr1 [11:0] $end
$var reg 12 v lastaddr2 [11:0] $end
$var reg 12 w lastaddr3 [11:0] $end
$var reg 12 x lastaddr4 [11:0] $end
$var reg 12 y lastaddr5 [11:0] $end
$var reg 12 z lastaddress [11:0] $end
$var reg 1 { rx_en $end
$var reg 4 | rx_id [3:0] $end
$var reg 3 } rx_id_inter [2:0] $end
$var reg 4 ~ rx_id_prev [3:0] $end
$var reg 8 !" rxdata [7:0] $end
$var reg 8 "" shift1_rxdata [7:0] $end
$var reg 1 #" start $end
$var reg 1 $" start_inter $end
$var reg 1 %" started $end
$var reg 4 &" state [3:0] $end
$var reg 3 '" which_one [2:0] $end
$scope module comp1 $end
$var wire 1 # clk $end
$var wire 1 o en $end
$var wire 8 (" rxdata [7:0] $end
$var wire 8 )" bramout [7:0] $end
$var reg 1 *" firstprocessed $end
$var reg 1 j result $end
$var reg 1 ` valid $end
$upscope $end
$scope module comp10 $end
$var wire 1 # clk $end
$var wire 1 o en $end
$var wire 8 +" rxdata [7:0] $end
$var wire 8 ," bramout [7:0] $end
$var reg 1 -" firstprocessed $end
$var reg 1 a result $end
$var reg 1 W valid $end
$upscope $end
$scope module comp2 $end
$var wire 1 # clk $end
$var wire 1 o en $end
$var wire 8 ." rxdata [7:0] $end
$var wire 8 /" bramout [7:0] $end
$var reg 1 0" firstprocessed $end
$var reg 1 i result $end
$var reg 1 _ valid $end
$upscope $end
$scope module comp3 $end
$var wire 1 # clk $end
$var wire 1 o en $end
$var wire 8 1" rxdata [7:0] $end
$var wire 8 2" bramout [7:0] $end
$var reg 1 3" firstprocessed $end
$var reg 1 h result $end
$var reg 1 ^ valid $end
$upscope $end
$scope module comp4 $end
$var wire 1 # clk $end
$var wire 1 o en $end
$var wire 8 4" rxdata [7:0] $end
$var wire 8 5" bramout [7:0] $end
$var reg 1 6" firstprocessed $end
$var reg 1 g result $end
$var reg 1 ] valid $end
$upscope $end
$scope module comp5 $end
$var wire 1 # clk $end
$var wire 1 o en $end
$var wire 8 7" rxdata [7:0] $end
$var wire 8 8" bramout [7:0] $end
$var reg 1 9" firstprocessed $end
$var reg 1 f result $end
$var reg 1 \ valid $end
$upscope $end
$scope module comp6 $end
$var wire 1 # clk $end
$var wire 1 o en $end
$var wire 8 :" rxdata [7:0] $end
$var wire 8 ;" bramout [7:0] $end
$var reg 1 <" firstprocessed $end
$var reg 1 e result $end
$var reg 1 [ valid $end
$upscope $end
$scope module comp7 $end
$var wire 1 # clk $end
$var wire 1 o en $end
$var wire 8 =" rxdata [7:0] $end
$var wire 8 >" bramout [7:0] $end
$var reg 1 ?" firstprocessed $end
$var reg 1 d result $end
$var reg 1 Z valid $end
$upscope $end
$scope module comp8 $end
$var wire 1 # clk $end
$var wire 1 o en $end
$var wire 8 @" rxdata [7:0] $end
$var wire 8 A" bramout [7:0] $end
$var reg 1 B" firstprocessed $end
$var reg 1 c result $end
$var reg 1 Y valid $end
$upscope $end
$scope module comp9 $end
$var wire 1 # clk $end
$var wire 1 o en $end
$var wire 8 C" rxdata [7:0] $end
$var wire 8 D" bramout [7:0] $end
$var reg 1 E" firstprocessed $end
$var reg 1 b result $end
$var reg 1 X valid $end
$upscope $end
$scope module dpram1 $end
$var wire 12 F" addra [11:0] $end
$var wire 12 G" addrb [11:0] $end
$var wire 1 # clka $end
$var wire 1 # clkb $end
$var wire 8 H" dina [7:0] $end
$var wire 8 I" dinb [7:0] $end
$var wire 1 T wea $end
$var wire 1 J" web $end
$var reg 8 K" douta [7:0] $end
$var reg 8 L" doutb [7:0] $end
$var integer 32 M" i [31:0] $end
$upscope $end
$scope module dpram2 $end
$var wire 12 N" addra [11:0] $end
$var wire 12 O" addrb [11:0] $end
$var wire 1 # clka $end
$var wire 1 # clkb $end
$var wire 8 P" dina [7:0] $end
$var wire 8 Q" dinb [7:0] $end
$var wire 1 S wea $end
$var wire 1 R" web $end
$var reg 8 S" douta [7:0] $end
$var reg 8 T" doutb [7:0] $end
$var integer 32 U" i [31:0] $end
$upscope $end
$scope module dpram3 $end
$var wire 12 V" addra [11:0] $end
$var wire 12 W" addrb [11:0] $end
$var wire 1 # clka $end
$var wire 1 # clkb $end
$var wire 8 X" dina [7:0] $end
$var wire 8 Y" dinb [7:0] $end
$var wire 1 R wea $end
$var wire 1 Z" web $end
$var reg 8 [" douta [7:0] $end
$var reg 8 \" doutb [7:0] $end
$var integer 32 ]" i [31:0] $end
$upscope $end
$scope module dpram4 $end
$var wire 12 ^" addra [11:0] $end
$var wire 12 _" addrb [11:0] $end
$var wire 1 # clka $end
$var wire 1 # clkb $end
$var wire 8 `" dina [7:0] $end
$var wire 8 a" dinb [7:0] $end
$var wire 1 Q wea $end
$var wire 1 b" web $end
$var reg 8 c" douta [7:0] $end
$var reg 8 d" doutb [7:0] $end
$var integer 32 e" i [31:0] $end
$upscope $end
$scope module dpram5 $end
$var wire 12 f" addra [11:0] $end
$var wire 12 g" addrb [11:0] $end
$var wire 1 # clka $end
$var wire 1 # clkb $end
$var wire 8 h" dina [7:0] $end
$var wire 8 i" dinb [7:0] $end
$var wire 1 P wea $end
$var wire 1 j" web $end
$var reg 8 k" douta [7:0] $end
$var reg 8 l" doutb [7:0] $end
$var integer 32 m" i [31:0] $end
$upscope $end
$upscope $end
$scope module one2one_inst $end
$var wire 1 # clk $end
$var wire 1 # clk125MHz $end
$var wire 1 8 en_out $end
$var wire 1 $ rst $end
$var wire 1 1 rx_en_w $end
$var wire 8 n" rxdata_w [7:0] $end
$var wire 8 o" data_out [7:0] $end
$var reg 12 p" addr [11:0] $end
$var reg 1 8 en_after_id $end
$var reg 1 q" rx_en $end
$var reg 4 r" rx_id [3:0] $end
$var reg 8 s" rxdata [7:0] $end
$var reg 8 t" shift1_rxdata [7:0] $end
$upscope $end
$scope module three2one_inst $end
$var wire 1 # clk $end
$var wire 8 u" data_out [7:0] $end
$var wire 1 4 lost $end
$var wire 1 $ rst $end
$var wire 1 1 rx_en_w $end
$var wire 8 v" rxdata_w [7:0] $end
$var wire 8 w" q_b3 [7:0] $end
$var wire 8 x" q_b2 [7:0] $end
$var wire 8 y" q_b1 [7:0] $end
$var wire 8 z" out3 [7:0] $end
$var wire 8 {" out2 [7:0] $end
$var wire 8 |" out1 [7:0] $end
$var wire 1 }" en_after_id3 $end
$var wire 1 ~" en_after_id2 $end
$var wire 1 !# en_after_id1 $end
$var wire 8 "# data_correct [7:0] $end
$var wire 3 ## compares [2:0] $end
$var wire 1 $# comp_valid3 $end
$var wire 1 %# comp_valid2 $end
$var wire 1 &# comp_valid1 $end
$var wire 1 '# comp_result3 $end
$var wire 1 (# comp_result2 $end
$var wire 1 )# comp_result1 $end
$var reg 12 *# addr [11:0] $end
$var reg 12 +# addr_after_id [11:0] $end
$var reg 12 ,# addr_b [11:0] $end
$var reg 8 -# data_correct_shift1 [7:0] $end
$var reg 1 4 datalost $end
$var reg 1 .# en_after_id $end
$var reg 1 /# en_after_id1_pre $end
$var reg 1 0# en_after_id2_pre $end
$var reg 1 1# en_after_id3_pre $end
$var reg 1 7 en_out $end
$var reg 12 2# lastaddr1 [11:0] $end
$var reg 12 3# lastaddr2 [11:0] $end
$var reg 12 4# lastaddr3 [11:0] $end
$var reg 12 5# lastaddress [11:0] $end
$var reg 1 6# rx_en $end
$var reg 4 7# rx_id [3:0] $end
$var reg 4 8# rx_id_inter [3:0] $end
$var reg 4 9# rx_id_prev [3:0] $end
$var reg 8 :# rxdata [7:0] $end
$var reg 8 ;# shift1_rxdata [7:0] $end
$var reg 1 <# start $end
$var reg 1 =# start_inter $end
$var reg 1 ># started $end
$var reg 4 ?# state [3:0] $end
$var reg 3 @# which_one [2:0] $end
$scope module comp1 $end
$var wire 1 # clk $end
$var wire 1 .# en $end
$var wire 8 A# rxdata [7:0] $end
$var wire 8 B# bramout [7:0] $end
$var reg 1 C# firstprocessed $end
$var reg 1 )# result $end
$var reg 1 &# valid $end
$upscope $end
$scope module comp2 $end
$var wire 1 # clk $end
$var wire 1 .# en $end
$var wire 8 D# rxdata [7:0] $end
$var wire 8 E# bramout [7:0] $end
$var reg 1 F# firstprocessed $end
$var reg 1 (# result $end
$var reg 1 %# valid $end
$upscope $end
$scope module comp3 $end
$var wire 1 # clk $end
$var wire 1 .# en $end
$var wire 8 G# rxdata [7:0] $end
$var wire 8 H# bramout [7:0] $end
$var reg 1 I# firstprocessed $end
$var reg 1 '# result $end
$var reg 1 $# valid $end
$upscope $end
$scope module dpram1 $end
$var wire 12 J# addra [11:0] $end
$var wire 12 K# addrb [11:0] $end
$var wire 1 # clka $end
$var wire 1 # clkb $end
$var wire 8 L# dina [7:0] $end
$var wire 8 M# dinb [7:0] $end
$var wire 1 !# wea $end
$var wire 1 N# web $end
$var reg 8 O# douta [7:0] $end
$var reg 8 P# doutb [7:0] $end
$var integer 32 Q# i [31:0] $end
$upscope $end
$scope module dpram2 $end
$var wire 12 R# addra [11:0] $end
$var wire 12 S# addrb [11:0] $end
$var wire 1 # clka $end
$var wire 1 # clkb $end
$var wire 8 T# dina [7:0] $end
$var wire 8 U# dinb [7:0] $end
$var wire 1 ~" wea $end
$var wire 1 V# web $end
$var reg 8 W# douta [7:0] $end
$var reg 8 X# doutb [7:0] $end
$var integer 32 Y# i [31:0] $end
$upscope $end
$scope module dpram3 $end
$var wire 12 Z# addra [11:0] $end
$var wire 12 [# addrb [11:0] $end
$var wire 1 # clka $end
$var wire 1 # clkb $end
$var wire 8 \# dina [7:0] $end
$var wire 8 ]# dinb [7:0] $end
$var wire 1 }" wea $end
$var wire 1 ^# web $end
$var reg 8 _# douta [7:0] $end
$var reg 8 `# doutb [7:0] $end
$var integer 32 a# i [31:0] $end
$upscope $end
$upscope $end
$upscope $end
$scope task onepacket $end
$var reg 8 b# id [7:0] $end
$var reg 32 c# seed [31:0] $end
$upscope $end
$upscope $end
$enddefinitions $end
#0
$dumpvars
bx c#
bx b#
b10111011100 a#
bx `#
bx _#
0^#
b0 ]#
b0 \#
b0 [#
b0 Z#
b10111011100 Y#
bx X#
bx W#
0V#
b0 U#
b0 T#
b0 S#
b0 R#
b10111011100 Q#
bx P#
bx O#
0N#
b0 M#
b0 L#
b0 K#
b0 J#
0I#
bx H#
bx G#
0F#
bx E#
bx D#
0C#
bx B#
bx A#
b0 @#
b0 ?#
0>#
0=#
0<#
b0 ;#
bx :#
b11 9#
b11 8#
b0 7#
x6#
b0 5#
b0 4#
b0 3#
b0 2#
01#
00#
0/#
0.#
b0 -#
b0 ,#
b0 +#
b0 *#
0)#
0(#
0'#
x&#
x%#
x$#
b0 ##
b0 "#
0!#
0~"
0}"
bx |"
bx {"
bx z"
bx y"
bx x"
bx w"
bx v"
b0 u"
bx t"
b0 s"
b0 r"
0q"
b0 p"
bx o"
bx n"
b10111011100 m"
bx l"
bx k"
0j"
b0 i"
b0 h"
b0 g"
b0 f"
b10111011100 e"
bx d"
bx c"
0b"
b0 a"
b0 `"
b0 _"
b0 ^"
b10111011100 ]"
bx \"
bx ["
0Z"
b0 Y"
b0 X"
b0 W"
b0 V"
b10111011100 U"
bx T"
bx S"
0R"
b0 Q"
b0 P"
b0 O"
b0 N"
b10111011100 M"
bx L"
bx K"
0J"
b0 I"
b0 H"
b0 G"
b0 F"
0E"
bx D"
bx C"
0B"
bx A"
bx @"
0?"
bx >"
bx ="
0<"
bx ;"
bx :"
09"
bx 8"
bx 7"
06"
bx 5"
bx 4"
03"
bx 2"
bx 1"
00"
bx /"
bx ."
0-"
bx ,"
bx +"
0*"
bx )"
bx ("
b0 '"
b0 &"
0%"
0$"
0#"
b0 ""
bx !"
b11 ~
b101 }
b0 |
x{
b0 z
b0 y
b0 x
b0 w
b0 v
b0 u
0t
0s
0r
0q
0p
0o
b0 n
b0 m
b0 l
b0 k
0j
0i
0h
0g
0f
0e
0d
0c
0b
0a
x`
x_
x^
x]
x\
x[
xZ
xY
xX
xW
b0 V
b11000 U
0T
0S
0R
0Q
0P
bx O
bx N
bx M
bx L
bx K
bx J
bx I
bx H
bx G
bx F
bx E
b0 D
xC
xB
bx A
bx @
x?
x>
bx =
bx <
b0 ;
b0 :
b0 9
08
x7
x6
x5
04
03
02
x1
bx 0
b0 /
b101 .
z-
x,
bx +
bx *
bx )
bx (
bx '
0&
b0 %
0$
0#
bx "
x!
$end
#8000
05
b11000 9
b0 <
b0 o"
b0 t"
bx s"
xq"
1&#
1%#
1$#
bx ;#
bx L#
bx T#
bx \#
b1000 ?#
07
1`
1_
1^
1]
1\
1[
1Z
1Y
1X
1W
bx ""
bx H"
bx P"
bx X"
bx `"
bx h"
b1000 &"
06
b11000 :
b11000 D
b11000 n
0B
b0 @
0,
0?
b0 "
b0 +
b0 =
1#
#16000
0#
1$
#24000
0!
0>
b11000 "
b11000 +
b11000 =
01
0C
b0 0
b0 E
b0 n"
b0 v"
b0 A
b0 &"
b0 ?#
bx <
bx o"
bx t"
1#
#32000
0#
0$
#40000
b0 s"
0q"
b0 :#
06#
b1000 ?#
b0 !"
0{
b1000 &"
1#
#48000
0#
b0 c#
b1 b#
b1 (
b0 )
b1 *
#56000
b0 &"
b0 ""
b0 H"
b0 P"
b0 X"
b0 `"
b0 h"
b0 ?#
b0 ;#
b0 L#
b0 T#
b0 \#
b0 <
b0 o"
b0 t"
1#
#64000
0#
b1 %
b1 /
b0 '
1&
#72000
b1000 ?#
b1000 &"
1B
b1 @
1#
#80000
0#
b11100010 %
b11100010 /
b1 '
#88000
11
1C
b1 0
b1 E
b1 n"
b1 v"
b1 A
b11100010 @
b0 &"
b0 ?#
1#
#96000
0#
b11100011 %
b11100011 /
b10 '
#104000
b1 s"
1q"
b1 :#
16#
b1000 ?#
b1 !"
1{
b1000 &"
b11100010 0
b11100010 E
b11100010 n"
b11100010 v"
b11100010 A
b11100011 @
1#
#112000
0#
b11100100 %
b11100100 /
b11 '
#120000
b11100011 0
b11100011 E
b11100011 n"
b11100011 v"
b11100011 A
b11100100 @
b0 &"
b101 ~
b1 |
b1 k
b1 ""
b1 H"
b1 P"
b1 X"
b1 `"
b1 h"
b11100010 !"
b0 ?#
b1 7#
b1 *#
b1 ;#
b1 L#
b1 T#
b1 \#
b11100010 :#
b1 r"
b1 p"
b1 <
b1 o"
b1 t"
b11100010 s"
1#
#128000
0#
b11100101 %
b11100101 /
b100 '
#136000
1!#
1T
18
b10 p"
b11100010 <
b11100010 o"
b11100010 t"
b11100011 s"
b11100010 ;#
b11100010 L#
b11100010 T#
b11100010 \#
b11100011 :#
1.#
b10 *#
b1 8#
b1000 ?#
b11100010 ""
b11100010 H"
b11100010 P"
b11100010 X"
b11100010 `"
b11100010 h"
b11100011 !"
1o
b10 k
b1 }
b1000 &"
b11100100 0
b11100100 E
b11100100 n"
b11100100 v"
b11100100 A
b11100101 @
1#
#144000
0#
b11100110 %
b11100110 /
b101 '
#152000
b11100101 0
b11100101 E
b11100101 n"
b11100101 v"
b11100101 A
b11100110 @
1p
b1 l
b1 F"
b1 N"
b1 V"
b1 ^"
b1 f"
b11 k
b11100011 ""
b11100011 H"
b11100011 P"
b11100011 X"
b11100011 `"
b11100011 h"
b11100100 !"
1a
1-"
0W
1b
1E"
0X
1c
1B"
0Y
1d
1?"
0Z
1e
1<"
0[
1f
19"
0\
1g
16"
0]
1h
13"
0^
1i
10"
0_
b1111111111 V
1j
1*"
0`
1/#
b1 +#
b1 J#
b1 R#
b1 Z#
b11 *#
b11100011 ;#
b11100011 L#
b11100011 T#
b11100011 \#
b11100100 :#
1'#
1I#
0$#
1(#
1F#
0%#
b111 ##
1)#
1C#
0&#
b11 p"
b11100011 <
b11100011 o"
b11100011 t"
b11100100 s"
1#
#160000
0#
b11100111 %
b11100111 /
b110 '
#168000
b100 p"
b11100100 <
b11100100 o"
b11100100 t"
b11100101 s"
b11100010 y"
b11100010 P#
b11100100 ;#
b11100100 L#
b11100100 T#
b11100100 \#
b11100101 :#
b10 +#
b10 J#
b10 R#
b10 Z#
b100 *#
b1 2#
b11100010 J
b11100010 L"
b11100100 ""
b11100100 H"
b11100100 P"
b11100100 X"
b11100100 `"
b11100100 h"
b11100101 !"
b10 l
b10 F"
b10 N"
b10 V"
b10 ^"
b10 f"
b100 k
b1 u
b11100110 0
b11100110 E
b11100110 n"
b11100110 v"
b11100110 A
b11100111 @
1#
#176000
0#
b11101000 %
b11101000 /
b111 '
#184000
b11100111 0
b11100111 E
b11100111 n"
b11100111 v"
b11100111 A
b11101000 @
b10 u
b11 l
b11 F"
b11 N"
b11 V"
b11 ^"
b11 f"
b101 k
b11100101 ""
b11100101 H"
b11100101 P"
b11100101 X"
b11100101 `"
b11100101 h"
b11100110 !"
b10 2#
b11 +#
b11 J#
b11 R#
b11 Z#
b101 *#
b11100101 ;#
b11100101 L#
b11100101 T#
b11100101 \#
b11100110 :#
b101 p"
b11100101 <
b11100101 o"
b11100101 t"
b11100110 s"
1#
#192000
0#
b11101001 %
b11101001 /
b1000 '
#200000
b110 p"
b11100110 <
b11100110 o"
b11100110 t"
b11100111 s"
b11100110 ;#
b11100110 L#
b11100110 T#
b11100110 \#
b11100111 :#
b100 +#
b100 J#
b100 R#
b100 Z#
b110 *#
b11 2#
b11100110 ""
b11100110 H"
b11100110 P"
b11100110 X"
b11100110 `"
b11100110 h"
b11100111 !"
b100 l
b100 F"
b100 N"
b100 V"
b100 ^"
b100 f"
b110 k
b11 u
b11101000 0
b11101000 E
b11101000 n"
b11101000 v"
b11101000 A
b11101001 @
1#
#208000
0#
b11101111 %
b11101111 /
b1001 '
#216000
b11101001 0
b11101001 E
b11101001 n"
b11101001 v"
b11101001 A
b11101111 @
b100 u
b101 l
b101 F"
b101 N"
b101 V"
b101 ^"
b101 f"
b111 k
b11100111 ""
b11100111 H"
b11100111 P"
b11100111 X"
b11100111 `"
b11100111 h"
b11101000 !"
b100 2#
b101 +#
b101 J#
b101 R#
b101 Z#
b111 *#
b11100111 ;#
b11100111 L#
b11100111 T#
b11100111 \#
b11101000 :#
b111 p"
b11100111 <
b11100111 o"
b11100111 t"
b11101000 s"
1#
#224000
0#
0&
b1010 '
#232000
b1000 p"
b11101000 <
b11101000 o"
b11101000 t"
b11101001 s"
b11101000 ;#
b11101000 L#
b11101000 T#
b11101000 \#
b11101001 :#
b110 +#
b110 J#
b110 R#
b110 Z#
b1000 *#
b101 2#
b11101000 ""
b11101000 H"
b11101000 P"
b11101000 X"
b11101000 `"
b11101000 h"
b11101001 !"
b110 l
b110 F"
b110 N"
b110 V"
b110 ^"
b110 f"
b1000 k
b101 u
0B
b11101111 0
b11101111 E
b11101111 n"
b11101111 v"
b11101111 A
1#
#240000
0#
#248000
01
0C
b110 u
b111 l
b111 F"
b111 N"
b111 V"
b111 ^"
b111 f"
b1001 k
b11101001 ""
b11101001 H"
b11101001 P"
b11101001 X"
b11101001 `"
b11101001 h"
b11101111 !"
b110 2#
b111 +#
b111 J#
b111 R#
b111 Z#
b1001 *#
b11101001 ;#
b11101001 L#
b11101001 T#
b11101001 \#
b11101111 :#
b1001 p"
b11101001 <
b11101001 o"
b11101001 t"
b11101111 s"
1#
#256000
0#
#264000
b1010 p"
b11101111 <
b11101111 o"
b11101111 t"
0q"
b11101111 ;#
b11101111 L#
b11101111 T#
b11101111 \#
06#
b1000 +#
b1000 J#
b1000 R#
b1000 Z#
b1010 *#
b111 2#
b11101111 ""
b11101111 H"
b11101111 P"
b11101111 X"
b11101111 `"
b11101111 h"
0{
b1000 l
b1000 F"
b1000 N"
b1000 V"
b1000 ^"
b1000 f"
b1010 k
b111 u
1#
#272000
0#
#280000
0T
0!#
b1000 u
b1001 l
b1001 F"
b1001 N"
b1001 V"
b1001 ^"
b1001 f"
0o
b0 |
b0 k
b1000 2#
b1001 +#
b1001 J#
b1001 R#
b1001 Z#
0.#
b0 7#
b0 *#
08
b0 r"
b0 p"
1#
#288000
0#
#296000
1&#
0C#
1%#
0F#
1$#
0I#
0/#
b0 ?#
1`
0*"
1_
00"
1^
03"
1]
06"
1\
09"
1[
0<"
1Z
0?"
1Y
0B"
1X
0E"
1W
0-"
0p
b0 &"
1#
#304000
0#
#312000
b1 &"
b1 ?#
1#
#320000
0#
#328000
1#
#336000
0#
#344000
1#
#352000
0#
#360000
1#
#368000
0#
#376000
1#
#384000
0#
#392000
1#
#400000
0#
#408000
1#
#416000
0#
b10 b#
b10 (
#424000
1#
#432000
0#
b10 %
b10 /
b0 '
1&
#440000
1B
b10 @
1#
#448000
0#
b11100010 %
b11100010 /
b1 '
#456000
11
1C
b10 0
b10 E
b10 n"
b10 v"
b10 A
b11100010 @
1#
#464000
0#
b11100011 %
b11100011 /
b10 '
#472000
b11100010 0
b11100010 E
b11100010 n"
b11100010 v"
b11100010 A
b11100011 @
b10 !"
1{
b10 :#
16#
b10 s"
1q"
1#
#480000
0#
b11100100 %
b11100100 /
b11 '
#488000
b10 r"
b1 p"
b10 <
b10 o"
b10 t"
b11100010 s"
b10 ;#
b10 L#
b10 T#
b10 \#
b11100010 :#
b1 9#
b0 +#
b0 J#
b0 R#
b0 Z#
b10 7#
b1 *#
b10 ""
b10 H"
b10 P"
b10 X"
b10 `"
b10 h"
b11100010 !"
b1 ~
b0 l
b0 F"
b0 N"
b0 V"
b0 ^"
b0 f"
b10 |
b1 k
b11100011 0
b11100011 E
b11100011 n"
b11100011 v"
b11100011 A
b11100100 @
1#
#496000
0#
b11100101 %
b11100101 /
b100 '
#504000
1S
1~"
b11100100 0
b11100100 E
b11100100 n"
b11100100 v"
b11100100 A
b11100101 @
b10 }
1o
b10 k
b11100010 ""
b11100010 H"
b11100010 P"
b11100010 X"
b11100010 `"
b11100010 h"
b11100011 !"
b11100010 O
b11100010 ("
b11100010 ."
b11100010 1"
b11100010 4"
b11100010 K"
b10 8#
1.#
b10 *#
b11100010 ;#
b11100010 L#
b11100010 T#
b11100010 \#
b11100011 :#
b11100010 |"
b11100010 A#
b11100010 D#
b11100010 O#
b10 p"
b11100010 <
b11100010 o"
b11100010 t"
b11100011 s"
1#
#512000
0#
b11100110 %
b11100110 /
b101 '
#520000
b11 p"
b11100011 <
b11100011 o"
b11100011 t"
b11100100 s"
1C#
0&#
1F#
0%#
1I#
0$#
b11100011 ;#
b11100011 L#
b11100011 T#
b11100011 \#
b11100100 :#
b1 +#
b1 J#
b1 R#
b1 Z#
b11 *#
10#
1*"
0`
10"
0_
13"
0^
16"
0]
19"
0\
1<"
0[
1?"
0Z
1B"
0Y
1E"
0X
1-"
0W
b11100011 ""
b11100011 H"
b11100011 P"
b11100011 X"
b11100011 `"
b11100011 h"
b11100100 !"
b1 l
b1 F"
b1 N"
b1 V"
b1 ^"
b1 f"
b11 k
1q
b11100101 0
b11100101 E
b11100101 n"
b11100101 v"
b11100101 A
b11100110 @
1#
#528000
0#
b11100111 %
b11100111 /
b110 '
#536000
b11100110 0
b11100110 E
b11100110 n"
b11100110 v"
b11100110 A
b11100111 @
b1 v
b10 l
b10 F"
b10 N"
b10 V"
b10 ^"
b10 f"
b100 k
b11100100 ""
b11100100 H"
b11100100 P"
b11100100 X"
b11100100 `"
b11100100 h"
b11100101 !"
0g
0h
0i
b111111 V
0j
b11100010 I
b11100010 T"
b11100011 O
b11100011 ("
b11100011 ."
b11100011 1"
b11100011 4"
b11100011 K"
b1 3#
b10 +#
b10 J#
b10 R#
b10 Z#
b100 *#
b11100100 ;#
b11100100 L#
b11100100 T#
b11100100 \#
b11100101 :#
0(#
b10 ##
0)#
b11100010 x"
b11100010 X#
b11100011 |"
b11100011 A#
b11100011 D#
b11100011 O#
b100 p"
b11100100 <
b11100100 o"
b11100100 t"
b11100101 s"
1#
#544000
0#
b11101000 %
b11101000 /
b111 '
#552000
b101 p"
b11100101 <
b11100101 o"
b11100101 t"
b11100110 s"
b11100100 |"
b11100100 A#
b11100100 D#
b11100100 O#
b11100101 ;#
b11100101 L#
b11100101 T#
b11100101 \#
b11100110 :#
b11 +#
b11 J#
b11 R#
b11 Z#
b101 *#
b10 3#
b11100100 O
b11100100 ("
b11100100 ."
b11100100 1"
b11100100 4"
b11100100 K"
b11100101 ""
b11100101 H"
b11100101 P"
b11100101 X"
b11100101 `"
b11100101 h"
b11100110 !"
b11 l
b11 F"
b11 N"
b11 V"
b11 ^"
b11 f"
b101 k
b10 v
b11100111 0
b11100111 E
b11100111 n"
b11100111 v"
b11100111 A
b11101000 @
1#
#560000
0#
b11101001 %
b11101001 /
b1000 '
#568000
b11101000 0
b11101000 E
b11101000 n"
b11101000 v"
b11101000 A
b11101001 @
b11 v
b100 l
b100 F"
b100 N"
b100 V"
b100 ^"
b100 f"
b110 k
b11100110 ""
b11100110 H"
b11100110 P"
b11100110 X"
b11100110 `"
b11100110 h"
b11100111 !"
b11100101 O
b11100101 ("
b11100101 ."
b11100101 1"
b11100101 4"
b11100101 K"
b11 3#
b100 +#
b100 J#
b100 R#
b100 Z#
b110 *#
b11100110 ;#
b11100110 L#
b11100110 T#
b11100110 \#
b11100111 :#
b11100101 |"
b11100101 A#
b11100101 D#
b11100101 O#
b110 p"
b11100110 <
b11100110 o"
b11100110 t"
b11100111 s"
1#
#576000
0#
b11101111 %
b11101111 /
b1001 '
#584000
b111 p"
b11100111 <
b11100111 o"
b11100111 t"
b11101000 s"
b11100110 |"
b11100110 A#
b11100110 D#
b11100110 O#
b11100111 ;#
b11100111 L#
b11100111 T#
b11100111 \#
b11101000 :#
b101 +#
b101 J#
b101 R#
b101 Z#
b111 *#
b100 3#
b11100110 O
b11100110 ("
b11100110 ."
b11100110 1"
b11100110 4"
b11100110 K"
b11100111 ""
b11100111 H"
b11100111 P"
b11100111 X"
b11100111 `"
b11100111 h"
b11101000 !"
b101 l
b101 F"
b101 N"
b101 V"
b101 ^"
b101 f"
b111 k
b100 v
b11101001 0
b11101001 E
b11101001 n"
b11101001 v"
b11101001 A
b11101111 @
1#
#592000
0#
0&
b1010 '
