txrx_rtl_files/rx_rtl_files/sim/wf_three2one.vcd
$date
	Fri Jan 11 00:16:13 2019
$end
$version
	Icarus Verilog
$end
$timescale
	1ps
$end
$scope module tb_three2one $end
$var wire 8 ! out1 [7:0] $end
$var wire 8 " out2 [7:0] $end
$var wire 1 # lost $end
$var wire 1 $ en_out $end
$var wire 8 % data_out [7:0] $end
$var reg 1 & clk $end
$var reg 1 ' rst $end
$var reg 1 ( rx_en $end
$var reg 8 ) rxdata [7:0] $end
$var reg 4 * switches [3:0] $end
$var integer 32 + i [31:0] $end
$var integer 32 , j [31:0] $end
$var integer 32 - k [31:0] $end
$scope module uut $end
$var wire 1 & clk $end
$var wire 8 . data_out [7:0] $end
$var wire 1 # lost $end
$var wire 1 ' rst $end
$var wire 1 ( rx_en_w $end
$var wire 8 / rxdata_w [7:0] $end
$var wire 8 0 q_b3 [7:0] $end
$var wire 8 1 q_b2 [7:0] $end
$var wire 8 2 q_b1 [7:0] $end
$var wire 8 3 out3 [7:0] $end
$var wire 8 4 out2 [7:0] $end
$var wire 8 5 out1 [7:0] $end
$var wire 1 6 en_after_id3 $end
$var wire 1 7 en_after_id2 $end
$var wire 1 8 en_after_id1 $end
$var wire 8 9 data_correct [7:0] $end
$var wire 3 : compares [2:0] $end
$var wire 1 ; comp_valid3 $end
$var wire 1 < comp_valid2 $end
$var wire 1 = comp_valid1 $end
$var wire 1 > comp_result3 $end
$var wire 1 ? comp_result2 $end
$var wire 1 @ comp_result1 $end
$var reg 12 A addr [11:0] $end
$var reg 12 B addr_after_id [11:0] $end
$var reg 12 C addr_b [11:0] $end
$var reg 8 D data_correct_shift1 [7:0] $end
$var reg 1 E datalost $end
$var reg 1 F en_after_id $end
$var reg 1 G en_after_id1_pre $end
$var reg 1 H en_after_id2_pre $end
$var reg 1 I en_after_id3_pre $end
$var reg 1 $ en_out $end
$var reg 12 J lastaddr1 [11:0] $end
$var reg 12 K lastaddr2 [11:0] $end
$var reg 12 L lastaddr3 [11:0] $end
$var reg 12 M lastaddress [11:0] $end
$var reg 1 N rx_en $end
$var reg 4 O rx_id [3:0] $end
$var reg 4 P rx_id_inter [3:0] $end
$var reg 4 Q rx_id_prev [3:0] $end
$var reg 8 R rxdata [7:0] $end
$var reg 8 S shift1_rxdata [7:0] $end
$var reg 1 T start $end
$var reg 1 U start_inter $end
$var reg 1 V started $end
$var reg 4 W state [3:0] $end
$var reg 3 X which_one [2:0] $end
$scope module comp1 $end
$var wire 1 & clk $end
$var wire 1 F en $end
$var wire 1 Y shift4_result $end
$var wire 8 Z rxdata [7:0] $end
$var wire 8 [ bramout [7:0] $end
$var reg 1 \ firstprocessed $end
$var reg 1 @ result $end
$var reg 5 ] shift_result [4:0] $end
$var reg 1 = valid $end
$upscope $end
$scope module comp2 $end
$var wire 1 & clk $end
$var wire 1 F en $end
$var wire 1 ^ shift4_result $end
$var wire 8 _ rxdata [7:0] $end
$var wire 8 ` bramout [7:0] $end
$var reg 1 a firstprocessed $end
$var reg 1 ? result $end
$var reg 5 b shift_result [4:0] $end
$var reg 1 < valid $end
$upscope $end
$scope module comp3 $end
$var wire 1 & clk $end
$var wire 1 F en $end
$var wire 1 c shift4_result $end
$var wire 8 d rxdata [7:0] $end
$var wire 8 e bramout [7:0] $end
$var reg 1 f firstprocessed $end
$var reg 1 > result $end
$var reg 5 g shift_result [4:0] $end
$var reg 1 ; valid $end
$upscope $end
$scope module dpram1 $end
$var wire 12 h addra [11:0] $end
$var wire 12 i addrb [11:0] $end
$var wire 1 & clka $end
$var wire 1 & clkb $end
$var wire 8 j dina [7:0] $end
$var wire 8 k dinb [7:0] $end
$var wire 1 8 wea $end
$var wire 1 l web $end
$var reg 8 m douta [7:0] $end
$var reg 8 n doutb [7:0] $end
$var integer 32 o i [31:0] $end
$upscope $end
$scope module dpram2 $end
$var wire 12 p addra [11:0] $end
$var wire 12 q addrb [11:0] $end
$var wire 1 & clka $end
$var wire 1 & clkb $end
$var wire 8 r dina [7:0] $end
$var wire 8 s dinb [7:0] $end
$var wire 1 7 wea $end
$var wire 1 t web $end
$var reg 8 u douta [7:0] $end
$var reg 8 v doutb [7:0] $end
$var integer 32 w i [31:0] $end
$upscope $end
$scope module dpram3 $end
$var wire 12 x addra [11:0] $end
$var wire 12 y addrb [11:0] $end
$var wire 1 & clka $end
$var wire 1 & clkb $end
$var wire 8 z dina [7:0] $end
$var wire 8 { dinb [7:0] $end
$var wire 1 6 wea $end
$var wire 1 | web $end
$var reg 8 } douta [7:0] $end
$var reg 8 ~ doutb [7:0] $end
$var integer 32 !" i [31:0] $end
$upscope $end
$upscope $end
$scope task onepacket $end
$var reg 8 "" id [7:0] $end
$var reg 32 #" seed [31:0] $end
$upscope $end
$upscope $end
$enddefinitions $end
#0
$dumpvars
bx #"
bx ""
b1000000000000 !"
bx ~
bx }
0|
b0 {
b0 z
b0 y
b0 x
b1000000000000 w
bx v
bx u
0t
b0 s
b0 r
b0 q
b0 p
b1000000000000 o
bx n
bx m
0l
b0 k
b0 j
b0 i
b0 h
b0 g
0f
bx e
bx d
0c
b0 b
0a
bx `
bx _
0^
b0 ]
0\
bx [
bx Z
0Y
b0 X
b0 W
0V
0U
0T
b0 S
bx R
b11 Q
b11 P
b0 O
xN
b0 M
b0 L
b0 K
b0 J
0I
0H
0G
0F
0E
b0 D
b0 C
b0 B
b0 A
0@
0?
0>
x=
x<
x;
b0 :
b0 9
08
07
06
bx 5
bx 4
bx 3
bx 2
bx 1
bx 0
b0 /
b0 .
bx -
bx ,
bx +
b1 *
b0 )
0(
0'
0&
b0 %
x$
0#
bz "
bz !
$end
#3000
b1010 5
b1010 Z
b1010 _
b1010 m
b1010 2
b1010 n
b1010 4
b1010 [
b1010 d
b1010 u
b1010 1
b1010 v
b1010 3
b1010 `
b1010 e
b1010 }
b1010 0
b1010 ~
1=
1<
1;
bx S
bx j
bx r
bx z
b0 R
0N
b1000 W
0$
1&
#11000
0&
#16000
1'
#19000
b0 W
b0 S
b0 j
b0 r
b0 z
1&
#27000
0&
#32000
0'
#35000
b1000 W
1&
#43000
0&
#48000
b0 #"
b10 ""
b10 ,
b0 -
#51000
b0 W
1&
#59000
0&
#64000
b10 )
b10 /
b0 +
1(
#67000
b10 R
1N
b1000 W
1&
#75000
0&
#80000
b1111111 )
b1111111 /
b1 +
#83000
b0 W
b10 O
b1 A
b10 S
b10 j
b10 r
b10 z
b1111111 R
1&
#91000
0&
#96000
b10001011 )
b10001011 /
b10 +
#99000
17
b1111111 S
b1111111 j
b1111111 r
b1111111 z
b10001011 R
1F
b10 A
b10 P
b1000 W
1&
#107000
0&
#112000
b10011111 )
b10011111 /
b11 +
#115000
1H
b1 B
b1 h
b1 p
b1 x
b11 A
b10001011 S
b10001011 j
b10001011 r
b10001011 z
b10011111 R
1>
1f
0;
1?
1a
0<
b111 :
1@
1\
0=
1&
#123000
0&
#128000
b10111011 )
b10111011 /
b100 +
#131000
b1111111 1
b1111111 v
b1 ]
b1 b
b1 g
b10011111 S
b10011111 j
b10011111 r
b10011111 z
b10111011 R
b10 B
b10 h
b10 p
b10 x
b100 A
b1 K
1&
#139000
0&
#144000
b11011111 )
b11011111 /
b101 +
#147000
b10 K
b11 B
b11 h
b11 p
b11 x
b101 A
b10111011 S
b10111011 j
b10111011 r
b10111011 z
b11011111 R
b11 g
b11 b
b11 ]
1&
#155000
0&
#160000
b1100 )
b1100 /
b110 +
#163000
b111 ]
b111 b
b111 g
b11011111 S
b11011111 j
b11011111 r
b11011111 z
b1100 R
b100 B
b100 h
b100 p
b100 x
b110 A
b11 K
1&
#171000
0&
#176000
b1000000 )
b1000000 /
b111 +
#179000
1c
1^
1Y
b100 K
b101 B
b101 h
b101 p
b101 x
b111 A
b1100 S
b1100 j
b1100 r
b1100 z
b1000000 R
b1111 g
b1111 b
b1111 ]
1&
#187000
0&
#192000
0(
b1000 +
#195000
b11111 ]
b11111 b
b11111 g
b1000000 S
b1000000 j
b1000000 r
b1000000 z
0N
b110 B
b110 h
b110 p
b110 x
b1000 A
b101 K
1&
#203000
0&
#208000
b11 ""
b11 ,
#211000
07
b110 K
b111 B
b111 h
b111 p
b111 x
0F
b0 O
b0 A
1&
#219000
0&
#224000
b11 )
b11 /
b0 +
1(
#227000
1=
0\
1<
0a
1;
0f
b11 R
1N
0H
b0 W
1&
#235000
0&
#240000
b1111111 )
b1111111 /
b1 +
#243000
b11 W
b10 Q
b0 B
b0 h
b0 p
b0 x
b11 O
b1 A
b11 S
b11 j
b11 r
b11 z
b1111111 R
1&
#251000
0&
#256000
b10001011 )
b10001011 /
b10 +
#259000
16
b1111111 4
b1111111 [
b1111111 d
b1111111 u
b1111111 S
b1111111 j
b1111111 r
b1111111 z
b10001011 R
1F
b10 A
b11 P
1&
#267000
0&
#272000
b10011111 )
b10011111 /
b11 +
#275000
1I
b1 B
b1 h
b1 p
b1 x
b11 A
b10001011 S
b10001011 j
b10001011 r
b10001011 z
b10011111 R
0>
1f
0;
1a
0<
b1 :
0@
1\
0=
1&
#283000
0&
#288000
b10111011 )
b10111011 /
b100 +
#291000
b10001011 4
b10001011 [
b10001011 d
b10001011 u
b1111111 0
b1111111 ~
b11110 ]
b11110 g
b10011111 S
b10011111 j
b10011111 r
b10011111 z
b10111011 R
b10 B
b10 h
b10 p
b10 x
b100 A
b1 L
1&
#299000
0&
#304000
b11011111 )
b11011111 /
b101 +
#307000
b10 L
b11 B
b11 h
b11 p
b11 x
b101 A
b10111011 S
b10111011 j
b10111011 r
b10111011 z
b11011111 R
b11100 g
b11100 ]
b10011111 4
b10011111 [
b10011111 d
b10011111 u
1&
#315000
0&
#320000
b1100 )
b1100 /
b110 +
#323000
b10111011 4
b10111011 [
b10111011 d
b10111011 u
b11000 ]
b11000 g
b11011111 S
b11011111 j
b11011111 r
b11011111 z
b1100 R
b100 B
b100 h
b100 p
b100 x
b110 A
b11 L
1&
#331000
0&
#336000
b1000000 )
b1000000 /
b111 +
#339000
0c
0Y
b100 L
b101 B
b101 h
b101 p
b101 x
b111 A
b1100 S
b1100 j
b1100 r
b1100 z
b1000000 R
b10000 g
b10000 ]
b11011111 4
b11011111 [
b11011111 d
b11011111 u
1&
#347000
0&
#352000
0(
b1000 +
#355000
b1100 4
b1100 [
b1100 d
b1100 u
b0 ]
b0 g
b1000000 S
b1000000 j
b1000000 r
b1000000 z
0N
b110 B
b110 h
b110 p
b110 x
b1000 A
b101 L
1&
#363000
0&
#368000
b100 ,
#371000
06
b110 L
b111 B
b111 h
b111 p
b111 x
0F
b0 O
b0 A
b1000000 4
b1000000 [
b1000000 d
b1000000 u
1&
#379000
0&
#387000
b1010 4
b1010 [
b1010 d
b1010 u
1=
0\
1<
0a
1;
0f
0I
b110 W
1&
#395000
0&
#403000
1&
#411000
0&
#419000
1&
#427000
0&
#435000
1&
#443000
0&
#451000
1&
#459000
0&
#467000
1&
#475000
0&
#483000
1&
#491000
0&
#499000
1&
#507000
0&
#515000
1&
#523000
0&
#528000
b1 #"
b10 ""
b10 ,
b1 -
#531000
1&
#539000
0&
#544000
b10 )
b10 /
b0 +
1(
#547000
b10 R
1N
1&
#555000
0&
#560000
b10000000 )
b10000000 /
b1 +
#563000
b11 Q
b0 B
b0 h
b0 p
b0 x
b10 O
b1 A
b10 S
b10 j
b10 r
b10 z
b10000000 R
1&
#571000
0&
#576000
b10001100 )
b10001100 /
b10 +
#579000
17
b1111111 4
b1111111 [
b1111111 d
b1111111 u
b1111111 3
b1111111 `
b1111111 e
b1111111 }
b10000000 S
b10000000 j
b10000000 r
b10000000 z
b10001100 R
1F
b10 A
b10 P
1&
#587000
0&
#592000
b10100000 )
b10100000 /
b11 +
#595000
b0 K
1H
b1 B
b1 h
b1 p
b1 x
b11 A
b10001100 S
b10001100 j
b10001100 r
b10001100 z
b10100000 R
1>
1f
0;
b10 :
0?
1a
0<
1\
0=
1&
#603000
0&
#608000
b10111100 )
b10111100 /
b100 +
#611000
b10001011 4
b10001011 [
b10001011 d
b10001011 u
b10000000 1
b10000000 v
b10001011 3
b10001011 `
b10001011 e
b10001011 }
b11110 b
b1 g
b10100000 S
b10100000 j
b10100000 r
b10100000 z
b10111100 R
b10 B
b10 h
b10 p
b10 x
b100 A
b1 K
1&
#619000
0&
#624000
b11100000 )
b11100000 /
b101 +
#627000
b10 K
b11 B
b11 h
b11 p
b11 x
b101 A
b10111100 S
b10111100 j
b10111100 r
b10111100 z
b11100000 R
b11 g
b11100 b
b10011111 3
b10011111 `
b10011111 e
b10011111 }
b10011111 4
b10011111 [
b10011111 d
b10011111 u
1&
#635000
0&
#640000
b1101 )
b1101 /
b110 +
#643000
b10111011 4
b10111011 [
b10111011 d
b10111011 u
b10111011 3
b10111011 `
b10111011 e
b10111011 }
b11000 b
b111 g
b11100000 S
b11100000 j
b11100000 r
b11100000 z
b1101 R
b100 B
b100 h
b100 p
b100 x
b110 A
b11 K
1&
#651000
0&
#656000
b1000001 )
b1000001 /
b111 +
#659000
1c
0^
b100 K
b101 B
b101 h
b101 p
b101 x
b111 A
b1101 S
b1101 j
b1101 r
b1101 z
b1000001 R
b1111 g
b10000 b
b11011111 3
b11011111 `
b11011111 e
b11011111 }
b11011111 4
b11011111 [
b11011111 d
b11011111 u
1&
#667000
0&
#672000
0(
b1000 +
#675000
b1100 4
b1100 [
b1100 d
b1100 u
b1100 3
b1100 `
b1100 e
b1100 }
b0 b
b11111 g
b1000001 S
b1000001 j
b1000001 r
b1000001 z
0N
b110 B
b110 h
b110 p
b110 x
b1000 A
b101 K
1&
#683000
0&
#688000
b11 ""
b11 ,
#691000
07
b110 K
b111 B
b111 h
b111 p
b111 x
0F
b0 O
b0 A
b1000000 3
b1000000 `
b1000000 e
b1000000 }
b1000000 4
b1000000 [
b1000000 d
b1000000 u
1&
#699000
0&
#704000
b11 )
b11 /
b0 +
1(
#707000
b1010 4
b1010 [
b1010 d
b1010 u
b1010 3
b1010 `
b1010 e
b1010 }
1=
0\
1<
0a
1;
0f
b11 R
1N
0H
b101 W
1&
#715000
0&
#720000
b10000000 )
b10000000 /
b1 +
#723000
b0 W
1T
b10 Q
b0 B
b0 h
b0 p
b0 x
b11 O
b1 A
b11 S
b11 j
b11 r
b11 z
b10000000 R
1&
#731000
0&
#736000
b10001100 )
b10001100 /
b10 +
#739000
b10000000 9
16
b10000000 4
b10000000 [
b10000000 d
b10000000 u
b1111111 3
b1111111 `
b1111111 e
b1111111 }
b10000000 S
b10000000 j
b10000000 r
b10000000 z
b10001100 R
1F
b10 A
b11 P
b11 W
0T
1#
1E
b110 M
b10 X
1V
1&
#747000
0&
#752000
b10100000 )
b10100000 /
b11 +
#755000
b1 C
b1 i
b1 q
b1 y
1U
0V
b10000000 %
b10000000 .
b10000000 D
0#
0E
b0 L
1I
b1 B
b1 h
b1 p
b1 x
b11 A
b10001100 S
b10001100 j
b10001100 r
b10001100 z
b10100000 R
b0 :
0>
1f
0;
1a
0<
1\
0=
1&
#763000
0&
#768000
b10111100 )
b10111100 /
b100 +
#771000
b10001100 9
b10001100 4
b10001100 [
b10001100 d
b10001100 u
b10001100 1
b10001100 v
b10001011 3
b10001011 `
b10001011 e
b10001011 }
b10001011 0
b10001011 ~
b11110 g
b10100000 S
b10100000 j
b10100000 r
b10100000 z
b10111100 R
b10 B
b10 h
b10 p
b10 x
b100 A
b1 L
1$
b10 C
b10 i
b10 q
b10 y
1&
#779000
0&
#784000
b11100000 )
b11100000 /
b101 +
#787000
b10100000 9
b11 C
b11 i
b11 q
b11 y
b10001100 %
b10001100 .
b10001100 D
b10 L
b11 B
b11 h
b11 p
b11 x
b101 A
b10111100 S
b10111100 j
b10111100 r
b10111100 z
b11100000 R
b11100 g
b10011111 0
b10011111 ~
b10011111 3
b10011111 `
b10011111 e
b10011111 }
b10100000 1
b10100000 v
b10100000 4
b10100000 [
b10100000 d
b10100000 u
1&
#795000
0&
#800000
b1101 )
b1101 /
b110 +
#803000
b10111100 9
b10111100 4
b10111100 [
b10111100 d
b10111100 u
b10111100 1
b10111100 v
b10111011 3
b10111011 `
b10111011 e
b10111011 }
b10111011 0
b10111011 ~
b11000 g
b11100000 S
b11100000 j
b11100000 r
b11100000 z
b1101 R
b100 B
b100 h
b100 p
b100 x
b110 A
b11 L
b100 C
b100 i
b100 q
b100 y
b10100000 %
b10100000 .
b10100000 D
1&
#811000
0&
#816000
b1000001 )
b1000001 /
b111 +
#819000
b11100000 9
0c
b101 C
b101 i
b101 q
b101 y
b10111100 %
b10111100 .
b10111100 D
b100 L
b101 B
b101 h
b101 p
b101 x
b111 A
b1101 S
b1101 j
b1101 r
b1101 z
b1000001 R
b10000 g
b11011111 0
b11011111 ~
b11011111 3
b11011111 `
b11011111 e
b11011111 }
b11100000 1
b11100000 v
b11100000 4
b11100000 [
b11100000 d
b11100000 u
1&
#827000
0&
#832000
0(
b1000 +
#835000
b1101 9
b1101 4
b1101 [
b1101 d
b1101 u
b1101 1
b1101 v
b1100 3
b1100 `
b1100 e
b1100 }
b1100 0
b1100 ~
b0 g
b1000001 S
b1000001 j
b1000001 r
b1000001 z
0N
b110 B
b110 h
b110 p
b110 x
b1000 A
b101 L
b110 C
b110 i
b110 q
b110 y
b11100000 %
b11100000 .
b11100000 D
1&
#843000
0&
#848000
b100 ,
#851000
b1000001 9
06
b111 C
b111 i
b111 q
b111 y
b1101 %
b1101 .
b1101 D
b110 L
b111 B
b111 h
b111 p
b111 x
0F
b0 O
b0 A
b1000000 0
b1000000 ~
b1000000 3
b1000000 `
b1000000 e
b1000000 }
b1000001 1
b1000001 v
b1000001 4
b1000001 [
b1000001 d
b1000001 u
1&
#859000
0&
#867000
b1010 9
b1010 4
b1010 [
b1010 d
b1010 u
b1010 1
b1010 v
b1010 3
b1010 `
b1010 e
b1010 }
b1010 0
b1010 ~
1=
0\
1<
0a
1;
0f
0I
b110 W
b1000 C
b1000 i
b1000 q
b1000 y
0U
b1000001 %
b1000001 .
b1000001 D
1&
#875000
0&
#883000
0$
b0 C
b0 i
b0 q
b0 y
b1010 %
b1010 .
b1010 D
1&
#891000
0&
#899000
b10000000 9
b10000000 1
b10000000 v
b10000000 0
b10000000 ~
1&
#907000
0&
#915000
b10000000 %
b10000000 .
b10000000 D
1&
#923000
0&
#931000
1&
#939000
0&
#947000
1&
#955000
0&
#963000
1&
#971000
0&
#979000
1&
#987000
0&
#995000
1&
#1003000
0&
#1008000
b10 #"
b10 ""
b10 ,
b10 -
#1011000
1&
#1019000
0&
#1024000
b10 )
b10 /
b0 +
1(
#1027000
b10 R
1N
1&
#1035000
0&
#1040000
b10000011 )
b10000011 /
b1 +
#1043000
b11 Q
b0 B
b0 h
b0 p
b0 x
b10 O
b1 A
b10 S
b10 j
b10 r
b10 z
b10000011 R
1&
#1051000
0&
#1056000
b10001111 )
b10001111 /
b10 +
#1059000
17
b10000000 4
b10000000 [
b10000000 d
b10000000 u
b10000000 3
b10000000 `
b10000000 e
b10000000 }
b10000011 S
b10000011 j
b10000011 r
b10000011 z
b10001111 R
1F
b10 A
b10 P
1&
#1067000
0&
#1072000
b10100011 )
b10100011 /
b11 +
#1075000
b0 K
1H
b1 B
b1 h
b1 p
b1 x
b11 A
b10001111 S
b10001111 j
b10001111 r
b10001111 z
b10100011 R
b10 :
1>
1f
0;
1a
0<
1\
0=
1&
#1083000
0&
#1088000
b10111111 )
b10111111 /
b100 +
#1091000
b10000011 9
b10001100 4
b10001100 [
b10001100 d
b10001100 u
b10000011 1
b10000011 v
b10001100 3
b10001100 `
b10001100 e
b10001100 }
b1 g
b10100011 S
b10100011 j
b10100011 r
b10100011 z
b10111111 R
b10 B
b10 h
b10 p
b10 x
b100 A
b1 K
1&
#1099000
0&
#1104000
b11100011 )
b11100011 /
b101 +
#1107000
b10000011 %
b10000011 .
b10000011 D
b10 K
b11 B
b11 h
b11 p
b11 x
b101 A
b10111111 S
b10111111 j
b10111111 r
b10111111 z
b11100011 R
b11 g
b10100000 3
b10100000 `
b10100000 e
b10100000 }
b10100000 4
b10100000 [
b10100000 d
b10100000 u
1&
#1115000
0&
#1120000
b10000 )
b10000 /
b110 +
#1123000
b10111100 4
b10111100 [
b10111100 d
b10111100 u
b10111100 3
b10111100 `
b10111100 e
b10111100 }
b111 g
b11100011 S
b11100011 j
b11100011 r
b11100011 z
b10000 R
b100 B
b100 h
b100 p
b100 x
b110 A
b11 K
1&
#1131000
0&
#1136000
b1000100 )
b1000100 /
b111 +
#1139000
1c
b100 K
b101 B
b101 h
b101 p
b101 x
b111 A
b10000 S
b10000 j
b10000 r
b10000 z
b1000100 R
b1111 g
b11100000 3
b11100000 `
b11100000 e
b11100000 }
b11100000 4
b11100000 [
b11100000 d
b11100000 u
1&
#1147000
0&
#1152000
0(
b1000 +
#1155000
b1101 4
b1101 [
b1101 d
b1101 u
b1101 3
b1101 `
b1101 e
b1101 }
b11111 g
b1000100 S
b1000100 j
b1000100 r
b1000100 z
0N
b110 B
b110 h
b110 p
b110 x
b1000 A
b101 K
1&
#1163000
0&
#1168000
b11 ""
b11 ,
#1171000
07
b110 K
b111 B
b111 h
b111 p
b111 x
0F
b0 O
b0 A
b1000001 3
b1000001 `
b1000001 e
b1000001 }
b1000001 4
b1000001 [
b1000001 d
b1000001 u
1&
#1179000
0&
#1184000
b11 )
b11 /
b0 +
1(
#1187000
b1010 4
b1010 [
b1010 d
b1010 u
b1010 3
b1010 `
b1010 e
b1010 }
1=
0\
1<
0a
1;
0f
b11 R
1N
0H
b101 W
1&
#1195000
0&
#1200000
b10000011 )
b10000011 /
b1 +
#1203000
b0 W
1T
b10 Q
b0 B
b0 h
b0 p
b0 x
b11 O
b1 A
b11 S
b11 j
b11 r
b11 z
b10000011 R
1&
#1211000
0&
#1216000
b10001111 )
b10001111 /
b10 +
#1219000
16
b10000011 4
b10000011 [
b10000011 d
b10000011 u
b10000000 3
b10000000 `
b10000000 e
b10000000 }
b10000011 S
b10000011 j
b10000011 r
b10000011 z
b10001111 R
1F
b10 A
b11 P
b11 W
0T
1#
1E
1V
1&
#1227000
0&
#1232000
b10100011 )
b10100011 /
b11 +
#1235000
b1 C
b1 i
b1 q
b1 y
1U
0V
0#
0E
b0 L
1I
b1 B
b1 h
b1 p
b1 x
b11 A
b10001111 S
b10001111 j
b10001111 r
b10001111 z
b10100011 R
b0 :
0>
1f
0;
1a
0<
1\
0=
1&
#1243000
0&
#1248000
b10111111 )
b10111111 /
b100 +
#1251000
b10001111 9
b10001111 4
b10001111 [
b10001111 d
b10001111 u
b10001111 1
b10001111 v
b10001100 3
b10001100 `
b10001100 e
b10001100 }
b10001100 0
b10001100 ~
b11110 g
b10100011 S
b10100011 j
b10100011 r
b10100011 z
b10111111 R
b10 B
b10 h
b10 p
b10 x
b100 A
b1 L
1$
b10 C
b10 i
b10 q
b10 y
1&
#1259000
0&
#1264000
b11100011 )
b11100011 /
b101 +
#1267000
b10100011 9
b11 C
b11 i
b11 q
b11 y
b10001111 %
b10001111 .
b10001111 D
b10 L
b11 B
b11 h
b11 p
b11 x
b101 A
b10111111 S
b10111111 j
b10111111 r
b10111111 z
b11100011 R
b11100 g
b10100000 0
b10100000 ~
b10100000 3
b10100000 `
b10100000 e
b10100000 }
b10100011 1
b10100011 v
b10100011 4
b10100011 [
b10100011 d
b10100011 u
1&
#1275000
0&
#1280000
b10000 )
b10000 /
b110 +
#1283000
b10111111 9
b10111111 4
b10111111 [
b10111111 d
b10111111 u
b10111111 1
b10111111 v
b10111100 3
b10111100 `
b10111100 e
b10111100 }
b10111100 0
b10111100 ~
b11000 g
b11100011 S
b11100011 j
b11100011 r
b11100011 z
b10000 R
b100 B
b100 h
b100 p
b100 x
b110 A
b11 L
b100 C
b100 i
b100 q
b100 y
b10100011 %
b10100011 .
b10100011 D
1&
#1291000
0&
#1296000
b1000100 )
b1000100 /
b111 +
#1299000
b11100011 9
0c
b101 C
b101 i
b101 q
b101 y
b10111111 %
b10111111 .
b10111111 D
b100 L
b101 B
b101 h
b101 p
b101 x
b111 A
b10000 S
b10000 j
b10000 r
b10000 z
b1000100 R
b10000 g
b11100000 0
b11100000 ~
b11100000 3
b11100000 `
b11100000 e
b11100000 }
b11100011 1
b11100011 v
b11100011 4
b11100011 [
b11100011 d
b11100011 u
1&
#1307000
0&
#1312000
0(
b1000 +
#1315000
b10000 9
b10000 4
b10000 [
b10000 d
b10000 u
b10000 1
b10000 v
b1101 3
b1101 `
b1101 e
b1101 }
b1101 0
b1101 ~
b0 g
b1000100 S
b1000100 j
b1000100 r
b1000100 z
0N
b110 B
b110 h
b110 p
b110 x
b1000 A
b101 L
b110 C
b110 i
b110 q
b110 y
b11100011 %
b11100011 .
b11100011 D
1&
#1323000
0&
#1328000
b100 ,
#1331000
b1000100 9
06
b111 C
b111 i
b111 q
b111 y
b10000 %
b10000 .
b10000 D
b110 L
b111 B
b111 h
b111 p
b111 x
0F
b0 O
b0 A
b1000001 0
b1000001 ~
b1000001 3
b1000001 `
b1000001 e
b1000001 }
b1000100 1
b1000100 v
b1000100 4
b1000100 [
b1000100 d
b1000100 u
1&
#1339000
0&
#1347000
b1010 9
b1010 4
b1010 [
b1010 d
b1010 u
b1010 1
b1010 v
b1010 3
b1010 `
b1010 e
b1010 }
b1010 0
b1010 ~
1=
0\
1<
0a
1;
0f
0I
b110 W
b1000 C
b1000 i
b1000 q
b1000 y
0U
b1000100 %
b1000100 .
b1000100 D
1&
#1355000
0&
#1363000
0$
b0 C
b0 i
b0 q
b0 y
b1010 %
b1010 .
b1010 D
1&
#1371000
0&
#1379000
b10000011 9
b10000011 1
b10000011 v
b10000011 0
b10000011 ~
1&
#1387000
0&
#1395000
b10000011 %
b10000011 .
b10000011 D
1&
#1403000
0&
#1411000
1&
#1419000
0&
#1427000
1&
#1435000
0&
#1443000
1&
#1451000
0&
#1459000
1&
#1467000
0&
#1475000
1&
#1483000
0&
#1488000
b11 #"
b10 ""
b10 ,
b11 -
#1491000
1&
#1499000
0&
#1504000
b10 )
b10 /
b0 +
1(
#1507000
b10 R
1N
1&
#1515000
0&
#1520000
b10001000 )
b10001000 /
b1 +
#1523000
b11 Q
b0 B
b0 h
b0 p
b0 x
b10 O
b1 A
b10 S
b10 j
b10 r
b10 z
b10001000 R
1&
#1531000
0&
#1536000
b10010100 )
b10010100 /
b10 +
#1539000
17
b10000011 4
b10000011 [
b10000011 d
b10000011 u
b10000011 3
b10000011 `
b10000011 e
b10000011 }
b10001000 S
b10001000 j
b10001000 r
b10001000 z
b10010100 R
1F
b10 A
b10 P
1&
#1547000
0&
#1552000
b10101000 )
b10101000 /
b11 +
#1555000
b0 K
1H
b1 B
b1 h
b1 p
b1 x
b11 A
b10010100 S
b10010100 j
b10010100 r
b10010100 z
b10101000 R
b10 :
1>
1f
0;
1a
0<
1\
0=
1&
#1563000
0&
#1568000
b11000100 )
b11000100 /
b100 +
#1571000
b10001000 9
b10001111 4
b10001111 [
b10001111 d
b10001111 u
b10001000 1
b10001000 v
b10001111 3
b10001111 `
b10001111 e
b10001111 }
b1 g
b10101000 S
b10101000 j
b10101000 r
b10101000 z
b11000100 R
b10 B
b10 h
b10 p
b10 x
b100 A
b1 K
1&
#1579000
0&
#1584000
b11101000 )
b11101000 /
b101 +
#1587000
b10001000 %
b10001000 .
b10001000 D
b10 K
b11 B
b11 h
b11 p
b11 x
b101 A
b11000100 S
b11000100 j
b11000100 r
b11000100 z
b11101000 R
b11 g
b10100011 3
b10100011 `
b10100011 e
b10100011 }
b10100011 4
b10100011 [
b10100011 d
b10100011 u
1&
#1595000
0&
#1600000
b10101 )
b10101 /
b110 +
#1603000
b10111111 4
b10111111 [
b10111111 d
b10111111 u
b10111111 3
b10111111 `
b10111111 e
b10111111 }
b111 g
b11101000 S
b11101000 j
b11101000 r
b11101000 z
b10101 R
b100 B
b100 h
b100 p
b100 x
b110 A
b11 K
1&
#1611000
0&
#1616000
b1001001 )
b1001001 /
b111 +
#1619000
1c
b100 K
b101 B
b101 h
b101 p
b101 x
b111 A
b10101 S
b10101 j
b10101 r
b10101 z
b1001001 R
b1111 g
b11100011 3
b11100011 `
b11100011 e
b11100011 }
b11100011 4
b11100011 [
b11100011 d
b11100011 u
1&
#1627000
0&
#1632000
0(
b1000 +
#1635000
b10000 4
b10000 [
b10000 d
b10000 u
b10000 3
b10000 `
b10000 e
b10000 }
b11111 g
b1001001 S
b1001001 j
b1001001 r
b1001001 z
0N
b110 B
b110 h
b110 p
b110 x
b1000 A
b101 K
1&
#1643000
0&
#1648000
b11 ""
b11 ,
#1651000
07
b110 K
b111 B
b111 h
b111 p
b111 x
0F
b0 O
b0 A
b1000100 3
b1000100 `
b1000100 e
b1000100 }
b1000100 4
b1000100 [
b1000100 d
b1000100 u
1&
#1659000
0&
#1664000
b11 )
b11 /
b0 +
1(
#1667000
b1010 4
b1010 [
b1010 d
b1010 u
b1010 3
b1010 `
b1010 e
b1010 }
1=
0\
1<
0a
1;
0f
b11 R
1N
0H
b101 W
1&
#1675000
0&
#1680000
b10001000 )
b10001000 /
b1 +
#1683000
b0 W
1T
b10 Q
b0 B
b0 h
b0 p
b0 x
b11 O
b1 A
b11 S
b11 j
b11 r
b11 z
b10001000 R
1&
#1691000
0&
#1696000
b10010100 )
b10010100 /
b10 +
#1699000
16
b10001000 4
b10001000 [
b10001000 d
b10001000 u
b10000011 3
b10000011 `
b10000011 e
b10000011 }
b10001000 S
b10001000 j
b10001000 r
b10001000 z
b10010100 R
1F
b10 A
b11 P
b11 W
0T
1#
1E
1V
1&
#1707000
0&
#1712000
b10101000 )
b10101000 /
b11 +
